 -.552921E-11 -.175360E+01 -.175383E-01  .638657E-07 -.175449E-01  .256835E-06
 -.175561E-01  .578336E-06 -.175718E-01  .102935E-05 -.175919E-01  .161097E-05
 -.176166E-01  .232456E-05 -.176459E-01  .317183E-05 -.176797E-01  .415479E-05
 -.177182E-01  .527578E-05 -.177614E-01  .653750E-05 -.178093E-01  .794299E-05
 -.178621E-01  .949567E-05 -.179197E-01  .111993E-04 -.179822E-01  .130582E-04
 -.180499E-01  .150769E-04 -.181226E-01  .172604E-04 -.182005E-01  .196144E-04
 -.182838E-01  .221448E-04 -.183726E-01  .248583E-04 -.184669E-01  .277618E-04
 -.185669E-01  .308632E-04 -.186727E-01  .341707E-04 -.187846E-01  .376934E-04
 -.189025E-01  .414410E-04 -.190268E-01  .454240E-04 -.191577E-01  .496538E-04
 -.192952E-01  .541426E-04 -.194397E-01  .589036E-04 -.195912E-01  .639510E-04
 -.197502E-01  .693003E-04 -.199168E-01  .749680E-04 -.200913E-01  .809722E-04
 -.202740E-01  .873322E-04 -.204653E-01  .940689E-04 -.206653E-01  .101205E-03
 -.208745E-01  .108765E-03 -.210933E-01  .116776E-03 -.213221E-01  .125266E-03
 -.215612E-01  .134267E-03 -.218112E-01  .143812E-03 -.220725E-01  .153940E-03
 -.223457E-01  .164689E-03 -.226313E-01  .176104E-03 -.229299E-01  .188232E-03
 -.232421E-01  .201127E-03 -.235687E-01  .214844E-03 -.239104E-01  .229447E-03
 -.242680E-01  .245005E-03 -.246424E-01  .261593E-03 -.250344E-01  .279294E-03
 -.254451E-01  .298199E-03 -.258756E-01  .318411E-03 -.263270E-01  .340040E-03
 -.268006E-01  .363211E-03 -.272979E-01  .388061E-03 -.278202E-01  .414744E-03
 -.283693E-01  .443431E-03 -.289470E-01  .474312E-03 -.295550E-01  .507602E-03
 -.301958E-01  .543541E-03 -.308715E-01  .582399E-03 -.315847E-01  .624482E-03
 -.323384E-01  .670137E-03 -.331356E-01  .719755E-03 -.339798E-01  .773785E-03
 -.348749E-01  .832739E-03 -.358253E-01  .897202E-03 -.368356E-01  .967852E-03
 -.379114E-01  .104547E-02 -.390586E-01  .113096E-02 -.402842E-01  .122538E-02
 -.415958E-01  .132997E-02 -.430022E-01  .144619E-02 -.445134E-01  .157575E-02
 -.461410E-01  .172071E-02 -.478981E-01  .188353E-02 -.498000E-01  .206716E-02
 -.518646E-01  .227519E-02 -.541127E-01  .251201E-02 -.565688E-01  .278303E-02
 -.592620E-01  .309498E-02 -.622272E-01  .345629E-02 -.655061E-01  .387768E-02
 -.691498E-01  .437292E-02 -.732206E-01  .495987E-02 -.777960E-01  .566211E-02
 -.829732E-01  .651122E-02 -.888759E-01  .755026E-02 -.956637E-01  .883912E-02
 -.103546E+00  .104630E-01 -.112802E+00  .125463E-01 -.123814E+00  .152761E-01
 -.137115E+00  .189443E-01 -.153472E+00  .240247E-01 -.174013E+00  .313264E-01
 -.200462E+00  .423173E-01 -.235512E+00  .598662E-01 -.283386E+00  .901200E-01
 -.349981E+00  .147799E+00 -.436562E+00  .272273E+00 -.477875E+00  .562146E+00
 -.102344E+00  .953929E+00  .432511E+00  .691180E+00  .458778E+00  .339904E+00
  .375294E+00  .181714E+00  .304705E+00  .109878E+00  .253418E+00  .729508E-01
  .215987E+00  .518203E-01  .187901E+00  .386926E-01  .166210E+00  .300065E-01
  .149026E+00  .239699E-01  .135113E+00  .196070E-01  .123638E+00  .163519E-01
  .114024E+00  .138583E-01  .105862E+00  .119054E-01  .988507E-01  .103469E-01
  .927680E-01  .908281E-02  .874442E-01  .804294E-02  .827483E-01  .717689E-02
  .785779E-01  .644768E-02  .748513E-01  .582767E-02  .715029E-01  .529590E-02
  .684797E-01  .483621E-02  .657376E-01  .443599E-02  .632405E-01  .408530E-02
  .609581E-01  .377617E-02  .588647E-01  .350221E-02  .569388E-01  .325819E-02
  .551619E-01  .303985E-02  .535182E-01  .284365E-02  .519939E-01  .266665E-02
  .505771E-01  .250637E-02  .492575E-01  .236075E-02  .480261E-01  .222802E-02
  .468747E-01  .210667E-02  .457964E-01  .199542E-02  .447849E-01  .189315E-02
  .438347E-01  .179891E-02  .429406E-01  .171187E-02  .420983E-01  .163130E-02
  .413038E-01  .155656E-02  .405534E-01  .148710E-02  .398438E-01  .142243E-02
  .391721E-01  .136212E-02  .385356E-01  .130577E-02  .379317E-01  .125306E-02
  .373582E-01  .120367E-02  .368131E-01  .115733E-02  .362945E-01  .111381E-02
  .358004E-01  .107289E-02  .353294E-01  .103436E-02  .348799E-01  .998072E-03
  .344504E-01  .963851E-03  .340396E-01  .931561E-03  .336464E-01  .901076E-03
  .332694E-01  .872282E-03  .329076E-01  .845077E-03  .325599E-01  .819370E-03
  .322253E-01  .795079E-03  .319027E-01  .772133E-03  .315914E-01  .750466E-03
  .312902E-01  .730025E-03  .309983E-01  .710760E-03  .307149E-01  .692633E-03
  .304389E-01  .675608E-03  .301695E-01  .659662E-03  .299058E-01  .644775E-03
  .296469E-01  .630937E-03  .293918E-01  .618147E-03  .291395E-01  .606410E-03
  .288889E-01  .595742E-03  .286389E-01  .586170E-03  .283884E-01  .577733E-03
  .281360E-01  .570482E-03  .278803E-01  .564486E-03  .276199E-01  .559829E-03
  .273530E-01  .556621E-03  .270776E-01  .554996E-03  .267917E-01  .555121E-03
  .264928E-01  .557203E-03  .261781E-01  .561497E-03  .258443E-01  .568321E-03
  .254876E-01  .578070E-03  .251036E-01  .591241E-03  .246869E-01  .608463E-03
  .242312E-01  .630536E-03  .237288E-01  .658491E-03  .231701E-01  .693673E-03
  .225435E-01  .737859E-03  .218342E-01  .793433E-03  .210232E-01  .863645E-03
  .200862E-01  .953028E-03  .189908E-01  .106803E-02  .176934E-01  .121811E-02
  .161339E-01  .141749E-02  .142266E-01  .168850E-02  .118454E-01  .206761E-02
  .879742E-02  .261777E-02  .477213E-02  .345518E-02 -.762159E-03  .481349E-02
 -.878993E-02  .721939E-02 -.213236E-01  .120649E-01 -.429553E-01  .240027E-01
 -.832766E-01  .653035E-01 -.556219E-01  .249242E+00  .177115E+00  .130029E+00
  .133035E+00  .383104E-01  .103567E+00  .169811E-01  .873999E-01  .946603E-02
  .775457E-01  .602586E-02  .710106E-01  .417580E-02  .664088E-01  .306773E-02
  .630260E-01  .235101E-02  .604598E-01  .185977E-02  .584672E-01  .150747E-02
  .568937E-01  .124542E-02  .556359E-01  .104451E-02  .546224E-01  .886472E-03
  .538025E-01  .759392E-03  .531387E-01  .655205E-03  .526034E-01  .568315E-03
  .521752E-01  .494724E-03  .518377E-01  .431519E-03  .515780E-01  .376541E-03
  .513858E-01  .328152E-03  .512528E-01  .285096E-03  .511723E-01  .246398E-03
  .511388E-01  .211285E-03  .511477E-01  .179142E-03  .511953E-01  .149474E-03
  .512783E-01  .121876E-03  .513942E-01  .960163E-04  .515407E-01  .716175E-04
  .517159E-01  .484480E-04  .519183E-01  .263133E-04  .521465E-01  .504604E-05
  .523994E-01 -.154972E-04  .526761E-01 -.354396E-04  .529758E-01 -.548897E-04
  .532978E-01 -.739435E-04  .536416E-01 -.926847E-04  .540068E-01 -.111190E-03
  .543931E-01 -.129527E-03  .548002E-01 -.147758E-03  .552280E-01 -.165942E-03
  .556764E-01 -.184131E-03  .561454E-01 -.202375E-03  .566349E-01 -.220721E-03
  .571451E-01 -.239215E-03  .576762E-01 -.257898E-03  .582283E-01 -.276815E-03
  .588016E-01 -.296004E-03  .593966E-01 -.315508E-03  .600135E-01 -.335366E-03
  .606527E-01 -.355619E-03  .613148E-01 -.376307E-03  .620000E-01 -.397472E-03
  .627090E-01 -.419156E-03  .634425E-01 -.441402E-03  .642009E-01 -.464254E-03
  .649850E-01 -.487759E-03  .657956E-01 -.511965E-03  .666334E-01 -.536922E-03
  .674992E-01 -.562682E-03  .683940E-01 -.589301E-03  .693187E-01 -.616836E-03
  .702744E-01 -.645348E-03  .712622E-01 -.674905E-03  .722832E-01 -.705572E-03
  .733387E-01 -.737425E-03  .744300E-01 -.770542E-03  .755585E-01 -.805004E-03
  .767258E-01 -.840904E-03  .779334E-01 -.878336E-03  .791831E-01 -.917402E-03
  .804768E-01 -.958214E-03  .818162E-01 -.100089E-02  .832036E-01 -.104556E-02
  .846411E-01 -.109236E-02  .861312E-01 -.114144E-02  .876763E-01 -.119296E-02
  .892793E-01 -.124711E-02  .909429E-01 -.130407E-02  .926704E-01 -.136405E-02
  .944650E-01 -.142727E-02  .963305E-01 -.149400E-02  .982706E-01 -.156450E-02
  .100290E+00 -.163907E-02  .102392E+00 -.171803E-02  .104583E+00 -.180176E-02
  .106867E+00 -.189064E-02  .109250E+00 -.198511E-02  .111739E+00 -.208567E-02
  .114340E+00 -.219286E-02  .117061E+00 -.230727E-02  .119909E+00 -.242956E-02
  .122893E+00 -.256050E-02  .126023E+00 -.270092E-02  .129309E+00 -.285175E-02
  .132763E+00 -.301406E-02  .136398E+00 -.318904E-02  .140227E+00 -.337803E-02
  .144265E+00 -.358258E-02  .148531E+00 -.380444E-02  .153043E+00 -.404560E-02
  .157823E+00 -.430838E-02  .162895E+00 -.459541E-02  .168284E+00 -.490976E-02
  .174022E+00 -.525501E-02  .180143E+00 -.563529E-02  .186686E+00 -.605549E-02
  .193694E+00 -.652139E-02  .201219E+00 -.703978E-02  .209319E+00 -.761882E-02
  .218061E+00 -.826832E-02  .227524E+00 -.900006E-02  .237800E+00 -.982848E-02
  .248996E+00 -.107713E-01  .261239E+00 -.118503E-01  .274685E+00 -.130931E-01
  .289514E+00 -.145342E-01  .305952E+00 -.162179E-01  .324271E+00 -.182015E-01
  .344811E+00 -.205602E-01  .367997E+00 -.233943E-01  .394372E+00 -.268398E-01
  .424633E+00 -.310848E-01  .459700E+00 -.363954E-01  .500801E+00 -.431581E-01
  .549618E+00 -.519502E-01  .608517E+00 -.636664E-01  .680923E+00 -.797507E-01
  .771969E+00 -.102653E+00  .889696E+00 -.136797E+00  .104730E+01 -.190814E+00
  .126770E+01 -.283323E+00  .159278E+01 -.460220E+00  .209722E+01 -.856731E+00
  .281861E+01 -.196394E+01  .216081E+01 -.511571E+01 -.264847E+01 -.448404E+01
 -.272451E+01 -.169839E+01 -.202985E+01 -.775206E+00 -.156368E+01 -.430329E+00
 -.126099E+01 -.271173E+00 -.105371E+01 -.185906E+00 -.904256E+00 -.135215E+00
 -.791875E+00 -.102721E+00 -.704507E+00 -.806766E-01 -.634734E+00 -.650453E-01
 -.577780E+00 -.535635E-01 -.530440E+00 -.448839E-01 -.490489E+00 -.381635E-01
 -.456334E+00 -.328538E-01 -.426809E+00 -.285856E-01 -.401037E+00 -.251031E-01
 -.378352E+00 -.222242E-01 -.358234E+00 -.198168E-01 -.340273E+00 -.177831E-01
 -.324144E+00 -.160494E-01 -.309583E+00 -.145593E-01 -.296372E+00 -.132689E-01
 -.284336E+00 -.121441E-01 -.273325E+00 -.111576E-01 -.263215E+00 -.102874E-01
 -.253902E+00 -.951597E-02 -.245296E+00 -.882876E-02 -.237321E+00 -.821387E-02
 -.229912E+00 -.766147E-02 -.223010E+00 -.716329E-02 -.216568E+00 -.671244E-02
 -.210541E+00 -.630306E-02 -.204892E+00 -.593015E-02 -.199586E+00 -.558951E-02
 -.194596E+00 -.527746E-02 -.189893E+00 -.499086E-02 -.185455E+00 -.472700E-02
 -.181261E+00 -.448351E-02 -.177292E+00 -.425831E-02 -.173531E+00 -.404960E-02
 -.169964E+00 -.385579E-02 -.166575E+00 -.367546E-02 -.163354E+00 -.350739E-02
 -.160287E+00 -.335045E-02 -.157366E+00 -.320369E-02 -.154581E+00 -.306621E-02
 -.151923E+00 -.293724E-02 -.149385E+00 -.281607E-02 -.146959E+00 -.270207E-02
 -.144638E+00 -.259467E-02 -.142417E+00 -.249336E-02 -.140289E+00 -.239767E-02
 -.138251E+00 -.230718E-02 -.136296E+00 -.222150E-02 -.134421E+00 -.214029E-02
 -.132621E+00 -.206323E-02 -.130893E+00 -.199003E-02 -.129233E+00 -.192042E-02
 -.127638E+00 -.185416E-02 -.126104E+00 -.179102E-02 -.124630E+00 -.173079E-02
 -.123211E+00 -.167330E-02 -.121846E+00 -.161836E-02 -.120533E+00 -.156580E-02
 -.119269E+00 -.151549E-02 -.118052E+00 -.146728E-02 -.116880E+00 -.142105E-02
 -.115752E+00 -.137667E-02 -.114666E+00 -.133403E-02 -.113620E+00 -.129303E-02
 -.112614E+00 -.125357E-02 -.111644E+00 -.121556E-02 -.110711E+00 -.117892E-02
 -.109813E+00 -.114357E-02 -.108949E+00 -.110943E-02 -.108118E+00 -.107643E-02
 -.107319E+00 -.104452E-02 -.106551E+00 -.101361E-02 -.105813E+00 -.983662E-03
 -.105105E+00 -.954614E-03 -.104425E+00 -.926413E-03 -.103773E+00 -.899009E-03
 -.103149E+00 -.872357E-03 -.102551E+00 -.846407E-03 -.101979E+00 -.821119E-03
 -.101433E+00 -.796450E-03 -.100913E+00 -.772359E-03 -.100417E+00 -.748809E-03
 -.999456E-01 -.725764E-03 -.994985E-01 -.703184E-03 -.990754E-01 -.681036E-03
 -.986759E-01 -.659287E-03 -.982999E-01 -.637901E-03 -.979471E-01 -.616847E-03
 -.976176E-01 -.596093E-03 -.973111E-01 -.575604E-03 -.970277E-01 -.555350E-03
 -.967674E-01 -.535301E-03 -.965301E-01 -.515421E-03 -.963161E-01 -.495680E-03
 -.961253E-01 -.476045E-03 -.959581E-01 -.456485E-03 -.958145E-01 -.436962E-03
 -.956950E-01 -.417444E-03 -.955997E-01 -.397895E-03 -.955291E-01 -.378277E-03
 -.954836E-01 -.358551E-03 -.954637E-01 -.338678E-03 -.954700E-01 -.318614E-03
 -.955030E-01 -.298314E-03 -.955636E-01 -.277731E-03 -.956524E-01 -.256814E-03
 -.957704E-01 -.235509E-03 -.959184E-01 -.213758E-03 -.960976E-01 -.191497E-03
 -.963091E-01 -.168658E-03 -.965541E-01 -.145170E-03 -.968342E-01 -.120950E-03
 -.971508E-01 -.959106E-04 -.975057E-01 -.699574E-04 -.979007E-01 -.429819E-04
 -.983379E-01 -.148681E-04 -.988196E-01  .145124E-04 -.993484E-01  .453067E-04
 -.999269E-01  .776744E-04 -.100558E+00  .111796E-03 -.101246E+00  .147872E-03
 -.101994E+00  .186135E-03 -.102806E+00  .226840E-03 -.103686E+00  .270281E-03
 -.104641E+00  .316794E-03 -.105676E+00  .366762E-03 -.106798E+00  .420622E-03
 -.108013E+00  .478887E-03 -.109331E+00  .542144E-03 -.110760E+00  .611078E-03
 -.112312E+00  .686497E-03 -.113998E+00  .769345E-03 -.115832E+00  .860740E-03
 -.117832E+00  .962025E-03 -.120015E+00  .107479E-02 -.122403E+00  .120098E-02
 -.125021E+00  .134293E-02 -.127900E+00  .150353E-02 -.131075E+00  .168633E-02
 -.134588E+00  .189578E-02 -.138490E+00  .213750E-02 -.142843E+00  .241861E-02
 -.147722E+00  .274837E-02 -.153222E+00  .313888E-02 -.159460E+00  .360618E-02
 -.166587E+00  .417209E-02 -.174795E+00  .486659E-02 -.184340E+00  .573204E-02
 -.195562E+00  .682963E-02 -.208930E+00  .825075E-02 -.225104E+00  .101362E-01
 -.245040E+00  .127123E-01 -.270195E+00  .163623E-01 -.302867E+00  .217752E-01
 -.346928E+00  .302928E-01 -.409409E+00  .448182E-01 -.504400E+00  .725961E-01
 -.664139E+00  .135961E+00 -.973809E+00  .331410E+00 -.150011E+01  .135986E+01
  .127972E+01  .204387E+01  .994727E+00  .441262E+00  .624690E+00  .165024E+00
  .440095E+00  .842547E-01  .333605E+00  .507646E-01  .264993E+00  .338299E-01
  .217300E+00  .241161E-01  .182299E+00  .180378E-01  .155559E+00  .139853E-01
  .134489E+00  .111497E-01  .117472E+00  .908847E-02  .103454E+00  .754345E-02
  .917155E-01  .635566E-02  .817492E-01  .542295E-02  .731873E-01  .467714E-02
  .657578E-01  .407147E-02  .592546E-01  .357293E-02  .535179E-01  .315765E-02
  .484232E-01  .280809E-02  .438717E-01  .251111E-02  .397830E-01  .225663E-02
  .360926E-01  .203695E-02  .327473E-01  .184600E-02  .297025E-01  .167898E-02
  .269215E-01  .153205E-02  .243732E-01  .140213E-02  .220309E-01  .128667E-02
  .198721E-01  .118361E-02  .178775E-01  .109124E-02  .160303E-01  .100812E-02
  .143159E-01  .933064E-03  .127217E-01  .865051E-03  .112364E-01  .803221E-03
  .985033E-02  .746844E-03  .855494E-02  .695296E-03  .734241E-02  .648030E-03
  .620600E-02  .604580E-03  .513961E-02  .564541E-03  .413786E-02  .527560E-03
  .319575E-02  .493323E-03  .230895E-02  .461559E-03  .147353E-02  .432029E-03
  .685811E-03  .404518E-03 -.574184E-04  .378838E-03 -.759074E-03  .354824E-03
 -.142190E-02  .332323E-03 -.204833E-02  .311203E-03 -.264059E-02  .291344E-03
 -.320076E-02  .272637E-03 -.373071E-02  .254985E-03 -.423213E-02  .238301E-03
 -.470667E-02  .222504E-03 -.515574E-02  .207522E-03 -.558069E-02  .193291E-03
 -.598279E-02  .179748E-03 -.636317E-02  .166840E-03 -.672286E-02  .154517E-03
 -.706290E-02  .142731E-03 -.738415E-02  .131442E-03 -.768747E-02  .120611E-03
 -.797365E-02  .110200E-03 -.824341E-02  .100177E-03 -.849741E-02  .905103E-04
 -.873626E-02  .811725E-04 -.896057E-02  .721356E-04 -.917088E-02  .633752E-04
 -.936764E-02  .548682E-04 -.955138E-02  .465920E-04 -.972249E-02  .385265E-04
 -.988136E-02  .306527E-04 -.100284E-01  .229515E-04 -.101639E-01  .154060E-04
 -.102882E-01  .800019E-05 -.104016E-01  .717690E-06 -.105044E-01 -.645600E-05
 -.105968E-01 -.135348E-04 -.106790E-01 -.205331E-04 -.107513E-01 -.274637E-04
 -.108138E-01 -.343391E-04 -.108667E-01 -.411720E-04 -.109102E-01 -.479742E-04
 -.109443E-01 -.547571E-04 -.109693E-01 -.615325E-04 -.109852E-01 -.683113E-04
 -.109921E-01 -.751043E-04 -.109901E-01 -.819229E-04 -.109793E-01 -.887774E-04
 -.109596E-01 -.956785E-04 -.109313E-01 -.102637E-03 -.108941E-01 -.109663E-03
 -.108483E-01 -.116768E-03 -.107938E-01 -.123962E-03 -.107305E-01 -.131256E-03
 -.106584E-01 -.138661E-03 -.105776E-01 -.146188E-03 -.104880E-01 -.153849E-03
 -.103894E-01 -.161654E-03 -.102818E-01 -.169616E-03 -.101652E-01 -.177747E-03
 -.100394E-01 -.186060E-03 -.990439E-02 -.194566E-03 -.975993E-02 -.203279E-03
 -.960594E-02 -.212213E-03 -.944227E-02 -.221382E-03 -.926873E-02 -.230800E-03
 -.908516E-02 -.240484E-03 -.889137E-02 -.250448E-03 -.868714E-02 -.260709E-03
 -.847225E-02 -.271285E-03 -.824646E-02 -.282193E-03 -.800950E-02 -.293454E-03
 -.776111E-02 -.305086E-03 -.750100E-02 -.317110E-03 -.722883E-02 -.329549E-03
 -.694429E-02 -.342425E-03 -.664702E-02 -.355764E-03 -.633666E-02 -.369590E-03
 -.601279E-02 -.383932E-03 -.567499E-02 -.398818E-03 -.532284E-02 -.414278E-03
 -.495581E-02 -.430345E-03 -.457343E-02 -.447054E-03 -.417518E-02 -.464440E-03
 -.376046E-02 -.482543E-03 -.332868E-02 -.501405E-03 -.287923E-02 -.521067E-03
 -.241140E-02 -.541580E-03 -.192449E-02 -.562993E-03 -.141775E-02 -.585357E-03
 -.890339E-03 -.608733E-03 -.341426E-03 -.633182E-03  .229881E-03 -.658768E-03
  .824587E-03 -.685564E-03  .144371E-02 -.713647E-03  .208830E-02 -.743095E-03
  .275959E-02 -.774001E-03  .345880E-02 -.806459E-03  .418720E-02 -.840570E-03
  .494628E-02 -.876449E-03  .573751E-02 -.914215E-03  .656252E-02 -.953999E-03
  .742298E-02 -.995941E-03  .832081E-02 -.104020E-02  .925798E-02 -.108694E-02
  .102365E-01 -.113635E-02  .112589E-01 -.118862E-02  .123274E-01 -.124398E-02
  .134447E-01 -.130267E-02  .146137E-01 -.136495E-02  .158375E-01 -.143111E-02
  .171193E-01 -.150146E-02  .184629E-01 -.157637E-02  .198720E-01 -.165622E-02
  .213510E-01 -.174145E-02  .229044E-01 -.183252E-02  .245374E-01 -.192999E-02
  .262552E-01 -.203444E-02  .280641E-01 -.214653E-02  .299706E-01 -.226703E-02
  .319817E-01 -.239675E-02  .341056E-01 -.253666E-02  .363511E-01 -.268782E-02
  .387276E-01 -.285143E-02  .412461E-01 -.302889E-02  .439185E-01 -.322177E-02
  .467581E-01 -.343187E-02  .497795E-01 -.366124E-02  .529998E-01 -.391232E-02
  .564376E-01 -.418786E-02  .601138E-01 -.449108E-02  .640528E-01 -.482579E-02
  .682817E-01 -.519642E-02  .728315E-01 -.560821E-02  .777384E-01 -.606746E-02
  .830434E-01 -.658162E-02  .887940E-01 -.715969E-02  .950466E-01 -.781264E-02
  .101866E+00 -.855382E-02  .109330E+00 -.939967E-02  .117530E+00 -.103708E-01
  .126575E+00 -.114928E-01  .136599E+00 -.127985E-01  .147764E+00 -.143300E-01
  .160268E+00 -.161420E-01  .174359E+00 -.183068E-01  .190352E+00 -.209219E-01
  .208644E+00 -.241202E-01  .229756E+00 -.280875E-01  .254373E+00 -.330900E-01
  .283420E+00 -.395186E-01  .318168E+00 -.479664E-01  .360417E+00 -.593671E-01
  .412790E+00 -.752601E-01  .479228E+00 -.983173E-01  .565872E+00 -.133496E+00
  .682651E+00 -.190793E+00  .845790E+00 -.292556E+00  .107925E+01 -.495641E+00
  .138663E+01 -.965246E+00  .141883E+01 -.212537E+01 -.408800E+00 -.313849E+01
 -.165599E+01 -.172890E+01 -.145462E+01 -.800980E+00 -.116234E+01 -.429564E+00
 -.950671E+00 -.262007E+00 -.802233E+00 -.174976E+00 -.694946E+00 -.124625E+00
 -.614599E+00 -.930615E-01 -.552514E+00 -.720353E-01 -.503264E+00 -.573505E-01
 -.463328E+00 -.466990E-01 -.430350E+00 -.387323E-01 -.402695E+00 -.326202E-01
 -.379197E+00 -.278288E-01 -.359007E+00 -.240034E-01 -.341489E+00 -.209006E-01
 -.326162E+00 -.183492E-01 -.312650E+00 -.162254E-01 -.300661E+00 -.144384E-01
 -.289961E+00 -.129204E-01 -.280362E+00 -.116196E-01 -.271711E+00 -.104963E-01
 -.263882E+00 -.951932E-02 -.256770E+00 -.866405E-02 -.250287E+00 -.791088E-02
 -.244362E+00 -.724401E-02 -.238929E+00 -.665049E-02 -.233937E+00 -.611978E-02
 -.229340E+00 -.564317E-02 -.225097E+00 -.521334E-02 -.221174E+00 -.482422E-02
 -.217542E+00 -.447069E-02 -.214173E+00 -.414837E-02 -.211046E+00 -.385356E-02
 -.208139E+00 -.358310E-02 -.205434E+00 -.333423E-02 -.202916E+00 -.310459E-02
 -.200569E+00 -.289214E-02 -.198382E+00 -.269508E-02 -.196342E+00 -.251186E-02
 -.194439E+00 -.234109E-02 -.192664E+00 -.218157E-02 -.191009E+00 -.203223E-02
 -.189465E+00 -.189212E-02 -.188025E+00 -.176041E-02 -.186684E+00 -.163633E-02
 -.185436E+00 -.151922E-02 -.184275E+00 -.140848E-02 -.183196E+00 -.130355E-02
 -.182196E+00 -.120397E-02 -.181270E+00 -.110929E-02 -.180414E+00 -.101910E-02
 -.179624E+00 -.933054E-03 -.178899E+00 -.850821E-03 -.178235E+00 -.772097E-03
 -.177628E+00 -.696611E-03 -.177077E+00 -.624119E-03 -.176580E+00 -.554386E-03
 -.176134E+00 -.487204E-03 -.175737E+00 -.422385E-03 -.175388E+00 -.359743E-03
 -.175084E+00 -.299119E-03 -.174825E+00 -.240364E-03 -.174609E+00 -.183330E-03
 -.174434E+00 -.127891E-03 -.174299E+00 -.739285E-04 -.174203E+00 -.213235E-04
 -.174146E+00  .300268E-04 -.174125E+00  .802206E-04 -.174141E+00  .129349E-03
 -.174192E+00  .177502E-03 -.174277E+00  .224759E-03 -.174396E+00  .271195E-03
 -.174548E+00  .316886E-03 -.174733E+00  .361900E-03 -.174950E+00  .406299E-03
 -.175198E+00  .450148E-03 -.175477E+00  .493505E-03 -.175787E+00  .536423E-03
 -.176127E+00  .578961E-03 -.176497E+00  .621167E-03 -.176896E+00  .663088E-03
 -.177325E+00  .704776E-03 -.177783E+00  .746275E-03 -.178269E+00  .787626E-03
 -.178785E+00  .828878E-03 -.179329E+00  .870068E-03 -.179901E+00  .911237E-03
 -.180502E+00  .952427E-03 -.181131E+00  .993675E-03 -.181789E+00  .103502E-02
 -.182475E+00  .107650E-02 -.183189E+00  .111814E-02 -.183932E+00  .116000E-02
 -.184703E+00  .120210E-02 -.185504E+00  .124448E-02 -.186332E+00  .128717E-02
 -.187190E+00  .133021E-02 -.188077E+00  .137365E-02 -.188994E+00  .141750E-02
 -.189939E+00  .146181E-02 -.190915E+00  .150662E-02 -.191921E+00  .155196E-02
 -.192958E+00  .159786E-02 -.194025E+00  .164437E-02 -.195123E+00  .169153E-02
 -.196253E+00  .173937E-02 -.197415E+00  .178794E-02 -.198610E+00  .183726E-02
 -.199837E+00  .188739E-02 -.201097E+00  .193837E-02 -.202392E+00  .199023E-02
 -.203721E+00  .204303E-02 -.205085E+00  .209682E-02 -.206484E+00  .215162E-02
 -.207920E+00  .220751E-02 -.209393E+00  .226452E-02 -.210903E+00  .232270E-02
 -.212452E+00  .238211E-02 -.214040E+00  .244282E-02 -.215668E+00  .250487E-02
 -.217337E+00  .256832E-02 -.219048E+00  .263323E-02 -.220801E+00  .269967E-02
 -.222598E+00  .276772E-02 -.224439E+00  .283743E-02 -.226326E+00  .290888E-02
 -.228261E+00  .298214E-02 -.230242E+00  .305730E-02 -.232273E+00  .313443E-02
 -.234355E+00  .321363E-02 -.236488E+00  .329499E-02 -.238674E+00  .337859E-02
 -.240915E+00  .346454E-02 -.243212E+00  .355295E-02 -.245567E+00  .364392E-02
 -.247980E+00  .373756E-02 -.250455E+00  .383401E-02 -.252992E+00  .393338E-02
 -.255594E+00  .403581E-02 -.258263E+00  .414144E-02 -.261000E+00  .425042E-02
 -.263808E+00  .436290E-02 -.266688E+00  .447905E-02 -.269645E+00  .459905E-02
 -.272679E+00  .472308E-02 -.275793E+00  .485133E-02 -.278990E+00  .498402E-02
 -.282273E+00  .512133E-02 -.285645E+00  .526355E-02 -.289109E+00  .541088E-02
 -.292668E+00  .556361E-02 -.296326E+00  .572200E-02 -.300086E+00  .588635E-02
 -.303952E+00  .605695E-02 -.307929E+00  .623418E-02 -.312020E+00  .641837E-02
 -.316229E+00  .660990E-02 -.320563E+00  .680918E-02 -.325024E+00  .701665E-02
 -.329619E+00  .723275E-02 -.334354E+00  .745798E-02 -.339233E+00  .769290E-02
 -.344264E+00  .793807E-02 -.349452E+00  .819409E-02 -.354806E+00  .846162E-02
 -.360331E+00  .874138E-02 -.366036E+00  .903410E-02 -.371929E+00  .934067E-02
 -.378020E+00  .966193E-02 -.384316E+00  .999886E-02 -.390830E+00  .103525E-01
 -.397570E+00  .107240E-01 -.404549E+00  .111145E-01 -.411779E+00  .115254E-01
 -.419272E+00  .119581E-01 -.427043E+00  .124143E-01 -.435107E+00  .128956E-01
 -.443480E+00  .134040E-01 -.452178E+00  .139413E-01 -.461222E+00  .145101E-01
 -.470630E+00  .151127E-01 -.480425E+00  .157520E-01 -.490630E+00  .164308E-01
 -.501270E+00  .171525E-01 -.512372E+00  .179208E-01 -.523967E+00  .187399E-01
 -.536087E+00  .196142E-01 -.548768E+00  .205489E-01 -.562047E+00  .215497E-01
 -.575969E+00  .226228E-01 -.590578E+00  .237755E-01 -.605925E+00  .250155E-01
 -.622068E+00  .263524E-01 -.639069E+00  .277961E-01 -.656995E+00  .293583E-01
 -.675924E+00  .310525E-01 -.695938E+00  .328937E-01 -.717132E+00  .348993E-01
 -.739616E+00  .370898E-01 -.763505E+00  .394882E-01 -.788934E+00  .421219E-01
 -.816054E+00  .450222E-01 -.845037E+00  .482265E-01 -.876077E+00  .517782E-01
 -.909402E+00  .557299E-01 -.945270E+00  .601435E-01 -.983976E+00  .650934E-01
 -.102587E+01  .706699E-01 -.107135E+01  .769830E-01 -.112090E+01  .841677E-01
 -.117508E+01  .923906E-01 -.123457E+01  .101863E+00 -.130017E+01  .112848E+00
 -.137285E+01  .125686E+00 -.145383E+01  .140815E+00 -.154458E+01  .158811E+00
 -.164693E+01  .180441E+00 -.176326E+01  .206751E+00 -.189656E+01  .239181E+00
 -.205073E+01  .279773E+00 -.223097E+01  .331484E+00 -.244425E+01  .398731E+00
 -.270016E+01  .488322E+00 -.301224E+01  .611220E+00 -.339977E+01  .785820E+00
 -.389082E+01  .104483E+01 -.452587E+01  .145031E+01 -.535865E+01  .212933E+01
 -.643030E+01  .336356E+01 -.757813E+01  .580278E+01 -.739309E+01  .105739E+02
 -.143088E+01  .156568E+02  .646263E+01  .124886E+02  .788279E+01  .699146E+01
  .688311E+01  .395880E+01  .575362E+01  .244723E+01  .485246E+01  .163667E+01
  .416484E+01  .116338E+01  .363582E+01  .866399E+00  .322086E+01  .668994E+00
  .288861E+01  .531581E+00  .261757E+01  .432295E+00  .239270E+01  .358306E+00
  .220341E+01  .301745E+00  .204206E+01  .257562E+00  .190298E+01  .222405E+00
  .178193E+01  .193978E+00  .167567E+01  .170675E+00  .158167E+01  .151332E+00
  .149794E+01  .135103E+00  .142292E+01  .121355E+00  .135531E+01  .109608E+00
  .129410E+01  .994902E-01  .123841E+01  .907158E-01  .118754E+01  .830553E-01
  .114090E+01  .763286E-01  .109799E+01  .703897E-01  .105837E+01  .651203E-01
  .102170E+01  .604232E-01  .987645E+00  .562185E-01  .955954E+00  .524399E-01
  .926384E+00  .490310E-01  .898733E+00  .459453E-01  .872823E+00  .431433E-01
  .848496E+00  .405910E-01  .825613E+00  .382597E-01  .804054E+00  .361247E-01
  .783705E+00  .341641E-01  .764470E+00  .323596E-01  .746261E+00  .306950E-01
  .729000E+00  .291562E-01  .712617E+00  .277307E-01  .697048E+00  .264079E-01
  .682232E+00  .251777E-01  .668120E+00  .240320E-01  .654662E+00  .229630E-01
