  .787981E-10 -.434570E+01 -.434252E-01 -.400260E-05 -.433294E-01 -.160500E-04
 -.431690E-01 -.363528E-04 -.429426E-01 -.652648E-04 -.426483E-01 -.103298E-03
 -.422837E-01 -.151140E-03 -.418454E-01 -.209677E-03 -.413296E-01 -.280025E-03
 -.407314E-01 -.363573E-03 -.400452E-01 -.462038E-03 -.392641E-01 -.577530E-03
 -.383800E-01 -.712650E-03 -.373834E-01 -.870604E-03 -.362627E-01 -.105536E-02
 -.350044E-01 -.127187E-02 -.335923E-01 -.152633E-02 -.320071E-01 -.182656E-02
 -.302252E-01 -.218254E-02 -.282184E-01 -.260711E-02 -.259522E-01 -.311698E-02
 -.233840E-01 -.373423E-02 -.204611E-01 -.448837E-02 -.171174E-01 -.541952E-02
 -.132695E-01 -.658324E-02 -.881071E-02 -.805797E-02 -.360318E-02 -.995705E-02
  .253257E-02 -.124484E-01  .983191E-02 -.157882E-01  .186030E-01 -.203803E-01
  .292417E-01 -.268844E-01  .422230E-01 -.364225E-01  .579920E-01 -.509790E-01
  .764837E-01 -.741699E-01  .953448E-01 -.112501E+00  .104164E+00 -.175701E+00
  .724084E-01 -.265479E+00 -.359083E-01 -.332521E+00 -.164217E+00 -.301244E+00
 -.223937E+00 -.216377E+00 -.230089E+00 -.146170E+00 -.217814E+00 -.100854E+00
 -.202292E+00 -.725307E-01 -.187960E+00 -.543275E-01 -.175716E+00 -.421418E-01
 -.165464E+00 -.336536E-01 -.156887E+00 -.275286E-01 -.149666E+00 -.229723E-01
 -.143534E+00 -.194937E-01 -.138277E+00 -.167778E-01 -.133728E+00 -.146163E-01
 -.129759E+00 -.128670E-01 -.126266E+00 -.114306E-01 -.123170E+00 -.102358E-01
 -.120407E+00 -.923084E-02 -.117924E+00 -.837691E-02 -.115681E+00 -.764477E-02
 -.113643E+00 -.701198E-02 -.111782E+00 -.646104E-02 -.110075E+00 -.597821E-02
 -.108501E+00 -.555253E-02 -.107045E+00 -.517516E-02 -.105692E+00 -.483897E-02
 -.104430E+00 -.453807E-02 -.103249E+00 -.426764E-02 -.102140E+00 -.402364E-02
 -.101095E+00 -.380271E-02 -.100108E+00 -.360201E-02 -.991720E-01 -.341913E-02
 -.982827E-01 -.325202E-02 -.974350E-01 -.309892E-02 -.966251E-01 -.295833E-02
 -.958493E-01 -.282893E-02 -.951042E-01 -.270958E-02 -.943870E-01 -.259931E-02
 -.936950E-01 -.249723E-02 -.930259E-01 -.240260E-02 -.923776E-01 -.231474E-02
 -.917480E-01 -.223306E-02 -.911354E-01 -.215703E-02 -.905382E-01 -.208619E-02
 -.899550E-01 -.202011E-02 -.893842E-01 -.195844E-02 -.888246E-01 -.190083E-02
 -.882752E-01 -.184699E-02 -.877348E-01 -.179664E-02 -.872023E-01 -.174956E-02
 -.866769E-01 -.170551E-02 -.861576E-01 -.166429E-02 -.856437E-01 -.162574E-02
 -.851344E-01 -.158969E-02 -.846289E-01 -.155600E-02 -.841265E-01 -.152452E-02
 -.836266E-01 -.149514E-02 -.831284E-01 -.146775E-02 -.826316E-01 -.144225E-02
 -.821353E-01 -.141855E-02 -.816392E-01 -.139656E-02 -.811426E-01 -.137622E-02
 -.806450E-01 -.135744E-02 -.801459E-01 -.134018E-02 -.796449E-01 -.132438E-02
 -.791414E-01 -.130998E-02 -.786349E-01 -.129694E-02 -.781251E-01 -.128523E-02
 -.776114E-01 -.127480E-02 -.770933E-01 -.126562E-02 -.765705E-01 -.125767E-02
 -.760424E-01 -.125093E-02 -.755087E-01 -.124537E-02 -.749687E-01 -.124097E-02
 -.744222E-01 -.123773E-02 -.738686E-01 -.123564E-02 -.733075E-01 -.123468E-02
 -.727383E-01 -.123485E-02 -.721607E-01 -.123616E-02 -.715741E-01 -.123860E-02
 -.709780E-01 -.124218E-02 -.703719E-01 -.124690E-02 -.697553E-01 -.125279E-02
 -.691276E-01 -.125985E-02 -.684883E-01 -.126811E-02 -.678368E-01 -.127757E-02
 -.671726E-01 -.128827E-02 -.664950E-01 -.130023E-02 -.658033E-01 -.131349E-02
 -.650970E-01 -.132807E-02 -.643753E-01 -.134402E-02 -.636376E-01 -.136138E-02
 -.628830E-01 -.138020E-02 -.621109E-01 -.140052E-02 -.613204E-01 -.142240E-02
 -.605106E-01 -.144591E-02 -.596808E-01 -.147111E-02 -.588299E-01 -.149806E-02
 -.579571E-01 -.152686E-02 -.570612E-01 -.155758E-02 -.561411E-01 -.159033E-02
 -.551959E-01 -.162518E-02 -.542242E-01 -.166227E-02 -.532249E-01 -.170170E-02
 -.521965E-01 -.174360E-02 -.511376E-01 -.178811E-02 -.500469E-01 -.183538E-02
 -.489225E-01 -.188558E-02 -.477631E-01 -.193888E-02 -.465666E-01 -.199547E-02
 -.453312E-01 -.205557E-02 -.440549E-01 -.211940E-02 -.427355E-01 -.218722E-02
 -.413706E-01 -.225930E-02 -.399579E-01 -.233593E-02 -.384947E-01 -.241744E-02
 -.369780E-01 -.250419E-02 -.354050E-01 -.259657E-02 -.337722E-01 -.269501E-02
 -.320762E-01 -.280000E-02 -.303131E-01 -.291204E-02 -.284789E-01 -.303172E-02
 -.265690E-01 -.315968E-02 -.245787E-01 -.329663E-02 -.225027E-01 -.344336E-02
 -.203353E-01 -.360075E-02 -.180703E-01 -.376976E-02 -.157010E-01 -.395151E-02
 -.132200E-01 -.414721E-02 -.106191E-01 -.435825E-02 -.788947E-02 -.458618E-02
 -.502127E-02 -.483276E-02 -.200371E-02 -.509998E-02  .117513E-02 -.539010E-02
  .452857E-02 -.570572E-02  .807132E-02 -.604977E-02  .118197E-01 -.642566E-02
  .157923E-01 -.683730E-02  .200096E-01 -.728924E-02  .244949E-01 -.778673E-02
  .292741E-01 -.833594E-02  .343774E-01 -.894411E-02  .398383E-01 -.961976E-02
  .456955E-01 -.103730E-01  .519937E-01 -.112160E-01  .587840E-01 -.121631E-01
  .661260E-01 -.132320E-01  .740890E-01 -.144440E-01  .827546E-01 -.158255E-01
  .922191E-01 -.174089E-01  .102597E+00 -.192349E-01  .114025E+00 -.213548E-01
  .126670E+00 -.238343E-01  .140733E+00 -.267581E-01  .156463E+00 -.302374E-01
  .174170E+00 -.344200E-01  .194242E+00 -.395059E-01  .217175E+00 -.457707E-01
  .243609E+00 -.536022E-01  .274382E+00 -.635597E-01  .310609E+00 -.764721E-01
  .353794E+00 -.936063E-01  .406002E+00 -.116972E+00  .470088E+00 -.149894E+00
  .549985E+00 -.198149E+00  .650859E+00 -.272351E+00  .778205E+00 -.393232E+00
  .931466E+00 -.603413E+00  .107233E+01 -.989071E+00  .999703E+00 -.166369E+01
  .222213E+00 -.235853E+01 -.914014E+00 -.209877E+01 -.130811E+01 -.132413E+01
 -.124320E+01 -.795589E+00 -.109145E+01 -.505467E+00 -.952426E+00 -.342897E+00
 -.840096E+00 -.245847E+00 -.751094E+00 -.184198E+00 -.680079E+00 -.142911E+00
 -.622616E+00 -.114029E+00 -.575404E+00 -.930844E-01 -.536049E+00 -.774355E-01
 -.502809E+00 -.654454E-01 -.474400E+00 -.560606E-01 -.449866E+00 -.485796E-01
 -.428480E+00 -.425208E-01 -.409683E+00 -.375453E-01 -.393039E+00 -.334094E-01
 -.378203E+00 -.299341E-01 -.364899E+00 -.269854E-01 -.352904E+00 -.244619E-01
 -.342036E+00 -.222853E-01 -.332145E+00 -.203945E-01 -.323105E+00 -.187414E-01
 -.314813E+00 -.172875E-01 -.307180E+00 -.160019E-01 -.300130E+00 -.148594E-01
 -.293601E+00 -.138395E-01 -.287536E+00 -.129250E-01 -.281888E+00 -.121018E-01
 -.276616E+00 -.113580E-01 -.271684E+00 -.106837E-01 -.267060E+00 -.100704E-01
 -.262717E+00 -.951085E-02 -.258628E+00 -.899896E-02 -.254774E+00 -.852937E-02
 -.251134E+00 -.809751E-02 -.247691E+00 -.769941E-02 -.244429E+00 -.733160E-02
 -.241335E+00 -.699105E-02 -.238396E+00 -.667511E-02 -.235600E+00 -.638142E-02
 -.232938E+00 -.610795E-02 -.230400E+00 -.585285E-02 -.227977E+00 -.561449E-02
 -.225662E+00 -.539143E-02 -.223447E+00 -.518238E-02 -.221327E+00 -.498617E-02
 -.219295E+00 -.480177E-02 -.217345E+00 -.462825E-02 -.215474E+00 -.446476E-02
 -.213675E+00 -.431054E-02 -.211945E+00 -.416489E-02 -.210280E+00 -.402721E-02
 -.208677E+00 -.389691E-02 -.207130E+00 -.377347E-02 -.205639E+00 -.365644E-02
 -.204199E+00 -.354538E-02 -.202807E+00 -.343989E-02 -.201462E+00 -.333962E-02
 -.200161E+00 -.324423E-02 -.198901E+00 -.315342E-02 -.197680E+00 -.306692E-02
 -.196497E+00 -.298446E-02 -.195350E+00 -.290581E-02 -.194236E+00 -.283076E-02
 -.193154E+00 -.275909E-02 -.192102E+00 -.269064E-02 -.191080E+00 -.262522E-02
 -.190085E+00 -.256268E-02 -.189116E+00 -.250287E-02 -.188172E+00 -.244566E-02
 -.187252E+00 -.239092E-02 -.186354E+00 -.233854E-02 -.185478E+00 -.228842E-02
 -.184621E+00 -.224045E-02 -.183784E+00 -.219455E-02 -.182965E+00 -.215063E-02
 -.182164E+00 -.210862E-02 -.181378E+00 -.206846E-02 -.180608E+00 -.203008E-02
 -.179852E+00 -.199342E-02 -.179110E+00 -.195844E-02 -.178381E+00 -.192510E-02
 -.177663E+00 -.189335E-02 -.176957E+00 -.186317E-02 -.176260E+00 -.183454E-02
 -.175573E+00 -.180743E-02 -.174894E+00 -.178183E-02 -.174223E+00 -.175774E-02
 -.173559E+00 -.173516E-02 -.172900E+00 -.171411E-02 -.172246E+00 -.169459E-02
 -.171597E+00 -.167664E-02 -.170950E+00 -.166029E-02 -.170305E+00 -.164560E-02
 -.169661E+00 -.163262E-02 -.169016E+00 -.162144E-02 -.168370E+00 -.161213E-02
 -.167721E+00 -.160482E-02 -.167067E+00 -.159962E-02 -.166408E+00 -.159672E-02
 -.165741E+00 -.159627E-02 -.165065E+00 -.159852E-02 -.164377E+00 -.160373E-02
 -.163675E+00 -.161220E-02 -.162957E+00 -.162431E-02 -.162219E+00 -.164052E-02
 -.161459E+00 -.166136E-02 -.160672E+00 -.168749E-02 -.159855E+00 -.171970E-02
 -.159001E+00 -.175897E-02 -.158105E+00 -.180648E-02 -.157161E+00 -.186372E-02
 -.156160E+00 -.193256E-02 -.155091E+00 -.201534E-02 -.153944E+00 -.211508E-02
 -.152703E+00 -.223567E-02 -.151351E+00 -.238222E-02 -.149864E+00 -.256156E-02
 -.148215E+00 -.278289E-02 -.146366E+00 -.305898E-02 -.144270E+00 -.340783E-02
 -.141863E+00 -.385550E-02 -.139059E+00 -.444083E-02 -.135737E+00 -.522374E-02
 -.131725E+00 -.630030E-02 -.126768E+00 -.783238E-02 -.120481E+00 -.101088E-01
 -.112253E+00 -.136836E-01 -.101094E+00 -.197209E-01 -.854420E-01 -.309578E-01
 -.635583E-01 -.547483E-01 -.412610E-01 -.112444E+00 -.907681E-01 -.229027E+00
 -.262873E+00 -.210652E+00 -.290631E+00 -.100129E+00 -.267115E+00 -.501598E-01
 -.246455E+00 -.291038E-01 -.231768E+00 -.188842E-01 -.221257E+00 -.132681E-01
 -.213476E+00 -.987915E-02 -.207518E+00 -.768512E-02 -.202821E+00 -.618541E-02
 -.199027E+00 -.511532E-02 -.195897E+00 -.432486E-02 -.193272E+00 -.372397E-02
 -.191036E+00 -.325607E-02 -.189109E+00 -.288420E-02 -.187430E+00 -.258339E-02
 -.185953E+00 -.233625E-02 -.184643E+00 -.213046E-02 -.183473E+00 -.195699E-02
 -.182422E+00 -.180919E-02 -.181472E+00 -.168202E-02 -.180609E+00 -.157163E-02
 -.179821E+00 -.147502E-02 -.179100E+00 -.138985E-02 -.178437E+00 -.131424E-02
 -.177825E+00 -.124670E-02 -.177260E+00 -.118602E-02 -.176736E+00 -.113118E-02
 -.176250E+00 -.108139E-02 -.175797E+00 -.103596E-02 -.175375E+00 -.994314E-03
 -.174980E+00 -.955983E-03 -.174612E+00 -.920560E-03 -.174267E+00 -.887700E-03
 -.173944E+00 -.857110E-03 -.173641E+00 -.828536E-03 -.173357E+00 -.801758E-03
 -.173091E+00 -.776588E-03 -.172841E+00 -.752858E-03 -.172606E+00 -.730426E-03
 -.172386E+00 -.709162E-03 -.172180E+00 -.688954E-03 -.171987E+00 -.669703E-03
 -.171807E+00 -.651321E-03 -.171638E+00 -.633728E-03 -.171480E+00 -.616855E-03
 -.171333E+00 -.600637E-03 -.171197E+00 -.585018E-03 -.171070E+00 -.569947E-03
 -.170953E+00 -.555376E-03 -.170845E+00 -.541263E-03 -.170746E+00 -.527570E-03
 -.170656E+00 -.514261E-03 -.170574E+00 -.501304E-03 -.170500E+00 -.488669E-03
 -.170434E+00 -.476328E-03 -.170376E+00 -.464255E-03 -.170326E+00 -.452428E-03
 -.170283E+00 -.440823E-03 -.170247E+00 -.429420E-03 -.170219E+00 -.418199E-03
 -.170197E+00 -.407143E-03 -.170183E+00 -.396234E-03 -.170176E+00 -.385454E-03
 -.170175E+00 -.374789E-03 -.170182E+00 -.364223E-03 -.170195E+00 -.353742E-03
 -.170215E+00 -.343332E-03 -.170242E+00 -.332978E-03 -.170275E+00 -.322669E-03
 -.170316E+00 -.312390E-03 -.170363E+00 -.302130E-03 -.170416E+00 -.291876E-03
 -.170477E+00 -.281614E-03 -.170544E+00 -.271333E-03 -.170619E+00 -.261021E-03
 -.170700E+00 -.250665E-03 -.170788E+00 -.240252E-03 -.170884E+00 -.229770E-03
 -.170986E+00 -.219207E-03 -.171096E+00 -.208548E-03 -.171213E+00 -.197780E-03
 -.171338E+00 -.186891E-03 -.171470E+00 -.175865E-03 -.171610E+00 -.164688E-03
 -.171758E+00 -.153345E-03 -.171915E+00 -.141819E-03 -.172079E+00 -.130096E-03
 -.172252E+00 -.118157E-03 -.172433E+00 -.105984E-03 -.172624E+00 -.935595E-04
 -.172824E+00 -.808631E-04 -.173032E+00 -.678732E-04 -.173251E+00 -.545681E-04
 -.173480E+00 -.409250E-04 -.173718E+00 -.269182E-04 -.173968E+00 -.125217E-04
 -.174228E+00  .229180E-05 -.174499E+00  .175536E-04 -.174783E+00  .332951E-04
 -.175078E+00  .495503E-04 -.175386E+00  .663552E-04 -.175707E+00  .837507E-04
 -.176041E+00  .101779E-03 -.176390E+00  .120483E-03 -.176753E+00  .139916E-03
 -.177132E+00  .160128E-03 -.177526E+00  .181177E-03 -.177938E+00  .203127E-03
 -.178366E+00  .226045E-03 -.178814E+00  .250003E-03 -.179280E+00  .275083E-03
 -.179767E+00  .301372E-03 -.180274E+00  .328965E-03 -.180804E+00  .357967E-03
 -.181358E+00  .388494E-03 -.181937E+00  .420670E-03 -.182541E+00  .454637E-03
 -.183174E+00  .490547E-03 -.183836E+00  .528567E-03 -.184529E+00  .568890E-03
 -.185255E+00  .611722E-03 -.186017E+00  .657294E-03 -.186816E+00  .705869E-03
 -.187656E+00  .757737E-03 -.188538E+00  .813220E-03 -.189466E+00  .872684E-03
 -.190444E+00  .936547E-03 -.191475E+00  .100527E-02 -.192564E+00  .107939E-02
 -.193714E+00  .115950E-02 -.194931E+00  .124630E-02 -.196221E+00  .134057E-02
 -.197589E+00  .144322E-02 -.199044E+00  .155531E-02 -.200592E+00  .167805E-02
 -.202244E+00  .181288E-02 -.204010E+00  .196144E-02 -.205900E+00  .212570E-02
 -.207928E+00  .230799E-02 -.210111E+00  .251108E-02 -.212465E+00  .273826E-02
 -.215011E+00  .299356E-02 -.217773E+00  .328183E-02 -.220779E+00  .360901E-02
 -.224063E+00  .398250E-02 -.227664E+00  .441145E-02 -.231630E+00  .490740E-02
 -.236018E+00  .548513E-02 -.240899E+00  .616361E-02 -.246360E+00  .696763E-02
 -.252509E+00  .793017E-02 -.259484E+00  .909565E-02 -.267460E+00  .105251E-01
 -.276666E+00  .123044E-01 -.287407E+00  .145569E-01 -.300094E+00  .174656E-01
 -.315294E+00  .213099E-01 -.333820E+00  .265349E-01 -.356856E+00  .338810E-01
 -.386192E+00  .446522E-01 -.424637E+00  .613109E-01 -.476713E+00  .889195E-01
 -.549639E+00  .139075E+00 -.652636E+00  .242042E+00 -.772795E+00  .485394E+00
 -.658587E+00  .103297E+01  .199076E+00  .117915E+01  .488910E+00  .590208E+00
  .383260E+00  .285555E+00  .273031E+00  .159556E+00  .193860E+00  .100122E+00
  .137637E+00  .682079E-01  .964517E-01  .492936E-01  .652501E-01  .372246E-01
  .409010E-01  .290754E-01  .214162E-01  .233227E-01  .549446E-02  .191147E-01
 -.774746E-02  .159458E-01 -.189265E-01  .135007E-01 -.284869E-01  .115750E-01
 -.367541E-01  .100316E-01 -.439724E-01  .877582E-02 -.503293E-01  .774034E-02
 -.559700E-01  .687658E-02 -.610086E-01  .614863E-02 -.655373E-01  .552940E-02
 -.696297E-01  .499832E-02 -.733460E-01  .453945E-02 -.767363E-01  .414024E-02
 -.798419E-01  .379082E-02 -.826974E-01  .348325E-02 -.853323E-01  .321111E-02
 -.877714E-01  .296917E-02 -.900360E-01  .275314E-02 -.921446E-01  .255944E-02
 -.941131E-01  .238512E-02 -.959550E-01  .222769E-02 -.976827E-01  .208504E-02
 -.993067E-01  .195538E-02 -.100836E+00  .183720E-02 -.102280E+00  .172918E-02
 -.103644E+00  .163021E-02 -.104937E+00  .153930E-02 -.106162E+00  .145562E-02
 -.107327E+00  .137842E-02 -.108435E+00  .130707E-02 -.109491E+00  .124098E-02
 -.110498E+00  .117967E-02 -.111460E+00  .112268E-02 -.112380E+00  .106964E-02
 -.113262E+00  .102018E-02 -.114107E+00  .974005E-03 -.114918E+00  .930831E-03
 -.115697E+00  .890409E-03 -.116446E+00  .852516E-03 -.117168E+00  .816952E-03
 -.117863E+00  .783533E-03 -.118533E+00  .752096E-03 -.119181E+00  .722494E-03
 -.119806E+00  .694589E-03 -.120411E+00  .668260E-03 -.120996E+00  .643396E-03
 -.121563E+00  .619892E-03 -.122113E+00  .597656E-03 -.122645E+00  .576605E-03
 -.123163E+00  .556657E-03 -.123665E+00  .537742E-03 -.124154E+00  .519793E-03
 -.124629E+00  .502751E-03 -.125092E+00  .486557E-03 -.125542E+00  .471161E-03
 -.125981E+00  .456515E-03 -.126409E+00  .442573E-03 -.126827E+00  .429296E-03
 -.127234E+00  .416645E-03 -.127632E+00  .404583E-03 -.128022E+00  .393079E-03
 -.128402E+00  .382102E-03 -.128775E+00  .371622E-03 -.129139E+00  .361614E-03
 -.129496E+00  .352052E-03 -.129846E+00  .342913E-03 -.130189E+00  .334175E-03
 -.130525E+00  .325819E-03 -.130855E+00  .317824E-03 -.131179E+00  .310173E-03
 -.131497E+00  .302849E-03 -.131809E+00  .295836E-03 -.132117E+00  .289118E-03
 -.132419E+00  .282684E-03 -.132716E+00  .276518E-03 -.133008E+00  .270609E-03
 -.133296E+00  .264945E-03 -.133580E+00  .259515E-03 -.133859E+00  .254307E-03
 -.134135E+00  .249313E-03 -.134406E+00  .244524E-03 -.134674E+00  .239929E-03
 -.134938E+00  .235521E-03 -.135199E+00  .231292E-03 -.135457E+00  .227233E-03
 -.135711E+00  .223339E-03 -.135962E+00  .219602E-03 -.136211E+00  .216015E-03
 -.136456E+00  .212573E-03 -.136699E+00  .209269E-03 -.136939E+00  .206098E-03
 -.137176E+00  .203054E-03 -.137411E+00  .200133E-03 -.137644E+00  .197328E-03
 -.137874E+00  .194636E-03 -.138103E+00  .192052E-03 -.138329E+00  .189571E-03
 -.138553E+00  .187190E-03 -.138775E+00  .184904E-03 -.138995E+00  .182710E-03
 -.139213E+00  .180603E-03 -.139429E+00  .178580E-03 -.139644E+00  .176637E-03
 -.139857E+00  .174772E-03 -.140068E+00  .172980E-03 -.140278E+00  .171258E-03
 -.140486E+00  .169604E-03 -.140693E+00  .168014E-03 -.140898E+00  .166485E-03
 -.141102E+00  .165013E-03 -.141304E+00  .163597E-03 -.141505E+00  .162233E-03
 -.141705E+00  .160919E-03 -.141903E+00  .159650E-03 -.142100E+00  .158425E-03
 -.142296E+00  .157240E-03 -.142491E+00  .156094E-03 -.142684E+00  .154981E-03
 -.142877E+00  .153901E-03 -.143068E+00  .152849E-03 -.143257E+00  .151822E-03
 -.143446E+00  .150819E-03 -.143634E+00  .149834E-03 -.143820E+00  .148865E-03
 -.144005E+00  .147909E-03 -.144189E+00  .146961E-03 -.144372E+00  .146018E-03
 -.144553E+00  .145077E-03 -.144734E+00  .144133E-03 -.144913E+00  .143181E-03
 -.145090E+00  .142217E-03 -.145267E+00  .141237E-03 -.145442E+00  .140235E-03
 -.145615E+00  .139205E-03 -.145788E+00  .138142E-03 -.145958E+00  .137040E-03
 -.146127E+00  .135891E-03 -.146295E+00  .134688E-03 -.146461E+00  .133423E-03
 -.146624E+00  .132087E-03 -.146786E+00  .130671E-03 -.146946E+00  .129165E-03
 -.147104E+00  .127557E-03 -.147260E+00  .125835E-03 -.147413E+00  .123985E-03
 -.147563E+00  .121993E-03 -.147711E+00  .119840E-03 -.147856E+00  .117509E-03
 -.147997E+00  .114979E-03 -.148135E+00  .112227E-03 -.148270E+00  .109227E-03
 -.148400E+00  .105951E-03 -.148526E+00  .102364E-03 -.148647E+00  .984321E-04
 -.148763E+00  .941117E-04 -.148874E+00  .893561E-04 -.148978E+00  .841107E-04
 -.149075E+00  .783137E-04 -.149166E+00  .718941E-04 -.149248E+00  .647691E-04
 -.149321E+00  .568436E-04 -.149384E+00  .480069E-04 -.149436E+00  .381281E-04
 -.149476E+00  .270547E-04 -.149502E+00  .146067E-04 -.149513E+00  .567746E-06
 -.149507E+00 -.153191E-04 -.149482E+00 -.333631E-04 -.149435E+00 -.539425E-04
 -.149362E+00 -.775169E-04 -.149262E+00 -.104653E-03 -.149128E+00 -.136061E-03
 -.148957E+00 -.172627E-03 -.148742E+00 -.215481E-03 -.148475E+00 -.266079E-03
 -.148148E+00 -.326317E-03 -.147748E+00 -.398697E-03 -.147261E+00 -.486601E-03
 -.146668E+00 -.594652E-03 -.145944E+00 -.729323E-03 -.145057E+00 -.899890E-03
 -.143962E+00 -.112006E-02 -.142598E+00 -.141070E-02 -.140876E+00 -.180482E-02
 -.138665E+00 -.235726E-02 -.135765E+00 -.316418E-02 -.131851E+00 -.440670E-02
 -.126366E+00 -.645859E-02 -.118299E+00 -.101885E-01 -.105715E+00 -.179728E-01
 -.853632E-01 -.379214E-01 -.655736E-01 -.103147E+00 -.190409E+00 -.191517E+00
 -.259646E+00 -.780762E-01 -.235536E+00 -.307043E-01 -.217572E+00 -.154106E-01
 -.206461E+00 -.905163E-02 -.199234E+00 -.586858E-02 -.194261E+00 -.406204E-02
 -.190685E+00 -.294157E-02 -.188027E+00 -.219964E-02 -.186000E+00 -.168304E-02
 -.184427E+00 -.130870E-02 -.183190E+00 -.102852E-02 -.182209E+00 -.813111E-03
 -.181427E+00 -.643685E-03 -.180804E+00 -.507782E-03 -.180309E+00 -.396898E-03
 -.179919E+00 -.305056E-03 -.179616E+00 -.227947E-03 -.179388E+00 -.162422E-03
 -.179223E+00 -.106123E-03 -.179111E+00 -.572543E-04 -.179047E+00 -.144385E-04
 -.179024E+00  .234001E-04 -.179037E+00  .571159E-04 -.179083E+00  .873869E-04
 -.179158E+00  .114759E-03 -.179258E+00  .139682E-03 -.179383E+00  .162519E-03
 -.179529E+00  .183573E-03 -.179695E+00  .203096E-03 -.179879E+00  .221300E-03
 -.180080E+00  .238363E-03 -.180297E+00  .254436E-03 -.180529E+00  .269649E-03
 -.180775E+00  .284111E-03 -.181034E+00  .297921E-03 -.181305E+00  .311161E-03
 -.181588E+00  .323901E-03 -.181882E+00  .336208E-03 -.182188E+00  .348135E-03
 -.182504E+00  .359732E-03 -.182830E+00  .371042E-03 -.183165E+00  .382106E-03
 -.183511E+00  .392956E-03 -.183865E+00  .403624E-03 -.184229E+00  .414139E-03
 -.184601E+00  .424525E-03 -.184983E+00  .434806E-03 -.185372E+00  .445003E-03
 -.185770E+00  .455135E-03 -.186177E+00  .465219E-03 -.186592E+00  .475273E-03
 -.187015E+00  .485310E-03 -.187446E+00  .495346E-03 -.187885E+00  .505394E-03
 -.188333E+00  .515465E-03 -.188788E+00  .525572E-03 -.189252E+00  .535725E-03
 -.189723E+00  .545936E-03 -.190203E+00  .556213E-03 -.190690E+00  .566567E-03
 -.191186E+00  .577007E-03 -.191690E+00  .587542E-03 -.192203E+00  .598180E-03
 -.192723E+00  .608930E-03 -.193252E+00  .619800E-03 -.193790E+00  .630797E-03
 -.194336E+00  .641932E-03 -.194890E+00  .653210E-03 -.195453E+00  .664639E-03
 -.196025E+00  .676228E-03 -.196606E+00  .687984E-03 -.197196E+00  .699915E-03
 -.197795E+00  .712028E-03 -.198403E+00  .724332E-03 -.199020E+00  .736834E-03
 -.199647E+00  .749542E-03 -.200284E+00  .762464E-03 -.200931E+00  .775607E-03
 -.201587E+00  .788982E-03 -.202254E+00  .802595E-03 -.202930E+00  .816454E-03
 -.203618E+00  .830570E-03 -.204316E+00  .844951E-03 -.205024E+00  .859605E-03
 -.205744E+00  .874543E-03 -.206475E+00  .889773E-03 -.207217E+00  .905305E-03
 -.207972E+00  .921149E-03 -.208737E+00  .937317E-03 -.209516E+00  .953818E-03
 -.210306E+00  .970663E-03 -.211109E+00  .987865E-03 -.211925E+00  .100543E-02
 -.212754E+00  .102338E-02 -.213596E+00  .104172E-02 -.214452E+00  .106047E-02
 -.215322E+00  .107963E-02 -.216206E+00  .109922E-02 -.217105E+00  .111926E-02
 -.218019E+00  .113977E-02 -.218947E+00  .116074E-02 -.219892E+00  .118221E-02
 -.220852E+00  .120419E-02 -.221829E+00  .122670E-02 -.222822E+00  .124975E-02
 -.223833E+00  .127336E-02 -.224861E+00  .129755E-02 -.225907E+00  .132234E-02
 -.226971E+00  .134776E-02 -.228054E+00  .137382E-02 -.229156E+00  .140055E-02
 -.230278E+00  .142796E-02 -.231421E+00  .145610E-02 -.232584E+00  .148497E-02
 -.233768E+00  .151461E-02 -.234974E+00  .154505E-02 -.236203E+00  .157631E-02
 -.237455E+00  .160842E-02 -.238730E+00  .164143E-02 -.240030E+00  .167534E-02
 -.241354E+00  .171022E-02 -.242705E+00  .174609E-02 -.244081E+00  .178299E-02
 -.245485E+00  .182096E-02 -.246917E+00  .186004E-02 -.248377E+00  .190027E-02
 -.249867E+00  .194171E-02 -.251388E+00  .198440E-02 -.252939E+00  .202839E-02
 -.254523E+00  .207374E-02 -.256141E+00  .212050E-02 -.257792E+00  .216873E-02
 -.259479E+00  .221848E-02 -.261202E+00  .226984E-02 -.262963E+00  .232287E-02
 -.264763E+00  .237763E-02 -.266603E+00  .243422E-02 -.268484E+00  .249270E-02
 -.270408E+00  .255316E-02 -.272376E+00  .261570E-02 -.274390E+00  .268041E-02
 -.276451E+00  .274739E-02 -.278562E+00  .281674E-02 -.280722E+00  .288859E-02
 -.282935E+00  .296305E-02 -.285203E+00  .304025E-02 -.287527E+00  .312032E-02
 -.289909E+00  .320341E-02 -.292352E+00  .328967E-02 -.294858E+00  .337927E-02
 -.297429E+00  .347236E-02 -.300068E+00  .356915E-02 -.302777E+00  .366983E-02
 -.305560E+00  .377461E-02 -.308419E+00  .388371E-02 -.311357E+00  .399737E-02
 -.314378E+00  .411584E-02 -.317485E+00  .423940E-02 -.320682E+00  .436835E-02
 -.323973E+00  .450301E-02 -.327361E+00  .464371E-02 -.330852E+00  .479081E-02
 -.334450E+00  .494471E-02 -.338159E+00  .510581E-02 -.341986E+00  .527461E-02
 -.345935E+00  .545158E-02 -.350012E+00  .563725E-02 -.354225E+00  .583220E-02
 -.358578E+00  .603706E-02 -.363080E+00  .625248E-02 -.367739E+00  .647924E-02
 -.372562E+00  .671813E-02 -.377558E+00  .697002E-02 -.382737E+00  .723586E-02
 -.388109E+00  .751671E-02 -.393684E+00  .781366E-02 -.399474E+00  .812805E-02
 -.405493E+00  .846121E-02 -.411753E+00  .881467E-02 -.418269E+00  .919010E-02
 -.425057E+00  .958935E-02 -.432134E+00  .100145E-01 -.439518E+00  .104677E-01
 -.447232E+00  .109516E-01 -.455297E+00  .114690E-01 -.463736E+00  .120231E-01
 -.472577E+00  .126173E-01 -.481848E+00  .132556E-01 -.491582E+00  .139424E-01
 -.501814E+00  .146829E-01 -.512583E+00  .154827E-01 -.523932E+00  .163483E-01
 -.535909E+00  .172870E-01 -.548567E+00  .183074E-01 -.561965E+00  .194190E-01
 -.576170E+00  .206332E-01 -.591258E+00  .219629E-01 -.607311E+00  .234231E-01
 -.624426E+00  .250314E-01 -.642710E+00  .268084E-01 -.662286E+00  .287783E-01
 -.683297E+00  .309705E-01 -.705905E+00  .334192E-01 -.730298E+00  .361659E-01
 -.756695E+00  .392608E-01 -.785351E+00  .427652E-01 -.816568E+00  .467542E-01
 -.850699E+00  .513207E-01 -.888175E+00  .565823E-01 -.929508E+00  .626865E-01
 -.975318E+00  .698224E-01 -.102637E+01  .782350E-01 -.108360E+01  .882467E-01
 -.114820E+01  .100286E+00 -.122167E+01  .114941E+00 -.130594E+01  .133020E+00
 -.140354E+01  .155671E+00 -.151785E+01  .184564E+00 -.165343E+01  .222200E+00
 -.181663E+01  .272450E+00 -.201652E+01  .341584E+00 -.226633E+01  .440209E+00
 -.258588E+01  .587395E+00 -.300537E+01  .819955E+00 -.356986E+01  .121536E+01
 -.433401E+01  .195379E+01 -.526708E+01  .349268E+01 -.552424E+01  .684869E+01
 -.125696E+01  .110315E+02  .475240E+01  .833701E+01  .533038E+01  .428012E+01
  .443182E+01  .231772E+01  .360436E+01  .140230E+01  .298597E+01  .927291E+00
  .252869E+01  .654851E+00  .218302E+01  .485712E+00  .191480E+01  .374046E+00
  .170159E+01  .296671E+00  .152851E+01  .240945E+00  .138542E+01  .199516E+00
  .126529E+01  .167901E+00  .116308E+01  .143238E+00  .107512E+01  .123635E+00
  .998638E+00  .107798E+00  .931564E+00  .948246E-01  .872263E+00  .840621E-01
  .819474E+00  .750367E-01  .772187E+00  .673940E-01  .729591E+00  .608655E-01
  .691024E+00  .552446E-01  .655948E+00  .503710E-01  .623905E+00  .461171E-01
  .594525E+00  .423824E-01  .567489E+00  .390857E-01  .542530E+00  .361610E-01
  .519418E+00  .335543E-01  .497957E+00  .312211E-01  .477980E+00  .291246E-01
  .459333E+00  .272333E-01  .441892E+00  .255216E-01  .425544E+00  .239673E-01
  .410190E+00  .225516E-01  .395742E+00  .212586E-01  .382125E+00  .200745E-01
  .369266E+00  .189872E-01  .357106E+00  .179865E-01  .345589E+00  .170634E-01
  .334667E+00  .162101E-01  .324295E+00  .154197E-01  .314433E+00  .146862E-01
  .305044E+00  .140042E-01  .296095E+00  .133689E-01  .287556E+00  .127762E-01
