  .184078E-10 -.256490E+01 -.256416E-01 -.869275E-06 -.256192E-01 -.348106E-05
 -.255818E-01 -.787251E-05 -.255290E-01 -.141037E-04 -.254604E-01 -.222612E-04
 -.253756E-01 -.324603E-04 -.252738E-01 -.448479E-04 -.251542E-01 -.596065E-04
 -.250160E-01 -.769594E-04 -.248579E-01 -.971771E-04 -.246785E-01 -.120586E-03
 -.244763E-01 -.147578E-03 -.242495E-01 -.178625E-03 -.239959E-01 -.214293E-03
 -.237130E-01 -.255266E-03 -.233979E-01 -.302372E-03 -.230472E-01 -.356616E-03
 -.226569E-01 -.419227E-03 -.222223E-01 -.491719E-03 -.217378E-01 -.575964E-03
 -.211970E-01 -.674302E-03 -.205918E-01 -.789681E-03 -.199129E-01 -.925849E-03
 -.191488E-01 -.108763E-02 -.182856E-01 -.128129E-02 -.173061E-01 -.151512E-02
 -.161889E-01 -.180018E-02 -.149072E-01 -.215155E-02 -.134268E-01 -.259012E-02
 -.117041E-01 -.314544E-02 -.968196E-02 -.386032E-02 -.728539E-02 -.479844E-02
 -.441455E-02 -.605742E-02 -.935846E-03 -.779223E-02  .332835E-02 -.102586E-01
  .860533E-02 -.138978E-01  .151472E-01 -.195071E-01  .230738E-01 -.285893E-01
  .316959E-01 -.440096E-01  .369821E-01 -.705840E-01  .249646E-01 -.110800E+00
 -.240825E-01 -.142013E+00 -.820050E-01 -.125121E+00 -.105105E+00 -.856226E-01
 -.104980E+00 -.557828E-01 -.983906E-01 -.376236E-01 -.913134E-01 -.266680E-01
 -.851683E-01 -.197780E-01 -.801001E-01 -.152301E-01 -.759597E-01 -.120925E-01
 -.725635E-01 -.984393E-02 -.697541E-01 -.817981E-02 -.674080E-01 -.691422E-02
 -.654305E-01 -.592910E-02 -.637497E-01 -.514691E-02 -.623102E-01 -.451504E-02
 -.610693E-01 -.399689E-02 -.599935E-01 -.356636E-02 -.590565E-01 -.320443E-02
 -.582370E-01 -.289699E-02 -.575182E-01 -.263340E-02 -.568860E-01 -.240549E-02
 -.563292E-01 -.220693E-02 -.558382E-01 -.203274E-02 -.554052E-01 -.187896E-02
 -.550236E-01 -.174240E-02 -.546878E-01 -.162049E-02 -.543930E-01 -.151110E-02
 -.541352E-01 -.141251E-02 -.539108E-01 -.132325E-02 -.537168E-01 -.124213E-02
 -.535507E-01 -.116811E-02 -.534101E-01 -.110034E-02 -.532930E-01 -.103808E-02
 -.531976E-01 -.980695E-03 -.531225E-01 -.927647E-03 -.530663E-01 -.878464E-03
 -.530278E-01 -.832739E-03 -.530058E-01 -.790115E-03 -.529996E-01 -.750282E-03
 -.530082E-01 -.712964E-03 -.530308E-01 -.677921E-03 -.530670E-01 -.644937E-03
 -.531159E-01 -.613821E-03 -.531772E-01 -.584405E-03 -.532504E-01 -.556537E-03
 -.533349E-01 -.530080E-03 -.534306E-01 -.504911E-03 -.535370E-01 -.480920E-03
 -.536539E-01 -.458006E-03 -.537810E-01 -.436080E-03 -.539181E-01 -.415058E-03
 -.540650E-01 -.394865E-03 -.542215E-01 -.375431E-03 -.543876E-01 -.356694E-03
 -.545631E-01 -.338595E-03 -.547479E-01 -.321079E-03 -.549420E-01 -.304099E-03
 -.551452E-01 -.287606E-03 -.553576E-01 -.271558E-03 -.555792E-01 -.255915E-03
 -.558100E-01 -.240640E-03 -.560499E-01 -.225696E-03 -.562991E-01 -.211051E-03
 -.565575E-01 -.196672E-03 -.568253E-01 -.182531E-03 -.571025E-01 -.168598E-03
 -.573892E-01 -.154846E-03 -.576856E-01 -.141248E-03 -.579917E-01 -.127780E-03
 -.583077E-01 -.114418E-03 -.586338E-01 -.101136E-03 -.589701E-01 -.879123E-04
 -.593168E-01 -.747235E-04 -.596742E-01 -.615475E-04 -.600424E-01 -.483620E-04
 -.604216E-01 -.351446E-04 -.608122E-01 -.218736E-04 -.612143E-01 -.852687E-05
 -.616283E-01  .491782E-05 -.620545E-01  .184831E-04 -.624932E-01  .321916E-04
 -.629447E-01  .460666E-04 -.634095E-01  .601319E-04 -.638878E-01  .744119E-04
 -.643801E-01  .889318E-04 -.648868E-01  .103717E-03 -.654084E-01  .118796E-03
 -.659454E-01  .134195E-03 -.664983E-01  .149945E-03 -.670676E-01  .166075E-03
 -.676539E-01  .182619E-03 -.682579E-01  .199609E-03 -.688801E-01  .217082E-03
 -.695212E-01  .235076E-03 -.701821E-01  .253631E-03 -.708634E-01  .272789E-03
 -.715659E-01  .292595E-03 -.722906E-01  .313098E-03 -.730384E-01  .334351E-03
 -.738103E-01  .356407E-03 -.746072E-01  .379327E-03 -.754304E-01  .403174E-03
 -.762810E-01  .428018E-03 -.771602E-01  .453932E-03 -.780695E-01  .480996E-03
 -.790103E-01  .509299E-03 -.799840E-01  .538932E-03 -.809925E-01  .570000E-03
 -.820374E-01  .602614E-03 -.831207E-01  .636894E-03 -.842444E-01  .672973E-03
 -.854107E-01  .710997E-03 -.866219E-01  .751124E-03 -.878807E-01  .793529E-03
 -.891899E-01  .838405E-03 -.905522E-01  .885962E-03 -.919712E-01  .936437E-03
 -.934501E-01  .990086E-03 -.949928E-01  .104720E-02 -.966036E-01  .110810E-02
 -.982868E-01  .117314E-02 -.100048E+00  .124271E-02 -.101891E+00  .131728E-02
 -.103823E+00  .139733E-02 -.105851E+00  .148344E-02 -.107981E+00  .157624E-02
 -.110222E+00  .167647E-02 -.112582E+00  .178493E-02 -.115070E+00  .190258E-02
 -.117699E+00  .203049E-02 -.120480E+00  .216990E-02 -.123426E+00  .232223E-02
 -.126553E+00  .248913E-02 -.129878E+00  .267254E-02 -.133420E+00  .287470E-02
 -.137202E+00  .309825E-02 -.141248E+00  .334631E-02 -.145588E+00  .362259E-02
 -.150255E+00  .393151E-02 -.155288E+00  .427841E-02 -.160731E+00  .466974E-02
 -.166636E+00  .511337E-02 -.173066E+00  .561899E-02 -.180094E+00  .619862E-02
 -.187808E+00  .686735E-02 -.196312E+00  .764424E-02 -.205737E+00  .855379E-02
 -.216240E+00  .962774E-02 -.228017E+00  .109079E-01 -.241315E+00  .124502E-01
 -.256450E+00  .143307E-01 -.273828E+00  .166552E-01 -.293988E+00  .195740E-01
 -.317651E+00  .233064E-01 -.345813E+00  .281826E-01 -.379878E+00  .347173E-01
 -.421895E+00  .437486E-01 -.474964E+00  .567149E-01 -.543988E+00  .762471E-01
 -.637133E+00  .107569E+00 -.768831E+00  .162213E+00 -.966067E+00  .269546E+00
 -.127787E+01  .520333E+00 -.171341E+01  .126465E+01 -.914370E+00  .325769E+01
  .166275E+01  .216831E+01  .143707E+01  .803750E+00  .105139E+01  .377804E+00
  .805051E+00  .214579E+00  .645279E+00  .137446E+00  .535296E+00  .953831E-01
  .455546E+00  .700440E-01  .395270E+00  .536336E-01  .348194E+00  .424083E-01
  .310448E+00  .343955E-01  .279524E+00  .284769E-01  .253735E+00  .239813E-01
  .231903E+00  .204860E-01  .213182E+00  .177145E-01  .196953E+00  .154796E-01
  .182747E+00  .136508E-01  .170207E+00  .121352E-01  .159056E+00  .108649E-01
  .149072E+00  .978964E-02  .140081E+00  .887122E-02  .131940E+00  .808051E-02
  .124533E+00  .739480E-02  .117763E+00  .679622E-02  .111550E+00  .627059E-02
  .105827E+00  .580647E-02  .100537E+00  .539461E-02  .956311E-01  .502742E-02
  .910686E-01  .469865E-02  .868133E-01  .440313E-02  .828343E-01  .413651E-02
  .791045E-01  .389514E-02  .756003E-01  .367593E-02  .723011E-01  .347625E-02
  .691884E-01  .329385E-02  .662462E-01  .312681E-02  .634599E-01  .297345E-02
  .608168E-01  .283233E-02  .583055E-01  .270220E-02  .559154E-01  .258193E-02
  .536376E-01  .247059E-02  .514635E-01  .236731E-02  .493856E-01  .227135E-02
  .473970E-01  .218204E-02  .454915E-01  .209880E-02  .436634E-01  .202110E-02
  .419075E-01  .194847E-02  .402192E-01  .188050E-02  .385939E-01  .181680E-02
  .370277E-01  .175704E-02  .355170E-01  .170091E-02  .340584E-01  .164814E-02
  .326486E-01  .159848E-02  .312849E-01  .155170E-02  .299645E-01  .150760E-02
  .286850E-01  .146599E-02  .274440E-01  .142669E-02  .262394E-01  .138956E-02
  .250693E-01  .135445E-02  .239315E-01  .132123E-02  .228246E-01  .128977E-02
  .217469E-01  .125998E-02  .206967E-01  .123175E-02  .196727E-01  .120498E-02
  .186735E-01  .117959E-02  .176979E-01  .115550E-02  .167446E-01  .113264E-02
  .158126E-01  .111094E-02  .149009E-01  .109033E-02  .140083E-01  .107075E-02
  .131339E-01  .105216E-02  .122770E-01  .103450E-02  .114366E-01  .101772E-02
  .106118E-01  .100179E-02  .980212E-02  .986653E-03  .900663E-02  .972280E-03
  .822472E-02  .958633E-03  .745575E-02  .945679E-03  .669906E-02  .933388E-03
  .595411E-02  .921730E-03  .522032E-02  .910678E-03  .449712E-02  .900207E-03
  .378406E-02  .890293E-03  .308062E-02  .880914E-03  .238631E-02  .872048E-03
  .170073E-02  .863677E-03  .102343E-02  .855782E-03  .353977E-03  .848345E-03
 -.307994E-03  .841351E-03 -.962890E-03  .834784E-03 -.161104E-02  .828629E-03
 -.225281E-02  .822875E-03 -.288856E-02  .817507E-03 -.351858E-02  .812514E-03
 -.414321E-02  .807885E-03 -.476276E-02  .803610E-03 -.537750E-02  .799678E-03
 -.598772E-02  .796081E-03 -.659372E-02  .792810E-03 -.719572E-02  .789857E-03
 -.779403E-02  .787214E-03 -.838886E-02  .784875E-03 -.898047E-02  .782832E-03
 -.956911E-02  .781080E-03 -.101550E-01  .779612E-03 -.107383E-01  .778424E-03
 -.113194E-01  .777511E-03 -.118983E-01  .776868E-03 -.124754E-01  .776490E-03
 -.130508E-01  .776374E-03 -.136247E-01  .776517E-03 -.141973E-01  .776914E-03
 -.147689E-01  .777563E-03 -.153395E-01  .778462E-03 -.159095E-01  .779608E-03
 -.164789E-01  .780998E-03 -.170479E-01  .782631E-03 -.176168E-01  .784506E-03
 -.181856E-01  .786620E-03 -.187547E-01  .788974E-03 -.193241E-01  .791565E-03
 -.198940E-01  .794393E-03 -.204645E-01  .797458E-03 -.210360E-01  .800760E-03
 -.216084E-01  .804298E-03 -.221820E-01  .808072E-03 -.227570E-01  .812084E-03
 -.233334E-01  .816333E-03 -.239115E-01  .820821E-03 -.244914E-01  .825549E-03
 -.250733E-01  .830517E-03 -.256573E-01  .835728E-03 -.262436E-01  .841182E-03
 -.268324E-01  .846883E-03 -.274238E-01  .852831E-03 -.280180E-01  .859029E-03
 -.286151E-01  .865479E-03 -.292153E-01  .872185E-03 -.298188E-01  .879149E-03
 -.304257E-01  .886374E-03 -.310361E-01  .893864E-03 -.316504E-01  .901621E-03
 -.322685E-01  .909651E-03 -.328908E-01  .917956E-03 -.335173E-01  .926541E-03
 -.341482E-01  .935411E-03 -.347838E-01  .944570E-03 -.354241E-01  .954023E-03
 -.360694E-01  .963775E-03 -.367198E-01  .973832E-03 -.373755E-01  .984199E-03
 -.380368E-01  .994883E-03 -.387037E-01  .100589E-02 -.393765E-01  .101723E-02
 -.400554E-01  .102890E-02 -.407406E-01  .104091E-02 -.414323E-01  .105328E-02
 -.421306E-01  .106600E-02 -.428358E-01  .107909E-02 -.435482E-01  .109256E-02
 -.442678E-01  .110641E-02 -.449950E-01  .112066E-02 -.457299E-01  .113530E-02
 -.464729E-01  .115036E-02 -.472241E-01  .116585E-02 -.479837E-01  .118177E-02
 -.487521E-01  .119813E-02 -.495295E-01  .121495E-02 -.503161E-01  .123224E-02
 -.511122E-01  .125002E-02 -.519180E-01  .126829E-02 -.527340E-01  .128707E-02
 -.535602E-01  .130638E-02 -.543971E-01  .132623E-02 -.552449E-01  .134663E-02
 -.561039E-01  .136760E-02 -.569746E-01  .138917E-02 -.578571E-01  .141134E-02
 -.587518E-01  .143414E-02 -.596591E-01  .145758E-02 -.605793E-01  .148169E-02
 -.615129E-01  .150649E-02 -.624601E-01  .153199E-02 -.634213E-01  .155823E-02
 -.643971E-01  .158523E-02 -.653877E-01  .161300E-02 -.663936E-01  .164159E-02
 -.674153E-01  .167101E-02 -.684531E-01  .170129E-02 -.695077E-01  .173247E-02
 -.705794E-01  .176458E-02 -.716689E-01  .179764E-02 -.727765E-01  .183170E-02
 -.739028E-01  .186679E-02 -.750484E-01  .190294E-02 -.762139E-01  .194021E-02
 -.773999E-01  .197862E-02 -.786070E-01  .201822E-02 -.798358E-01  .205906E-02
 -.810870E-01  .210119E-02 -.823614E-01  .214465E-02 -.836595E-01  .218951E-02
 -.849822E-01  .223580E-02 -.863303E-01  .228361E-02 -.877044E-01  .233297E-02
 -.891057E-01  .238396E-02 -.905348E-01  .243666E-02 -.919926E-01  .249112E-02
 -.934802E-01  .254742E-02 -.949986E-01  .260566E-02 -.965487E-01  .266590E-02
 -.981315E-01  .272823E-02 -.997484E-01  .279276E-02 -.101400E+00  .285958E-02
 -.103089E+00  .292879E-02 -.104815E+00  .300052E-02 -.106579E+00  .307486E-02
 -.108385E+00  .315195E-02 -.110232E+00  .323192E-02 -.112122E+00  .331491E-02
 -.114057E+00  .340107E-02 -.116039E+00  .349056E-02 -.118070E+00  .358353E-02
 -.120150E+00  .368018E-02 -.122283E+00  .378069E-02 -.124470E+00  .388526E-02
 -.126714E+00  .399411E-02 -.129016E+00  .410747E-02 -.131379E+00  .422559E-02
 -.133806E+00  .434872E-02 -.136299E+00  .447715E-02 -.138861E+00  .461118E-02
 -.141495E+00  .475113E-02 -.144204E+00  .489735E-02 -.146991E+00  .505020E-02
 -.149861E+00  .521010E-02 -.152816E+00  .537745E-02 -.155860E+00  .555274E-02
 -.158999E+00  .573647E-02 -.162235E+00  .592914E-02 -.165575E+00  .613138E-02
 -.169022E+00  .634380E-02 -.172583E+00  .656707E-02 -.176263E+00  .680195E-02
 -.180067E+00  .704925E-02 -.184004E+00  .730981E-02 -.188079E+00  .758463E-02
 -.192300E+00  .787472E-02 -.196675E+00  .818121E-02 -.201212E+00  .850538E-02
 -.205922E+00  .884857E-02 -.210814E+00  .921227E-02 -.215898E+00  .959815E-02
 -.221186E+00  .100080E-01 -.226691E+00  .104439E-01 -.232427E+00  .109079E-01
 -.238408E+00  .114026E-01 -.244650E+00  .119307E-01 -.251171E+00  .124953E-01
 -.257990E+00  .130997E-01 -.265127E+00  .137477E-01 -.272606E+00  .144436E-01
 -.280451E+00  .151922E-01 -.288690E+00  .159988E-01 -.297352E+00  .168696E-01
 -.306473E+00  .178115E-01 -.316088E+00  .188324E-01 -.326240E+00  .199413E-01
 -.336973E+00  .211485E-01 -.348339E+00  .224659E-01 -.360396E+00  .239072E-01
 -.373208E+00  .254883E-01 -.386848E+00  .272277E-01 -.401397E+00  .291470E-01
 -.416951E+00  .312720E-01 -.433616E+00  .336327E-01 -.451513E+00  .362649E-01
 -.470785E+00  .392119E-01 -.491594E+00  .425253E-01 -.514130E+00  .462678E-01
 -.538616E+00  .505168E-01 -.565313E+00  .553668E-01 -.594530E+00  .609356E-01
 -.626639E+00  .673720E-01 -.662084E+00  .748640E-01 -.701404E+00  .836532E-01
 -.745262E+00  .940556E-01 -.794475E+00  .106487E+00 -.850063E+00  .121504E+00
 -.913313E+00  .139870E+00 -.985880E+00  .162647E+00 -.106990E+01  .191347E+00
 -.116818E+01  .228178E+00 -.128448E+01  .276469E+00 -.142382E+01  .341394E+00
 -.159304E+01  .431315E+00 -.180135E+01  .560379E+00 -.206048E+01  .753706E+00
 -.238269E+01  .105834E+01 -.276840E+01  .156664E+01 -.315029E+01  .245910E+01
 -.317997E+01  .400846E+01 -.182650E+01  .601282E+01  .119651E+01  .637987E+01
  .308900E+01  .453866E+01  .329581E+01  .280389E+01  .295798E+01  .176906E+01
  .256624E+01  .118237E+01  .222971E+01  .834915E+00  .195745E+01  .617002E+00
  .173868E+01  .472954E+00  .156136E+01  .373378E+00  .141578E+01  .301936E+00
  .129464E+01  .249060E+00  .119254E+01  .208889E+00  .110547E+01  .177682E+00
  .103045E+01  .152973E+00  .965193E+00  .133085E+00  .907948E+00  .116844E+00
  .857354E+00  .103413E+00  .812336E+00  .921815E-01  .772030E+00  .826937E-01
  .735744E+00  .746075E-01  .702914E+00  .676602E-01  .673072E+00  .616470E-01
  .645833E+00  .564081E-01  .620876E+00  .518159E-01  .597925E+00  .477680E-01
  .576751E+00  .441815E-01  .557159E+00  .409889E-01  .538978E+00  .381343E-01
  .522062E+00  .355716E-01  .506286E+00  .332623E-01  .491538E+00  .311738E-01
  .477722E+00  .292789E-01  .464754E+00  .275542E-01  .452558E+00  .259799E-01
  .441068E+00  .245388E-01  .430226E+00  .232165E-01  .419978E+00  .220000E-01
  .410277E+00  .208784E-01  .401081E+00  .198419E-01  .392353E+00  .188822E-01
  .384057E+00  .179918E-01  .376163E+00  .171641E-01  .368643E+00  .163934E-01
  .361471E+00  .156745E-01  .354624E+00  .150028E-01  .348080E+00  .143743E-01
  .341821E+00  .137853E-01  .335828E+00  .132326E-01  .330085E+00  .127132E-01
  .324576E+00  .122245E-01  .319289E+00  .117640E-01  .314210E+00  .113297E-01
  .309328E+00  .109195E-01  .304631E+00  .105318E-01  .300109E+00  .101648E-01
  .295753E+00  .981715E-02  .291555E+00  .948744E-02  .287506E+00  .917449E-02
  .283598E+00  .887713E-02  .279824E+00  .859435E-02  .276178E+00  .832520E-02
  .272654E+00  .806883E-02  .269246E+00  .782440E-02  .265948E+00  .759119E-02
  .262755E+00  .736852E-02  .259663E+00  .715574E-02  .256666E+00  .695227E-02
  .253762E+00  .675759E-02  .250945E+00  .657117E-02  .248213E+00  .639255E-02
  .245560E+00  .622130E-02  .242985E+00  .605700E-02  .240484E+00  .589928E-02
  .238055E+00  .574781E-02  .235693E+00  .560222E-02  .233396E+00  .546223E-02
  .231163E+00  .532756E-02  .228991E+00  .519791E-02  .226876E+00  .507305E-02
  .224818E+00  .495274E-02  .222814E+00  .483675E-02  .220862E+00  .472488E-02
  .218960E+00  .461693E-02  .217106E+00  .451271E-02  .215300E+00  .441206E-02
  .213538E+00  .431480E-02  .211820E+00  .422079E-02  .210145E+00  .412987E-02
  .208510E+00  .404191E-02  .206915E+00  .395679E-02  .205357E+00  .387437E-02
  .203837E+00  .379453E-02  .202352E+00  .371718E-02  .200903E+00  .364221E-02
  .199486E+00  .356950E-02  .198103E+00  .349898E-02  .196751E+00  .343056E-02
  .195429E+00  .336414E-02  .194138E+00  .329965E-02  .192875E+00  .323700E-02
  .191640E+00  .317614E-02  .190433E+00  .311699E-02  .189252E+00  .305948E-02
  .188097E+00  .300355E-02  .186967E+00  .294915E-02  .185861E+00  .289620E-02
  .184779E+00  .284467E-02  .183721E+00  .279449E-02  .182684E+00  .274562E-02
  .181670E+00  .269801E-02  .180677E+00  .265162E-02  .179705E+00  .260640E-02
  .178754E+00  .256230E-02  .177822E+00  .251930E-02  .176909E+00  .247736E-02
  .176016E+00  .243642E-02  .175141E+00  .239647E-02  .174284E+00  .235747E-02
  .173444E+00  .231938E-02  .172622E+00  .228218E-02  .171817E+00  .224583E-02
  .171028E+00  .221031E-02  .170255E+00  .217559E-02  .169499E+00  .214164E-02
  .168757E+00  .210844E-02  .168031E+00  .207596E-02  .167320E+00  .204418E-02
  .166623E+00  .201308E-02  .165940E+00  .198263E-02  .165272E+00  .195282E-02
  .164617E+00  .192362E-02  .163976E+00  .189501E-02  .163348E+00  .186698E-02
  .162734E+00  .183950E-02  .162132E+00  .181256E-02  .161543E+00  .178615E-02
  .160966E+00  .176023E-02  .160401E+00  .173480E-02  .159849E+00  .170984E-02
  .159309E+00  .168534E-02  .158780E+00  .166128E-02  .158263E+00  .163764E-02
  .157758E+00  .161441E-02  .157264E+00  .159158E-02  .156781E+00  .156913E-02
  .156309E+00  .154705E-02  .155849E+00  .152531E-02  .155399E+00  .150392E-02
  .154961E+00  .148285E-02  .154533E+00  .146209E-02  .154117E+00  .144163E-02
  .153711E+00  .142146E-02  .153316E+00  .140154E-02  .152931E+00  .138189E-02
  .152558E+00  .136247E-02  .152196E+00  .134327E-02  .151844E+00  .132428E-02
  .151504E+00  .130548E-02  .151175E+00  .128685E-02  .150857E+00  .126836E-02
  .150550E+00  .125001E-02  .150256E+00  .123177E-02  .149973E+00  .121361E-02
  .149703E+00  .119551E-02  .149445E+00  .117743E-02  .149200E+00  .115935E-02
  .148969E+00  .114123E-02  .148752E+00  .112302E-02  .148550E+00  .110468E-02
  .148362E+00  .108615E-02  .148192E+00  .106737E-02  .148038E+00  .104826E-02
  .147903E+00  .102873E-02  .147788E+00  .100868E-02  .147694E+00  .987972E-03
  .147624E+00  .966460E-03  .147579E+00  .943950E-03  .147563E+00  .920206E-03
  .147578E+00  .894931E-03  .147630E+00  .867753E-03  .147722E+00  .838188E-03
  .147861E+00  .805608E-03  .148055E+00  .769188E-03  .148313E+00  .727808E-03
  .148649E+00  .679939E-03  .149078E+00  .623439E-03  .149623E+00  .555220E-03
  .150314E+00  .470725E-03  .151194E+00  .362982E-03  .152323E+00  .220898E-03
  .153795E+00  .259156E-04  .155755E+00 -.254834E-03  .158442E+00 -.684183E-03
  .162293E+00 -.139482E-02  .168166E+00 -.270729E-02  .178021E+00 -.556569E-02
  .197312E+00 -.137980E-01  .243822E+00 -.554473E-01  .687354E-01 -.235787E+00
  .479629E-01 -.354590E-01  .843054E-01 -.106182E-01  .100125E+00 -.464722E-02
  .108636E+00 -.238265E-02  .113884E+00 -.129634E-02  .117417E+00 -.696171E-03
  .119940E+00 -.332054E-03  .121823E+00 -.961500E-04  .123274E+00  .642050E-04
  .124420E+00  .177209E-03  .125346E+00  .259033E-03  .126105E+00  .319503E-03
  .126737E+00  .364870E-03  .127270E+00  .399254E-03  .127723E+00  .425468E-03
  .128113E+00  .445480E-03  .128451E+00  .460704E-03  .128746E+00  .472176E-03
  .129006E+00  .480666E-03  .129237E+00  .486759E-03  .129443E+00  .490907E-03
  .129629E+00  .493458E-03  .129797E+00  .494688E-03  .129950E+00  .494819E-03
  .130090E+00  .494026E-03  .130220E+00  .492452E-03  .130341E+00  .490216E-03
  .130454E+00  .487412E-03  .130560E+00  .484121E-03  .130662E+00  .480410E-03
  .130758E+00  .476335E-03  .130851E+00  .471942E-03  .130941E+00  .467271E-03
  .131029E+00  .462356E-03  .131115E+00  .457225E-03  .131200E+00  .451905E-03
  .131283E+00  .446414E-03  .131367E+00  .440773E-03  .131450E+00  .434995E-03
  .131533E+00  .429096E-03  .131617E+00  .423086E-03  .131702E+00  .416976E-03
  .131787E+00  .410774E-03  .131874E+00  .404488E-03  .131962E+00  .398124E-03
  .132052E+00  .391688E-03  .132144E+00  .385186E-03  .132238E+00  .378620E-03
  .132333E+00  .371995E-03  .132431E+00  .365313E-03  .132532E+00  .358577E-03
  .132635E+00  .351789E-03  .132740E+00  .344951E-03  .132849E+00  .338063E-03
  .132960E+00  .331127E-03  .133074E+00  .324145E-03  .133191E+00  .317115E-03
  .133311E+00  .310038E-03  .133435E+00  .302915E-03  .133562E+00  .295744E-03
  .133692E+00  .288527E-03  .133826E+00  .281261E-03  .133963E+00  .273947E-03
  .134104E+00  .266583E-03  .134248E+00  .259170E-03  .134397E+00  .251704E-03
  .134549E+00  .244185E-03  .134706E+00  .236612E-03  .134866E+00  .228983E-03
  .135030E+00  .221297E-03  .135199E+00  .213551E-03  .135372E+00  .205745E-03
  .135549E+00  .197875E-03  .135731E+00  .189939E-03  .135917E+00  .181937E-03
  .136107E+00  .173865E-03  .136303E+00  .165721E-03  .136502E+00  .157502E-03
  .136707E+00  .149206E-03  .136917E+00  .140830E-03  .137131E+00  .132372E-03
  .137351E+00  .123827E-03  .137576E+00  .115194E-03  .137806E+00  .106470E-03
  .138041E+00  .976495E-04  .138281E+00  .887307E-04  .138527E+00  .797103E-04
  .138779E+00  .705836E-04  .139036E+00  .613473E-04  .139299E+00  .519980E-04
  .139568E+00  .425305E-04  .139843E+00  .329413E-04  .140124E+00  .232258E-04
  .140411E+00  .133801E-04  .140704E+00  .339847E-05  .141004E+00 -.672357E-05
  .141310E+00 -.169905E-04  .141623E+00 -.274085E-04  .141943E+00 -.379826E-04
  .142270E+00 -.487179E-04  .142603E+00 -.596214E-04  .142944E+00 -.706984E-04
  .143292E+00 -.819554E-04  .143647E+00 -.933977E-04  .144010E+00 -.105035E-03
  .144381E+00 -.116872E-03  .144760E+00 -.128917E-03  .145146E+00 -.141177E-03
  .145541E+00 -.153660E-03  .145945E+00 -.166375E-03  .146357E+00 -.179329E-03
  .146777E+00 -.192533E-03  .147207E+00 -.205996E-03  .147646E+00 -.219727E-03
  .148094E+00 -.233736E-03  .148552E+00 -.248034E-03  .149019E+00 -.262630E-03
  .149497E+00 -.277539E-03  .149985E+00 -.292771E-03  .150483E+00 -.308339E-03
  .150992E+00 -.324256E-03  .151512E+00 -.340536E-03  .152044E+00 -.357190E-03
  .152587E+00 -.374238E-03  .153142E+00 -.391694E-03  .153709E+00 -.409573E-03
  .154288E+00 -.427893E-03  .154881E+00 -.446672E-03  .155486E+00 -.465927E-03
  .156105E+00 -.485681E-03  .156738E+00 -.505954E-03  .157385E+00 -.526767E-03
  .158047E+00 -.548143E-03  .158724E+00 -.570105E-03  .159417E+00 -.592680E-03
  .160125E+00 -.615892E-03  .160850E+00 -.639773E-03  .161592E+00 -.664350E-03
  .162351E+00 -.689654E-03  .163129E+00 -.715719E-03  .163925E+00 -.742579E-03
  .164739E+00 -.770268E-03  .165574E+00 -.798829E-03  .166429E+00 -.828301E-03
  .167305E+00 -.858726E-03  .168203E+00 -.890152E-03  .169123E+00 -.922625E-03
  .170067E+00 -.956194E-03  .171034E+00 -.990919E-03  .172027E+00 -.102686E-02
  .173045E+00 -.106407E-02  .174090E+00 -.110261E-02  .175162E+00 -.114257E-02
  .176263E+00 -.118400E-02  .177394E+00 -.122699E-02  .178556E+00 -.127162E-02
  .179750E+00 -.131799E-02  .180977E+00 -.136619E-02  .182239E+00 -.141631E-02
  .183537E+00 -.146847E-02  .184873E+00 -.152279E-02  .186247E+00 -.157939E-02
  .187663E+00 -.163840E-02  .189121E+00 -.169997E-02  .190623E+00 -.176426E-02
  .192172E+00 -.183143E-02  .193769E+00 -.190166E-02  .195417E+00 -.197515E-02
  .197117E+00 -.205210E-02  .198874E+00 -.213275E-02  .200688E+00 -.221733E-02
  .202564E+00 -.230612E-02  .204503E+00 -.239939E-02  .206510E+00 -.249747E-02
  .208588E+00 -.260071E-02  .210741E+00 -.270946E-02  .212971E+00 -.282415E-02
  .215285E+00 -.294520E-02  .217686E+00 -.307310E-02  .220180E+00 -.320840E-02
  .222771E+00 -.335168E-02  .225467E+00 -.350359E-02  .228271E+00 -.366483E-02
  .231193E+00 -.383619E-02  .234238E+00 -.401855E-02  .237415E+00 -.421285E-02
  .240733E+00 -.442020E-02  .244201E+00 -.464179E-02  .247829E+00 -.487895E-02
  .251629E+00 -.513318E-02  .255612E+00 -.540617E-02  .259793E+00 -.569978E-02
  .264188E+00 -.601621E-02  .268811E+00 -.635785E-02  .273682E+00 -.672747E-02
  .278821E+00 -.712820E-02  .284250E+00 -.756364E-02  .289994E+00 -.803787E-02
  .296084E+00 -.855573E-02  .302549E+00 -.912269E-02  .309426E+00 -.974515E-02
  .316755E+00 -.104306E-01  .324582E+00 -.111878E-01  .332960E+00 -.120270E-01
  .341948E+00 -.129608E-01  .351617E+00 -.140036E-01  .362046E+00 -.151732E-01
  .373328E+00 -.164909E-01  .385572E+00 -.179827E-01  .398906E+00 -.196806E-01
  .413479E+00 -.216241E-01  .429477E+00 -.238633E-01  .447116E+00 -.264608E-01
  .466659E+00 -.294970E-01  .488432E+00 -.330762E-01  .512837E+00 -.373356E-01
  .540372E+00 -.424574E-01  .571683E+00 -.486914E-01  .607589E+00 -.563816E-01
  .649166E+00 -.660165E-01  .697846E+00 -.783061E-01  .755576E+00 -.943140E-01
  .825052E+00 -.115687E+00  .910137E+00 -.145091E+00  .101645E+01 -.187037E+00
  .115243E+01 -.249637E+00  .133091E+01 -.348545E+00  .157106E+01 -.516714E+00
  .189612E+01 -.830768E+00  .229303E+01 -.148526E+01  .240248E+01 -.291257E+01
  .587684E+00 -.469153E+01 -.196802E+01 -.354555E+01 -.221375E+01 -.182016E+01
 -.183152E+01 -.985554E+00 -.147952E+01 -.596226E+00 -.121644E+01 -.394208E+00
 -.102187E+01 -.278341E+00 -.874778E+00 -.206408E+00 -.760622E+00 -.158917E+00
 -.669859E+00 -.126011E+00 -.596162E+00 -.102312E+00 -.535220E+00 -.846932E-01
 -.484041E+00 -.712487E-01 -.440485E+00 -.607611E-01 -.402983E+00 -.524249E-01
 -.370368E+00 -.456909E-01 -.341750E+00 -.401745E-01 -.316438E+00 -.355984E-01
 -.293894E+00 -.317612E-01 -.273690E+00 -.285120E-01 -.255479E+00 -.257366E-01
 -.238981E+00 -.233473E-01 -.223967E+00 -.212757E-01 -.210242E+00 -.194678E-01
 -.197649E+00 -.178806E-01 -.186052E+00 -.164797E-01 -.175336E+00 -.152371E-01
 -.165406E+00 -.141297E-01 -.156177E+00 -.131386E-01 -.147578E+00 -.122481E-01
 -.139544E+00 -.114450E-01 -.132022E+00 -.107182E-01 -.124963E+00 -.100583E-01
 -.118327E+00 -.945744E-02 -.112075E+00 -.890871E-02 -.106175E+00 -.840631E-02
 -.100597E+00 -.794507E-02 -.953148E-01 -.752066E-02 -.903056E-01 -.712926E-02
 -.855483E-01 -.676754E-02 -.810238E-01 -.643256E-02 -.767156E-01 -.612179E-02
 -.726072E-01 -.583290E-02 -.686852E-01 -.556390E-02 -.649368E-01 -.531300E-02
