  .117705E-09  .367040E+01  .367517E-01 -.315540E-05  .368947E-01 -.126552E-04
  .371342E-01 -.286488E-04  .374722E-01 -.513939E-04  .379115E-01 -.812616E-04
  .384557E-01 -.118748E-03  .391095E-01 -.164489E-03  .398785E-01 -.219284E-03
  .407697E-01 -.284118E-03  .417913E-01 -.360201E-03  .429531E-01 -.449009E-03
  .442667E-01 -.552344E-03  .457456E-01 -.672406E-03  .474061E-01 -.811890E-03
  .492672E-01 -.974111E-03  .513515E-01 -.116317E-02  .536860E-01 -.138417E-02
  .563028E-01 -.164351E-02  .592409E-01 -.194931E-02  .625472E-01 -.231194E-02
  .662791E-01 -.274479E-02  .705076E-01 -.326542E-02  .753208E-01 -.389712E-02
  .808299E-01 -.467133E-02  .871770E-01 -.563118E-02  .945461E-01 -.683710E-02
  .103180E+00 -.837570E-02  .113403E+00 -.103744E-01  .125664E+00 -.130266E-01
  .140591E+00 -.166363E-01  .159094E+00 -.217026E-01  .182536E+00 -.290879E-01
  .213023E+00 -.403790E-01  .253935E+00 -.587338E-01  .310800E+00 -.910854E-01
  .392118E+00 -.154639E+00  .503507E+00 -.298141E+00  .569227E+00 -.656585E+00
  .758559E-01 -.114862E+01 -.548986E+00 -.765115E+00 -.540035E+00 -.363181E+00
 -.436730E+00 -.194519E+00 -.356162E+00 -.118927E+00 -.298988E+00 -.799809E-01
 -.257678E+00 -.575469E-01 -.226851E+00 -.434980E-01 -.203135E+00 -.341252E-01
 -.184408E+00 -.275572E-01 -.169294E+00 -.227715E-01 -.156869E+00 -.191722E-01
 -.146498E+00 -.163935E-01 -.137727E+00 -.142005E-01 -.130225E+00 -.124372E-01
 -.123748E+00 -.109963E-01 -.118108E+00 -.980232E-02 -.113162E+00 -.880065E-02
 -.108797E+00 -.795114E-02 -.104923E+00 -.722364E-02 -.101467E+00 -.659519E-02
 -.983728E-01 -.604800E-02 -.955905E-01 -.556816E-02 -.930807E-01 -.514463E-02
 -.908101E-01 -.476856E-02 -.887508E-01 -.443278E-02 -.868791E-01 -.413144E-02
 -.851747E-01 -.385973E-02 -.836203E-01 -.361366E-02 -.822009E-01 -.338987E-02
 -.809037E-01 -.318557E-02 -.797174E-01 -.299836E-02 -.786321E-01 -.282623E-02
 -.776392E-01 -.266743E-02 -.767310E-01 -.252048E-02 -.759009E-01 -.238409E-02
 -.751430E-01 -.225712E-02 -.744519E-01 -.213862E-02 -.738228E-01 -.202771E-02
 -.732517E-01 -.192364E-02 -.727347E-01 -.182576E-02 -.722684E-01 -.173347E-02
 -.718498E-01 -.164624E-02 -.714762E-01 -.156361E-02 -.711451E-01 -.148517E-02
 -.708542E-01 -.141053E-02 -.706016E-01 -.133935E-02 -.703854E-01 -.127134E-02
 -.702041E-01 -.120622E-02 -.700560E-01 -.114373E-02 -.699399E-01 -.108364E-02
 -.698547E-01 -.102575E-02 -.697991E-01 -.969866E-03 -.697721E-01 -.915807E-03
 -.697730E-01 -.863411E-03 -.698009E-01 -.812528E-03 -.698551E-01 -.763019E-03
 -.699349E-01 -.714753E-03 -.700399E-01 -.667608E-03 -.701695E-01 -.621472E-03
 -.703233E-01 -.576236E-03 -.705009E-01 -.531800E-03 -.707019E-01 -.488068E-03
 -.709262E-01 -.444949E-03 -.711736E-01 -.402356E-03 -.714438E-01 -.360206E-03
 -.717368E-01 -.318420E-03 -.720524E-01 -.276920E-03 -.723907E-01 -.235632E-03
 -.727516E-01 -.194481E-03 -.731352E-01 -.153399E-03 -.735416E-01 -.112314E-03
 -.739710E-01 -.711571E-04 -.744235E-01 -.298606E-04 -.748992E-01  .116427E-04
 -.753985E-01  .534220E-04 -.759217E-01  .955446E-04 -.764690E-01  .138078E-03
 -.770408E-01  .181094E-03 -.776376E-01  .224660E-03 -.782597E-01  .268849E-03
 -.789076E-01  .313733E-03 -.795820E-01  .359389E-03 -.802832E-01  .405892E-03
 -.810120E-01  .453322E-03 -.817691E-01  .501762E-03 -.825550E-01  .551297E-03
 -.833707E-01  .602017E-03 -.842168E-01  .654013E-03 -.850942E-01  .707384E-03
 -.860040E-01  .762232E-03 -.869470E-01  .818663E-03 -.879243E-01  .876790E-03
 -.889370E-01  .936733E-03 -.899863E-01  .998617E-03 -.910735E-01  .106258E-02
 -.921998E-01  .112875E-02 -.933668E-01  .119730E-02 -.945758E-01  .126837E-02
 -.958286E-01  .134213E-02 -.971268E-01  .141878E-02 -.984723E-01  .149851E-02
 -.998669E-01  .158152E-02 -.101313E+00  .166805E-02 -.102812E+00  .175833E-02
 -.104367E+00  .185261E-02 -.105980E+00  .195120E-02 -.107654E+00  .205437E-02
 -.109392E+00  .216248E-02 -.111197E+00  .227585E-02 -.113072E+00  .239489E-02
 -.115020E+00  .252001E-02 -.117045E+00  .265166E-02 -.119151E+00  .279034E-02
 -.121343E+00  .293659E-02 -.123625E+00  .309099E-02 -.126001E+00  .325420E-02
 -.128478E+00  .342692E-02 -.131061E+00  .360994E-02 -.133757E+00  .380410E-02
 -.136571E+00  .401036E-02 -.139511E+00  .422977E-02 -.142586E+00  .446347E-02
 -.145803E+00  .471276E-02 -.149172E+00  .497906E-02 -.152703E+00  .526398E-02
 -.156407E+00  .556928E-02 -.160296E+00  .589698E-02 -.164385E+00  .624931E-02
 -.168686E+00  .662880E-02 -.173217E+00  .703830E-02 -.177995E+00  .748104E-02
 -.183039E+00  .796072E-02 -.188373E+00  .848151E-02 -.194019E+00  .904821E-02
 -.200005E+00  .966634E-02 -.206361E+00  .103423E-01 -.213121E+00  .110833E-01
 -.220324E+00  .118980E-01 -.228012E+00  .127964E-01 -.236235E+00  .137902E-01
 -.245048E+00  .148933E-01 -.254515E+00  .161220E-01 -.264710E+00  .174960E-01
 -.275717E+00  .190388E-01 -.287634E+00  .207789E-01 -.300576E+00  .227509E-01
 -.314678E+00  .249975E-01 -.330098E+00  .275715E-01 -.347026E+00  .305387E-01
 -.365689E+00  .339826E-01 -.386360E+00  .380096E-01 -.409373E+00  .427572E-01
 -.435141E+00  .484060E-01 -.464175E+00  .551959E-01 -.497119E+00  .634516E-01
 -.534795E+00  .736208E-01 -.578264E+00  .863340E-01 -.628919E+00  .102500E+00
 -.688613E+00  .123468E+00 -.759859E+00  .151301E+00 -.846106E+00  .189275E+00
 -.952152E+00  .242816E+00 -.108465E+01  .321375E+00 -.125249E+01  .442377E+00
 -.146549E+01  .640027E+00 -.172443E+01  .985251E+00 -.196930E+01  .162406E+01
 -.186631E+01  .275863E+01 -.560791E+00  .395164E+01  .137210E+01  .350475E+01
  .202033E+01  .218682E+01  .189753E+01  .130379E+01  .163804E+01  .824677E+00
  .140418E+01  .557950E+00  .121661E+01  .399312E+00  .106863E+01  .298771E+00
  .950899E+00  .231543E+00  .855826E+00  .184562E+00  .777844E+00  .150520E+00
  .712930E+00  .125099E+00  .658169E+00  .105630E+00  .611426E+00  .903981E-01
  .571104E+00  .782592E-01  .535995E+00  .684304E-01  .505174E+00  .603611E-01
  .477915E+00  .536548E-01  .453647E+00  .480204E-01  .431914E+00  .432408E-01
  .412345E+00  .391510E-01  .394640E+00  .356237E-01  .378551E+00  .325602E-01
  .363870E+00  .298820E-01  .350425E+00  .275270E-01  .338070E+00  .254448E-01
  .326682E+00  .235945E-01  .316153E+00  .219428E-01  .306395E+00  .204621E-01
  .297326E+00  .191292E-01  .288881E+00  .179251E-01  .280999E+00  .168335E-01
  .273627E+00  .158407E-01  .266720E+00  .149349E-01  .260238E+00  .141063E-01
  .254144E+00  .133462E-01  .248406E+00  .126471E-01  .242996E+00  .120026E-01
  .237889E+00  .114072E-01  .233060E+00  .108558E-01  .228491E+00  .103441E-01
  .224161E+00  .986850E-02  .220054E+00  .942549E-02  .216155E+00  .901213E-02
  .212450E+00  .862581E-02  .208926E+00  .826416E-02  .205572E+00  .792508E-02
  .202377E+00  .760671E-02  .199330E+00  .730734E-02  .196425E+00  .702547E-02
  .193651E+00  .675971E-02  .191002E+00  .650884E-02  .188471E+00  .627173E-02
  .186051E+00  .604736E-02  .183736E+00  .583481E-02  .181521E+00  .563323E-02
  .179401E+00  .544186E-02  .177371E+00  .525999E-02  .175426E+00  .508698E-02
  .173563E+00  .492224E-02  .171777E+00  .476522E-02  .170065E+00  .461543E-02
  .168424E+00  .447240E-02  .166850E+00  .433572E-02  .165341E+00  .420498E-02
  .163895E+00  .407983E-02  .162507E+00  .395992E-02  .161177E+00  .384496E-02
  .159901E+00  .373463E-02  .158678E+00  .362869E-02  .157506E+00  .352687E-02
  .156383E+00  .342894E-02  .155307E+00  .333468E-02  .154276E+00  .324388E-02
  .153290E+00  .315635E-02  .152346E+00  .307192E-02  .151444E+00  .299041E-02
  .150582E+00  .291166E-02  .149759E+00  .283552E-02  .148973E+00  .276184E-02
  .148224E+00  .269050E-02  .147512E+00  .262136E-02  .146834E+00  .255431E-02
  .146191E+00  .248922E-02  .145581E+00  .242598E-02  .145003E+00  .236449E-02
  .144459E+00  .230464E-02  .143945E+00  .224633E-02  .143463E+00  .218948E-02
  .143012E+00  .213397E-02  .142592E+00  .207971E-02  .142201E+00  .202662E-02
  .141840E+00  .197460E-02  .141510E+00  .192356E-02  .141208E+00  .187341E-02
  .140937E+00  .182404E-02  .140695E+00  .177536E-02  .140484E+00  .172727E-02
  .140303E+00  .167966E-02  .140152E+00  .163240E-02  .140033E+00  .158538E-02
  .139946E+00  .153846E-02  .139891E+00  .149148E-02  .139870E+00  .144428E-02
  .139884E+00  .139666E-02  .139934E+00  .134841E-02  .140023E+00  .129927E-02
  .140152E+00  .124894E-02  .140323E+00  .119708E-02  .140540E+00  .114326E-02
  .140807E+00  .108698E-02  .141127E+00  .102761E-02  .141505E+00  .964379E-03
  .141949E+00  .896325E-03  .142465E+00  .822215E-03  .143063E+00  .740465E-03
  .143755E+00  .649005E-03  .144556E+00  .545075E-03  .145485E+00  .424939E-03
  .146567E+00  .283435E-03  .147833E+00  .113256E-03  .149329E+00 -.962212E-04
  .151115E+00 -.360882E-03  .153275E+00 -.705405E-03  .155934E+00 -.116976E-02
  .159282E+00 -.182208E-02  .163619E+00 -.278628E-02  .169448E+00 -.430661E-02
  .177682E+00 -.691916E-02  .190115E+00 -.119854E-01  .210587E+00 -.237692E-01
  .246298E+00 -.603895E-01  .247206E+00 -.208701E+00  .220074E-02 -.171528E+00
  .266355E-01 -.510051E-01  .592964E-01 -.213692E-01  .780545E-01 -.112605E-01
  .896943E-01 -.676368E-02  .975711E-01 -.440310E-02  .103272E+00 -.302059E-02
  .107615E+00 -.214643E-02  .111062E+00 -.156190E-02  .113887E+00 -.115421E-02
  .116268E+00 -.860490E-03  .118320E+00 -.643507E-03  .120124E+00 -.480053E-03
  .121738E+00 -.355069E-03  .123202E+00 -.258447E-03  .124549E+00 -.183187E-03
  .125802E+00 -.124325E-03  .126981E+00 -.782652E-04  .128098E+00 -.423442E-04
  .129167E+00 -.145640E-04  .130196E+00  .660304E-05  .131194E+00  .223385E-04
  .132166E+00  .335656E-04  .133119E+00  .410166E-04  .134056E+00  .452762E-04
  .134982E+00  .468156E-04  .135900E+00  .460175E-04  .136812E+00  .431948E-04
  .137722E+00  .386055E-04  .138632E+00  .324625E-04  .139543E+00  .249435E-04
  .140457E+00  .161966E-04  .141376E+00  .634522E-05  .142302E+00 -.450580E-05
  .143235E+00 -.162692E-04  .144177E+00 -.288714E-04  .145129E+00 -.422498E-04
  .146092E+00 -.563525E-04  .147067E+00 -.711361E-04  .148055E+00 -.865633E-04
  .149056E+00 -.102604E-03  .150072E+00 -.119234E-03  .151104E+00 -.136433E-03
  .152152E+00 -.154185E-03  .153217E+00 -.172477E-03  .154299E+00 -.191300E-03
  .155400E+00 -.210649E-03  .156521E+00 -.230520E-03  .157661E+00 -.250912E-03
  .158822E+00 -.271827E-03  .160004E+00 -.293267E-03  .161208E+00 -.315237E-03
  .162435E+00 -.337747E-03  .163686E+00 -.360802E-03  .164961E+00 -.384414E-03
  .166261E+00 -.408596E-03  .167587E+00 -.433360E-03  .168939E+00 -.458722E-03
  .170319E+00 -.484697E-03  .171727E+00 -.511303E-03  .173164E+00 -.538562E-03
  .174631E+00 -.566492E-03  .176129E+00 -.595116E-03  .177659E+00 -.624458E-03
  .179221E+00 -.654545E-03  .180817E+00 -.685403E-03  .182448E+00 -.717060E-03
  .184114E+00 -.749548E-03  .185817E+00 -.782898E-03  .187558E+00 -.817144E-03
  .189338E+00 -.852324E-03  .191158E+00 -.888475E-03  .193019E+00 -.925635E-03
  .194924E+00 -.963851E-03  .196872E+00 -.100317E-02  .198866E+00 -.104363E-02
  .200906E+00 -.108528E-02  .202995E+00 -.112819E-02  .205134E+00 -.117241E-02
  .207325E+00 -.121798E-02  .209568E+00 -.126499E-02  .211867E+00 -.131349E-02
  .214223E+00 -.136355E-02  .216637E+00 -.141526E-02  .219113E+00 -.146868E-02
  .221651E+00 -.152390E-02  .224255E+00 -.158101E-02  .226926E+00 -.164010E-02
  .229668E+00 -.170127E-02  .232481E+00 -.176463E-02  .235371E+00 -.183030E-02
  .238338E+00 -.189838E-02  .241386E+00 -.196901E-02  .244518E+00 -.204233E-02
  .247737E+00 -.211847E-02  .251048E+00 -.219760E-02  .254453E+00 -.227988E-02
  .257956E+00 -.236547E-02  .261562E+00 -.245459E-02  .265274E+00 -.254741E-02
  .269098E+00 -.264418E-02  .273037E+00 -.274510E-02  .277097E+00 -.285044E-02
  .281283E+00 -.296046E-02  .285602E+00 -.307544E-02  .290058E+00 -.319571E-02
  .294659E+00 -.332160E-02  .299410E+00 -.345346E-02  .304320E+00 -.359170E-02
  .309397E+00 -.373673E-02  .314647E+00 -.388901E-02  .320080E+00 -.404904E-02
  .325705E+00 -.421737E-02  .331533E+00 -.439456E-02  .337573E+00 -.458129E-02
  .343838E+00 -.477823E-02  .350340E+00 -.498615E-02  .357091E+00 -.520591E-02
  .364107E+00 -.543840E-02  .371402E+00 -.568463E-02  .378992E+00 -.594573E-02
  .386897E+00 -.622291E-02  .395134E+00 -.651750E-02  .403726E+00 -.683102E-02
  .412694E+00 -.716513E-02  .422064E+00 -.752165E-02  .431862E+00 -.790262E-02
  .442118E+00 -.831037E-02  .452864E+00 -.874743E-02  .464134E+00 -.921665E-02
  .475969E+00 -.972132E-02  .488410E+00 -.102651E-01  .501504E+00 -.108520E-01
  .515304E+00 -.114868E-01  .529867E+00 -.121748E-01  .545257E+00 -.129220E-01
  .561546E+00 -.137356E-01  .578813E+00 -.146236E-01  .597147E+00 -.155951E-01
  .616652E+00 -.166611E-01  .637440E+00 -.178341E-01  .659639E+00 -.191288E-01
  .683400E+00 -.205627E-01  .708891E+00 -.221563E-01  .736303E+00 -.239341E-01
  .765863E+00 -.259257E-01  .797831E+00 -.281663E-01  .832509E+00 -.306992E-01
  .870257E+00 -.335773E-01  .911498E+00 -.368661E-01  .956732E+00 -.406469E-01
  .100657E+01 -.450229E-01  .106175E+01 -.501253E-01  .112316E+01 -.561232E-01
  .119192E+01 -.632378E-01  .126943E+01 -.717642E-01  .135745E+01 -.820999E-01
  .145826E+01 -.947921E-01  .157485E+01 -.110614E+00  .171121E+01 -.130678E+00
  .187275E+01 -.156641E+00  .206712E+01 -.191049E+00  .230530E+01 -.237980E+00
  .260369E+01 -.304283E+00  .298793E+01 -.402194E+00  .350003E+01 -.555245E+00
  .421318E+01 -.813336E+00  .526398E+01 -.129707E+01  .691914E+01 -.235494E+01
  .958677E+01 -.526963E+01  .106896E+02 -.152409E+02 -.806958E+01 -.194140E+02
 -.104360E+02 -.681193E+01 -.754668E+01 -.284994E+01 -.567545E+01 -.150789E+01
 -.450519E+01 -.923270E+00 -.372355E+01 -.621042E+00 -.316948E+01 -.445643E+00
 -.275790E+01 -.335131E+00 -.244080E+01 -.261124E+00 -.218928E+01 -.209174E+00
 -.198509E+01 -.171326E+00 -.181611E+01 -.142907E+00 -.167400E+01 -.121025E+00
 -.155286E+01 -.103821E+00 -.144840E+01 -.900495E-01 -.135741E+01 -.788539E-01
 -.127744E+01 -.696294E-01 -.120664E+01 -.619388E-01 -.114350E+01 -.554590E-01
 -.108686E+01 -.499484E-01 -.103576E+01 -.452228E-01 -.989442E+00 -.411392E-01
 -.947261E+00 -.375863E-01 -.908693E+00 -.344758E-01 -.873293E+00 -.317369E-01
 -.840689E+00 -.293126E-01 -.810568E+00 -.271564E-01 -.782655E+00 -.252299E-01
 -.756718E+00 -.235015E-01 -.732560E+00 -.219451E-01 -.710001E+00 -.205382E-01
 -.688892E+00 -.192623E-01 -.669098E+00 -.181016E-01 -.650502E+00 -.170426E-01
 -.632998E+00 -.160736E-01 -.616495E+00 -.151847E-01 -.600912E+00 -.143673E-01
 -.586173E+00 -.136138E-01 -.572213E+00 -.129177E-01 -.558973E+00 -.122733E-01
 -.546400E+00 -.116756E-01 -.534446E+00 -.111201E-01 -.523067E+00 -.106029E-01
 -.512223E+00 -.101206E-01 -.501878E+00 -.967004E-02 -.492000E+00 -.924851E-02
 -.482558E+00 -.885353E-02 -.473524E+00 -.848290E-02 -.464875E+00 -.813466E-02
 -.456585E+00 -.780699E-02 -.448635E+00 -.749831E-02 -.441004E+00 -.720718E-02
 -.433674E+00 -.693224E-02 -.426628E+00 -.667232E-02 -.419851E+00 -.642635E-02
 -.413328E+00 -.619330E-02 -.407046E+00 -.597229E-02 -.400991E+00 -.576250E-02
 -.395154E+00 -.556316E-02 -.389522E+00 -.537358E-02 -.384086E+00 -.519313E-02
 -.378836E+00 -.502121E-02 -.373764E+00 -.485730E-02 -.368860E+00 -.470088E-02
 -.364117E+00 -.455151E-02 -.359528E+00 -.440875E-02 -.355086E+00 -.427221E-02
 -.350785E+00 -.414154E-02 -.346618E+00 -.401638E-02 -.342579E+00 -.389643E-02
 -.338664E+00 -.378139E-02 -.334867E+00 -.367100E-02 -.331183E+00 -.356499E-02
 -.327608E+00 -.346314E-02 -.324138E+00 -.336521E-02 -.320767E+00 -.327101E-02
 -.317494E+00 -.318034E-02 -.314313E+00 -.309302E-02 -.311222E+00 -.300888E-02
 -.308216E+00 -.292777E-02 -.305294E+00 -.284952E-02 -.302451E+00 -.277401E-02
 -.299686E+00 -.270109E-02 -.296995E+00 -.263066E-02 -.294376E+00 -.256258E-02
 -.291827E+00 -.249674E-02 -.289344E+00 -.243306E-02 -.286927E+00 -.237142E-02
 -.284572E+00 -.231173E-02 -.282278E+00 -.225391E-02 -.280042E+00 -.219787E-02
 -.277864E+00 -.214354E-02 -.275741E+00 -.209084E-02 -.273672E+00 -.203969E-02
 -.271654E+00 -.199004E-02 -.269687E+00 -.194182E-02 -.267768E+00 -.189497E-02
 -.265898E+00 -.184942E-02 -.264073E+00 -.180514E-02 -.262293E+00 -.176206E-02
 -.260557E+00 -.172014E-02 -.258863E+00 -.167933E-02 -.257210E+00 -.163957E-02
 -.255598E+00 -.160084E-02 -.254025E+00 -.156310E-02 -.252490E+00 -.152629E-02
 -.250992E+00 -.149038E-02 -.249530E+00 -.145535E-02 -.248103E+00 -.142115E-02
 -.246712E+00 -.138775E-02 -.245353E+00 -.135511E-02 -.244028E+00 -.132322E-02
 -.242735E+00 -.129204E-02 -.241473E+00 -.126154E-02 -.240241E+00 -.123170E-02
 -.239040E+00 -.120249E-02 -.237868E+00 -.117388E-02 -.236725E+00 -.114585E-02
 -.235611E+00 -.111839E-02 -.234523E+00 -.109145E-02 -.233463E+00 -.106503E-02
 -.232430E+00 -.103910E-02 -.231422E+00 -.101365E-02 -.230440E+00 -.988645E-03
 -.229483E+00 -.964074E-03 -.228551E+00 -.939915E-03 -.227644E+00 -.916153E-03
 -.226760E+00 -.892766E-03 -.225899E+00 -.869739E-03 -.225062E+00 -.847053E-03
 -.224248E+00 -.824690E-03 -.223456E+00 -.802634E-03 -.222686E+00 -.780868E-03
 -.221939E+00 -.759374E-03 -.221213E+00 -.738135E-03 -.220509E+00 -.717133E-03
 -.219825E+00 -.696354E-03 -.219163E+00 -.675778E-03 -.218522E+00 -.655387E-03
 -.217902E+00 -.635166E-03 -.217302E+00 -.615093E-03 -.216723E+00 -.595150E-03
 -.216163E+00 -.575319E-03 -.215625E+00 -.555578E-03 -.215106E+00 -.535905E-03
 -.214608E+00 -.516281E-03 -.214130E+00 -.496678E-03 -.213673E+00 -.477074E-03
 -.213236E+00 -.457443E-03 -.212819E+00 -.437753E-03 -.212423E+00 -.417975E-03
 -.212048E+00 -.398077E-03 -.211694E+00 -.378020E-03 -.211361E+00 -.357767E-03
 -.211050E+00 -.337273E-03 -.210761E+00 -.316488E-03 -.210494E+00 -.295361E-03
 -.210250E+00 -.273832E-03 -.210030E+00 -.251831E-03 -.209835E+00 -.229285E-03
 -.209664E+00 -.206107E-03 -.209520E+00 -.182200E-03 -.209402E+00 -.157450E-03
 -.209313E+00 -.131729E-03 -.209253E+00 -.104888E-03 -.209225E+00 -.767525E-04
 -.209230E+00 -.471189E-04 -.209270E+00 -.157488E-04 -.209347E+00  .176451E-04
 -.209465E+00  .534009E-04 -.209627E+00  .919249E-04 -.209837E+00  .133715E-03
 -.210099E+00  .179374E-03 -.210418E+00  .229643E-03 -.210803E+00  .285452E-03
 -.211259E+00  .347962E-03 -.211797E+00  .418645E-03 -.212428E+00  .499407E-03
 -.213167E+00  .592723E-03 -.214032E+00  .701864E-03 -.215046E+00  .831249E-03
 -.216238E+00  .986920E-03 -.217647E+00  .117734E-02 -.219323E+00  .141468E-02
 -.221337E+00  .171689E-02 -.223785E+00  .211137E-02 -.226807E+00  .264156E-02
 -.230612E+00  .337983E-02 -.235520E+00  .445360E-02 -.242060E+00  .610424E-02
 -.251150E+00  .883443E-02 -.264523E+00  .138300E-01 -.285743E+00  .244285E-01
 -.322351E+00  .527768E-01 -.373288E+00  .159377E+00 -.136086E+00  .347563E+00
 -.286086E-01  .114707E+00 -.803278E-01  .421386E-01 -.111802E+00  .209234E-01
 -.130460E+00  .123913E-01 -.142531E+00  .818715E-02 -.150927E+00  .582496E-02
 -.157096E+00  .437206E-02 -.161824E+00  .341802E-02 -.165570E+00  .275992E-02
 -.168621E+00  .228820E-02 -.171160E+00  .193970E-02 -.173316E+00  .167587E-02
 -.175177E+00  .147213E-02 -.176805E+00  .131222E-02 -.178250E+00  .118502E-02
 -.179547E+00  .108275E-02 -.180723E+00  .999788E-03 -.181799E+00  .932044E-03
 -.182794E+00  .876448E-03 -.183720E+00  .830670E-03 -.184589E+00  .792919E-03
 -.185409E+00  .761800E-03 -.186190E+00  .736209E-03 -.186936E+00  .715269E-03
 -.187654E+00  .698274E-03 -.188347E+00  .684646E-03 -.189020E+00  .673918E-03
 -.189677E+00  .665701E-03 -.190319E+00  .659673E-03 -.190950E+00  .655566E-03
 -.191571E+00  .653153E-03 -.192186E+00  .652244E-03 -.192794E+00  .652677E-03
 -.193399E+00  .654313E-03 -.194001E+00  .657035E-03 -.194602E+00  .660742E-03
 -.195202E+00  .665345E-03 -.195803E+00  .670770E-03 -.196406E+00  .676950E-03
 -.197011E+00  .683829E-03 -.197620E+00  .691359E-03 -.198232E+00  .699495E-03
 -.198850E+00  .708200E-03 -.199472E+00  .717441E-03 -.200100E+00  .727191E-03
 -.200735E+00  .737424E-03 -.201377E+00  .748118E-03 -.202026E+00  .759255E-03
 -.202682E+00  .770818E-03 -.203347E+00  .782793E-03 -.204021E+00  .795169E-03
 -.204704E+00  .807935E-03 -.205396E+00  .821082E-03 -.206098E+00  .834604E-03
 -.206810E+00  .848493E-03 -.207533E+00  .862746E-03 -.208266E+00  .877359E-03
 -.209011E+00  .892330E-03 -.209768E+00  .907656E-03 -.210536E+00  .923337E-03
 -.211316E+00  .939373E-03 -.212109E+00  .955764E-03 -.212914E+00  .972513E-03
 -.213733E+00  .989620E-03 -.214565E+00  .100709E-02 -.215411E+00  .102492E-02
 -.216271E+00  .104313E-02 -.217146E+00  .106170E-02 -.218035E+00  .108066E-02
 -.218939E+00  .110000E-02 -.219858E+00  .111973E-02 -.220793E+00  .113985E-02
 -.221744E+00  .116038E-02 -.222711E+00  .118132E-02 -.223695E+00  .120268E-02
 -.224696E+00  .122447E-02 -.225715E+00  .124669E-02 -.226751E+00  .126935E-02
 -.227805E+00  .129248E-02 -.228878E+00  .131606E-02 -.229969E+00  .134013E-02
 -.231079E+00  .136468E-02 -.232210E+00  .138973E-02 -.233360E+00  .141530E-02
 -.234530E+00  .144139E-02 -.235722E+00  .146802E-02 -.236934E+00  .149520E-02
 -.238168E+00  .152294E-02 -.239425E+00  .155128E-02 -.240704E+00  .158020E-02
 -.242006E+00  .160975E-02 -.243332E+00  .163993E-02 -.244681E+00  .167075E-02
 -.246055E+00  .170225E-02 -.247455E+00  .173443E-02 -.248880E+00  .176732E-02
 -.250331E+00  .180094E-02 -.251809E+00  .183531E-02 -.253314E+00  .187046E-02
 -.254848E+00  .190640E-02 -.256409E+00  .194316E-02 -.258001E+00  .198077E-02
 -.259622E+00  .201925E-02 -.261273E+00  .205863E-02 -.262956E+00  .209895E-02
 -.264671E+00  .214022E-02 -.266419E+00  .218248E-02 -.268200E+00  .222577E-02
 -.270015E+00  .227011E-02 -.271866E+00  .231555E-02 -.273753E+00  .236210E-02
 -.275676E+00  .240983E-02 -.277638E+00  .245877E-02 -.279638E+00  .250895E-02
 -.281678E+00  .256043E-02 -.283758E+00  .261324E-02 -.285880E+00  .266743E-02
 -.288046E+00  .272306E-02 -.290255E+00  .278017E-02 -.292509E+00  .283882E-02
 -.294810E+00  .289907E-02 -.297158E+00  .296097E-02 -.299554E+00  .302458E-02
 -.302002E+00  .308997E-02 -.304500E+00  .315722E-02 -.307052E+00  .322638E-02
 -.309658E+00  .329754E-02 -.312320E+00  .337077E-02 -.315040E+00  .344614E-02
 -.317819E+00  .352376E-02 -.320659E+00  .360370E-02 -.323562E+00  .368607E-02
 -.326529E+00  .377097E-02 -.329564E+00  .385849E-02 -.332667E+00  .394874E-02
 -.335840E+00  .404184E-02 -.339087E+00  .413793E-02 -.342410E+00  .423712E-02
 -.345810E+00  .433954E-02 -.349290E+00  .444535E-02 -.352853E+00  .455469E-02
 -.356502E+00  .466771E-02 -.360239E+00  .478461E-02 -.364068E+00  .490554E-02
 -.367991E+00  .503069E-02 -.372012E+00  .516027E-02 -.376135E+00  .529449E-02
 -.380362E+00  .543355E-02 -.384698E+00  .557773E-02 -.389147E+00  .572725E-02
 -.393712E+00  .588239E-02 -.398398E+00  .604343E-02 -.403210E+00  .621068E-02
 -.408152E+00  .638443E-02 -.413230E+00  .656507E-02 -.418449E+00  .675295E-02
 -.423814E+00  .694845E-02 -.429331E+00  .715200E-02 -.435007E+00  .736403E-02
 -.440848E+00  .758504E-02 -.446861E+00  .781549E-02 -.453053E+00  .805600E-02
 -.459432E+00  .830712E-02 -.466007E+00  .856948E-02 -.472785E+00  .884377E-02
 -.479777E+00  .913071E-02 -.486991E+00  .943107E-02 -.494439E+00  .974575E-02
 -.502131E+00  .100756E-01 -.510080E+00  .104217E-01 -.518297E+00  .107851E-01
 -.526796E+00  .111669E-01 -.535591E+00  .115684E-01 -.544698E+00  .119910E-01
 -.554133E+00  .124362E-01 -.563914E+00  .129056E-01 -.574058E+00  .134009E-01
 -.584586E+00  .139242E-01 -.595520E+00  .144775E-01 -.606883E+00  .150633E-01
 -.618700E+00  .156840E-01 -.630998E+00  .163426E-01 -.643807E+00  .170420E-01
 -.657158E+00  .177858E-01 -.671086E+00  .185778E-01 -.685626E+00  .194221E-01
 -.700822E+00  .203236E-01 -.716716E+00  .212874E-01 -.733358E+00  .223195E-01
 -.750800E+00  .234264E-01 -.769100E+00  .246154E-01 -.788320E+00  .258949E-01
 -.808535E+00  .272742E-01 -.829819E+00  .287641E-01 -.852259E+00  .303765E-01
 -.875950E+00  .321252E-01 -.900999E+00  .340260E-01 -.927521E+00  .360968E-01
 -.955655E+00  .383587E-01 -.985546E+00  .408357E-01 -.101736E+01  .435560E-01
 -.105130E+01  .465522E-01 -.108756E+01  .498629E-01 -.112640E+01  .535331E-01
 -.116810E+01  .576174E-01 -.121299E+01  .621800E-01 -.126144E+01  .672981E-01
 -.131389E+01  .730655E-01 -.137084E+01  .795962E-01 -.143291E+01  .870308E-01
 -.150080E+01  .955425E-01 -.157537E+01  .105351E+00 -.165764E+01  .116731E+00
 -.174886E+01  .130037E+00 -.185056E+01  .145727E+00 -.196464E+01  .164402E+00
 -.209346E+01  .186866E+00 -.224006E+01  .214217E+00 -.240834E+01  .247972E+00
 -.260339E+01  .290283E+00 -.283205E+01  .344285E+00 -.310362E+01  .414680E+00
 -.343102E+01  .508763E+00 -.383292E+01  .638376E+00 -.433669E+01  .823630E+00
 -.498395E+01  .110087E+01 -.583959E+01  .154081E+01 -.700471E+01  .229416E+01
 -.861877E+01  .371936E+01 -.107059E+02  .676838E+01 -.116949E+02  .138122E+02
 -.262664E+01  .234330E+02  .106490E+02  .171162E+02  .113477E+02  .836793E+01
  .925618E+01  .442924E+01  .748715E+01  .265199E+01  .620364E+01  .174427E+01
  .526804E+01  .122802E+01  .456653E+01  .909100E+00  .402496E+01  .699210E+00
  .359591E+01  .554082E+00  .324844E+01  .449716E+00  .296169E+01  .372208E+00
  .272127E+01  .313110E+00  .251694E+01  .267037E+00  .234124E+01  .230432E+00
  .218859E+01  .200874E+00  .205480E+01  .176666E+00  .193657E+01  .156590E+00
  .183138E+01  .139758E+00  .173720E+01  .125507E+00  .165239E+01  .113335E+00
  .157563E+01  .102857E+00  .150585E+01  .937735E-01  .144213E+01  .858454E-01
  .138371E+01  .788857E-01  .132998E+01  .727426E-01  .128039E+01  .672931E-01
  .123449E+01  .624365E-01  .119188E+01  .580896E-01  .115223E+01  .541839E-01
  .111523E+01  .506608E-01  .108064E+01  .474722E-01  .104822E+01  .445769E-01
  .101779E+01  .419400E-01  .989162E+00  .395316E-01  .962189E+00  .373262E-01
  .936728E+00  .353010E-01  .912659E+00  .334373E-01  .889873E+00  .317181E-01
  .868271E+00  .301289E-01  .847764E+00  .286569E-01  .828274E+00  .272909E-01
  .809725E+00  .260207E-01  .792054E+00  .248376E-01  .775200E+00  .237338E-01
