 -.599560E-10 -.423830E+01 -.424074E-01  .178054E-05 -.424801E-01  .714421E-05
 -.426021E-01  .161774E-04 -.427743E-01  .290316E-04 -.429981E-01  .459249E-04
 -.432753E-01  .671496E-04 -.436083E-01  .930814E-04 -.440001E-01  .124193E-03
 -.444542E-01  .161071E-03 -.449748E-01  .204436E-03 -.455671E-01  .255173E-03
 -.462369E-01  .314369E-03 -.469913E-01  .383356E-03 -.478390E-01  .463777E-03
 -.487897E-01  .557668E-03 -.498554E-01  .667565E-03 -.510506E-01  .796652E-03
 -.523922E-01  .948963E-03 -.539013E-01  .112965E-02 -.556032E-01  .134539E-02
 -.575293E-01  .160490E-02 -.597187E-01  .191977E-02 -.622205E-01  .230560E-02
 -.650973E-01  .278380E-02 -.684301E-01  .338434E-02 -.723252E-01  .415011E-02
 -.769250E-01  .514407E-02 -.824238E-01  .646160E-02 -.890933E-01  .825217E-02
 -.973234E-01  .107601E-01 -.107689E+00  .144053E-01 -.121064E+00  .199536E-01
 -.138802E+00  .289100E-01 -.162986E+00  .445115E-01 -.196327E+00  .745001E-01
 -.238128E+00  .139227E+00 -.250235E+00  .285359E+00 -.579387E-01  .459036E+00
  .181810E+00  .330980E+00  .196926E+00  .170309E+00  .160617E+00  .944520E-01
  .128331E+00  .586766E-01  .104296E+00  .398005E-01  .864992E-01  .287888E-01
  .730164E-01  .218415E-01  .625316E-01  .171848E-01  .541803E-01  .139117E-01
  .473883E-01  .115218E-01  .417648E-01  .972185E-02  .370364E-01  .833104E-02
  .330075E-01  .723289E-02  .295345E-01  .634974E-02  .265103E-01  .562818E-02
  .238529E-01  .503049E-02  .214991E-01  .452941E-02  .193991E-01  .410484E-02
  .175133E-01  .374169E-02  .158097E-01  .342844E-02  .142625E-01  .315618E-02
  .128502E-01  .291793E-02  .115550E-01  .270813E-02  .103622E-01  .252236E-02
  .925919E-02  .235701E-02  .823539E-02  .220915E-02  .728173E-02  .207635E-02
  .639041E-02  .195660E-02  .555469E-02  .184824E-02  .476872E-02  .174984E-02
  .402739E-02  .166021E-02  .332622E-02  .157833E-02  .266125E-02  .150334E-02
  .202899E-02  .143449E-02  .142635E-02  .137113E-02  .850556E-03  .131270E-02
  .299129E-03  .125871E-02 -.230147E-03  .120874E-02 -.739282E-03  .116241E-02
 -.123008E-02  .111939E-02 -.170417E-02  .107939E-02 -.216307E-02  .104215E-02
 -.260813E-02  .100745E-02 -.304058E-02  .975069E-03 -.346158E-02  .944838E-03
 -.387217E-02  .916588E-03 -.427333E-02  .890174E-03 -.466595E-02  .865464E-03
 -.505088E-02  .842340E-03 -.542887E-02  .820695E-03 -.580067E-02  .800432E-03
 -.616694E-02  .781464E-03 -.652833E-02  .763712E-03 -.688543E-02  .747103E-03
 -.723881E-02  .731574E-03 -.758901E-02  .717064E-03 -.793655E-02  .703520E-03
 -.828188E-02  .690894E-03 -.862552E-02  .679141E-03 -.896787E-02  .668221E-03
 -.930937E-02  .658098E-03 -.965045E-02  .648738E-03 -.999151E-02  .640112E-03
 -.103329E-01  .632192E-03 -.106751E-01  .624955E-03 -.110184E-01  .618379E-03
 -.113632E-01  .612444E-03 -.117098E-01  .607134E-03 -.120586E-01  .602433E-03
 -.124100E-01  .598327E-03 -.127643E-01  .594806E-03 -.131218E-01  .591861E-03
 -.134830E-01  .589482E-03 -.138481E-01  .587666E-03 -.142175E-01  .586405E-03
 -.145916E-01  .585699E-03 -.149707E-01  .585545E-03 -.153552E-01  .585944E-03
 -.157455E-01  .586896E-03 -.161419E-01  .588406E-03 -.165449E-01  .590477E-03
 -.169548E-01  .593117E-03 -.173720E-01  .596331E-03 -.177970E-01  .600131E-03
 -.182302E-01  .604526E-03 -.186721E-01  .609530E-03 -.191230E-01  .615156E-03
 -.195835E-01  .621421E-03 -.200541E-01  .628343E-03 -.205353E-01  .635941E-03
 -.210276E-01  .644238E-03 -.215315E-01  .653259E-03 -.220478E-01  .663029E-03
 -.225769E-01  .673578E-03 -.231195E-01  .684938E-03 -.236763E-01  .697143E-03
 -.242480E-01  .710232E-03 -.248354E-01  .724246E-03 -.254391E-01  .739229E-03
 -.260601E-01  .755230E-03 -.266992E-01  .772301E-03 -.273573E-01  .790500E-03
 -.280353E-01  .809890E-03 -.287344E-01  .830537E-03 -.294555E-01  .852516E-03
 -.301999E-01  .875906E-03 -.309687E-01  .900794E-03 -.317634E-01  .927276E-03
 -.325851E-01  .955455E-03 -.334356E-01  .985443E-03 -.343162E-01  .101736E-02
 -.352288E-01  .105135E-02 -.361750E-01  .108756E-02 -.371570E-01  .112614E-02
 -.381767E-01  .116728E-02 -.392364E-01  .121116E-02 -.403385E-01  .125802E-02
 -.414857E-01  .130807E-02 -.426807E-01  .136160E-02 -.439267E-01  .141887E-02
 -.452268E-01  .148023E-02 -.465847E-01  .154602E-02 -.480043E-01  .161664E-02
 -.494898E-01  .169255E-02 -.510459E-01  .177423E-02 -.526777E-01  .186224E-02
 -.543908E-01  .195722E-02 -.561911E-01  .205986E-02 -.580856E-01  .217098E-02
 -.600816E-01  .229147E-02 -.621874E-01  .242236E-02 -.644120E-01  .256483E-02
 -.667657E-01  .272024E-02 -.692597E-01  .289012E-02 -.719068E-01  .307626E-02
 -.747213E-01  .328074E-02 -.777192E-01  .350596E-02 -.809186E-01  .375473E-02
 -.843402E-01  .403037E-02 -.880076E-01  .433677E-02 -.919477E-01  .467857E-02
 -.961913E-01  .506130E-02 -.100775E+00  .549165E-02 -.105739E+00  .597766E-02
 -.111134E+00  .652918E-02 -.117015E+00  .715829E-02 -.123453E+00  .788002E-02
 -.130527E+00  .871316E-02 -.138336E+00  .968150E-02 -.146997E+00  .108155E-01
 -.156658E+00  .121547E-01 -.167498E+00  .137511E-01 -.179744E+00  .156739E-01
 -.193683E+00  .180175E-01 -.209686E+00  .209127E-01 -.228240E+00  .245447E-01
 -.249994E+00  .291831E-01 -.275835E+00  .352321E-01 -.307003E+00  .433186E-01
 -.345275E+00  .544563E-01 -.393291E+00  .703681E-01 -.455093E+00  .941628E-01
 -.537090E+00  .131887E+00 -.649668E+00  .196455E+00 -.808930E+00  .318873E+00
 -.102918E+01  .584126E+00 -.121195E+01  .123393E+01 -.466057E+00  .235944E+01
  .108683E+01  .183560E+01  .118940E+01  .857680E+00  .958990E+00  .438572E+00
  .771013E+00  .257716E+00  .638018E+00  .167802E+00  .542624E+00  .117497E+00
  .471881E+00  .867455E-01  .417696E+00  .666475E-01  .375024E+00  .528158E-01
  .340628E+00  .429001E-01  .312356E+00  .355526E-01  .288733E+00  .299581E-01
  .268716E+00  .256000E-01  .251549E+00  .221388E-01  .236672E+00  .193438E-01
  .223663E+00  .170540E-01  .212196E+00  .151541E-01  .202015E+00  .135601E-01
  .192921E+00  .122094E-01  .184750E+00  .110546E-01  .177372E+00  .100594E-01
  .170680E+00  .919547E-02  .164584E+00  .844051E-02  .159010E+00  .777682E-02
  .153896E+00  .719010E-02  .149188E+00  .666882E-02  .144843E+00  .620348E-02
  .140821E+00  .578625E-02  .137089E+00  .541067E-02  .133618E+00  .507129E-02
  .130383E+00  .476353E-02  .127362E+00  .448353E-02  .124536E+00  .422800E-02
  .121887E+00  .399412E-02  .119401E+00  .377947E-02  .117065E+00  .358194E-02
  .114865E+00  .339974E-02  .112792E+00  .323128E-02  .110836E+00  .307518E-02
  .108988E+00  .293023E-02  .107241E+00  .279536E-02  .105587E+00  .266963E-02
  .104020E+00  .255222E-02  .102534E+00  .244237E-02  .101125E+00  .233943E-02
  .997861E-01  .224282E-02  .985144E-01  .215199E-02  .973054E-01  .206649E-02
  .961554E-01  .198587E-02  .950609E-01  .190977E-02  .940190E-01  .183783E-02
  .930267E-01  .176973E-02  .920813E-01  .170519E-02  .911804E-01  .164396E-02
  .903217E-01  .158579E-02  .895030E-01  .153046E-02  .887225E-01  .147779E-02
  .879783E-01  .142759E-02  .872686E-01  .137970E-02  .865920E-01  .133395E-02
  .859469E-01  .129022E-02  .853321E-01  .124837E-02  .847461E-01  .120829E-02
  .841878E-01  .116985E-02  .836562E-01  .113297E-02  .831501E-01  .109755E-02
  .826685E-01  .106349E-02  .822107E-01  .103072E-02  .817757E-01  .999156E-03
  .813627E-01  .968734E-03  .809709E-01  .939386E-03  .805998E-01  .911050E-03
  .802485E-01  .883666E-03  .799166E-01  .857181E-03  .796034E-01  .831544E-03
  .793084E-01  .806706E-03  .790311E-01  .782623E-03  .787710E-01  .759251E-03
  .785278E-01  .736549E-03  .783009E-01  .714481E-03  .780901E-01  .693007E-03
  .778951E-01  .672095E-03  .777154E-01  .651711E-03  .775508E-01  .631822E-03
  .774011E-01  .612399E-03  .772660E-01  .593411E-03  .771453E-01  .574830E-03
  .770388E-01  .556629E-03  .769465E-01  .538779E-03  .768681E-01  .521254E-03
  .768036E-01  .504028E-03  .767530E-01  .487073E-03  .767161E-01  .470365E-03
  .766930E-01  .453875E-03  .766837E-01  .437576E-03  .766882E-01  .421442E-03
  .767068E-01  .405442E-03  .767394E-01  .389546E-03  .767864E-01  .373722E-03
  .768479E-01  .357934E-03  .769243E-01  .342147E-03  .770158E-01  .326320E-03
  .771230E-01  .310406E-03  .772464E-01  .294357E-03  .773865E-01  .278115E-03
  .775441E-01  .261615E-03  .777199E-01  .244784E-03  .779151E-01  .227534E-03
  .781307E-01  .209763E-03  .783681E-01  .191351E-03  .786290E-01  .172151E-03
  .789153E-01  .151987E-03  .792293E-01  .130642E-03  .795738E-01  .107846E-03
  .799522E-01  .832621E-04  .803685E-01  .564594E-04  .808279E-01  .268817E-04
  .813367E-01 -.619725E-05  .819028E-01 -.437465E-04  .825364E-01 -.870808E-04
  .832508E-01 -.138016E-03  .840633E-01 -.199129E-03  .849976E-01 -.274169E-03
  .860859E-01 -.368754E-03  .873745E-01 -.491631E-03  .889310E-01 -.657013E-03
  .908587E-01 -.889225E-03  .933241E-01 -.123278E-02  .966121E-01 -.177622E-02
  .101253E+00 -.271669E-02  .108352E+00 -.456804E-02  .120591E+00 -.902804E-02
  .145828E+00 -.244564E-01  .182714E+00 -.128275E+00 -.276880E-01 -.927840E-01
  .159793E-01 -.202139E-01  .380149E-01 -.809970E-02  .491054E-01 -.431234E-02
  .557325E-01 -.268009E-02  .601738E-01 -.183689E-02  .633954E-01 -.134827E-02
  .658720E-01 -.104206E-02  .678621E-01 -.839146E-03  .695187E-01 -.699074E-03
  .709379E-01 -.599424E-03  .721830E-01 -.526968E-03  .732975E-01 -.473489E-03
  .743120E-01 -.433665E-03  .752490E-01 -.403931E-03  .761253E-01 -.381823E-03
  .769536E-01 -.365597E-03  .777438E-01 -.353990E-03  .785038E-01 -.346069E-03
  .792397E-01 -.341135E-03  .799567E-01 -.338655E-03  .806589E-01 -.338218E-03
  .813498E-01 -.339502E-03  .820322E-01 -.342254E-03  .827088E-01 -.346273E-03
  .833815E-01 -.351398E-03  .840521E-01 -.357499E-03  .847224E-01 -.364469E-03
  .853936E-01 -.372223E-03  .860671E-01 -.380691E-03  .867440E-01 -.389815E-03
  .874252E-01 -.399548E-03  .881117E-01 -.409851E-03  .888042E-01 -.420694E-03
  .895037E-01 -.432052E-03  .902108E-01 -.443903E-03  .909262E-01 -.456233E-03
  .916506E-01 -.469029E-03  .923845E-01 -.482283E-03  .931285E-01 -.495988E-03
  .938833E-01 -.510142E-03  .946493E-01 -.524742E-03  .954271E-01 -.539789E-03
  .962173E-01 -.555286E-03  .970203E-01 -.571237E-03  .978367E-01 -.587648E-03
  .986670E-01 -.604525E-03  .995116E-01 -.621877E-03  .100371E+00 -.639713E-03
  .101246E+00 -.658045E-03  .102137E+00 -.676884E-03  .103044E+00 -.696245E-03
  .103969E+00 -.716141E-03  .104911E+00 -.736587E-03  .105871E+00 -.757602E-03
  .106850E+00 -.779202E-03  .107848E+00 -.801407E-03  .108866E+00 -.824238E-03
  .109904E+00 -.847715E-03  .110964E+00 -.871861E-03  .112045E+00 -.896702E-03
  .113149E+00 -.922263E-03  .114276E+00 -.948570E-03  .115426E+00 -.975652E-03
  .116602E+00 -.100354E-02  .117803E+00 -.103227E-02  .119029E+00 -.106186E-02
  .120283E+00 -.109237E-02  .121565E+00 -.112382E-02  .122875E+00 -.115625E-02
  .124215E+00 -.118971E-02  .125586E+00 -.122424E-02  .126988E+00 -.125988E-02
  .128423E+00 -.129669E-02  .129891E+00 -.133471E-02  .131395E+00 -.137401E-02
  .132934E+00 -.141464E-02  .134511E+00 -.145666E-02  .136126E+00 -.150014E-02
  .137781E+00 -.154514E-02  .139477E+00 -.159174E-02  .141216E+00 -.164002E-02
  .143000E+00 -.169005E-02  .144829E+00 -.174194E-02  .146706E+00 -.179575E-02
  .148632E+00 -.185161E-02  .150609E+00 -.190960E-02  .152640E+00 -.196985E-02
  .154726E+00 -.203247E-02  .156869E+00 -.209759E-02  .159072E+00 -.216535E-02
  .161337E+00 -.223588E-02  .163666E+00 -.230934E-02  .166063E+00 -.238591E-02
  .168530E+00 -.246574E-02  .171070E+00 -.254904E-02  .173686E+00 -.263602E-02
  .176382E+00 -.272687E-02  .179161E+00 -.282185E-02  .182027E+00 -.292120E-02
  .184983E+00 -.302521E-02  .188034E+00 -.313414E-02  .191185E+00 -.324834E-02
  .194440E+00 -.336815E-02  .197804E+00 -.349391E-02  .201283E+00 -.362606E-02
  .204882E+00 -.376502E-02  .208607E+00 -.391125E-02  .212466E+00 -.406529E-02
  .216466E+00 -.422769E-02  .220612E+00 -.439906E-02  .224915E+00 -.458009E-02
  .229382E+00 -.477149E-02  .234023E+00 -.497406E-02  .238848E+00 -.518872E-02
  .243868E+00 -.541640E-02  .249094E+00 -.565819E-02  .254540E+00 -.591527E-02
  .260218E+00 -.618896E-02  .266145E+00 -.648069E-02  .272336E+00 -.679209E-02
  .278810E+00 -.712495E-02  .285584E+00 -.748125E-02  .292681E+00 -.786328E-02
  .300124E+00 -.827353E-02  .307939E+00 -.871484E-02  .316152E+00 -.919037E-02
  .324795E+00 -.970378E-02  .333903E+00 -.102592E-01  .343512E+00 -.108611E-01
  .353667E+00 -.115151E-01  .364412E+00 -.122272E-01  .375801E+00 -.130044E-01
  .387893E+00 -.138548E-01  .400753E+00 -.147880E-01  .414457E+00 -.158149E-01
  .429091E+00 -.169485E-01  .444750E+00 -.182039E-01  .461544E+00 -.195991E-01
  .479603E+00 -.211557E-01  .499072E+00 -.228993E-01  .520119E+00 -.248608E-01
  .542947E+00 -.270782E-01  .567788E+00 -.295975E-01  .594916E+00 -.324757E-01
  .624663E+00 -.357843E-01  .657423E+00 -.396129E-01  .693671E+00 -.440756E-01
  .733996E+00 -.493204E-01  .779117E+00 -.555398E-01  .829934E+00 -.629893E-01
  .887592E+00 -.720150E-01  .953555E+00 -.830916E-01  .102973E+01 -.968870E-01
  .111866E+01 -.114362E+00  .122378E+01 -.136943E+00  .134988E+01 -.166814E+00
  .150376E+01 -.207449E+00  .169548E+01 -.264658E+00  .194031E+01 -.348696E+00
  .226247E+01 -.479003E+00  .270181E+01 -.695888E+00  .332463E+01 -.109285E+01
  .422737E+01 -.191971E+01  .536727E+01 -.394035E+01  .462613E+01 -.885861E+01
 -.326049E+01 -.102625E+02 -.560119E+01 -.483760E+01 -.454165E+01 -.227281E+01
 -.356418E+01 -.125544E+01 -.288483E+01 -.783866E+00 -.240935E+01 -.532794E+00
 -.206380E+01 -.384707E+00 -.180325E+01 -.290475E+00 -.160056E+01 -.226961E+00
 -.143875E+01 -.182182E+00 -.130677E+01 -.149453E+00 -.119715E+01 -.124818E+00
 -.110473E+01 -.105817E+00 -.102579E+01 -.908564E-01 -.957598E+00 -.788665E-01
 -.898119E+00 -.691105E-01 -.845797E+00 -.610663E-01 -.799418E+00 -.543548E-01
 -.758033E+00 -.486971E-01 -.720882E+00 -.438835E-01 -.687350E+00 -.397536E-01
 -.656935E+00 -.361837E-01 -.629228E+00 -.330769E-01 -.603882E+00 -.303560E-01
 -.580610E+00 -.279596E-01 -.559171E+00 -.258380E-01 -.539357E+00 -.239506E-01
 -.520992E+00 -.222639E-01 -.503924E+00 -.207506E-01 -.488021E+00 -.193874E-01
 -.473169E+00 -.181551E-01 -.459269E+00 -.170375E-01 -.446232E+00 -.160205E-01
 -.433981E+00 -.150925E-01 -.422449E+00 -.142434E-01 -.411575E+00 -.134643E-01
 -.401304E+00 -.127478E-01 -.391589E+00 -.120873E-01 -.382387E+00 -.114770E-01
 -.373657E+00 -.109120E-01 -.365367E+00 -.103879E-01 -.357483E+00 -.990080E-02
 -.349977E+00 -.944725E-02 -.342824E+00 -.902423E-02 -.335999E+00 -.862907E-02
 -.329481E+00 -.825931E-02 -.323250E+00 -.791283E-02 -.317288E+00 -.758771E-02
 -.311578E+00 -.728218E-02 -.306106E+00 -.699471E-02 -.300857E+00 -.672389E-02
 -.295818E+00 -.646844E-02 -.290977E+00 -.622719E-02 -.286323E+00 -.599913E-02
 -.281846E+00 -.578328E-02 -.277536E+00 -.557878E-02 -.273385E+00 -.538484E-02
 -.269384E+00 -.520074E-02 -.265526E+00 -.502580E-02 -.261803E+00 -.485944E-02
 -.258209E+00 -.470108E-02 -.254737E+00 -.455021E-02 -.251382E+00 -.440637E-02
 -.248138E+00 -.426911E-02 -.245000E+00 -.413804E-02 -.241964E+00 -.401277E-02
 -.239024E+00 -.389297E-02 -.236177E+00 -.377832E-02 -.233418E+00 -.366852E-02
 -.230743E+00 -.356329E-02 -.228150E+00 -.346238E-02 -.225634E+00 -.336555E-02
 -.223193E+00 -.327258E-02 -.220824E+00 -.318326E-02 -.218523E+00 -.309740E-02
 -.216289E+00 -.301482E-02 -.214117E+00 -.293534E-02 -.212007E+00 -.285880E-02
 -.209955E+00 -.278508E-02 -.207960E+00 -.271401E-02 -.206020E+00 -.264547E-02
 -.204132E+00 -.257934E-02 -.202295E+00 -.251550E-02 -.200506E+00 -.245385E-02
 -.198765E+00 -.239427E-02 -.197070E+00 -.233668E-02 -.195418E+00 -.228099E-02
 -.193809E+00 -.222710E-02 -.192241E+00 -.217494E-02 -.190713E+00 -.212443E-02
 -.189224E+00 -.207550E-02 -.187771E+00 -.202808E-02 -.186355E+00 -.198210E-02
 -.184975E+00 -.193750E-02 -.183628E+00 -.189423E-02 -.182314E+00 -.185222E-02
 -.181032E+00 -.181144E-02 -.179781E+00 -.177182E-02 -.178560E+00 -.173332E-02
 -.177368E+00 -.169589E-02 -.176205E+00 -.165950E-02 -.175070E+00 -.162410E-02
 -.173961E+00 -.158965E-02 -.172879E+00 -.155611E-02 -.171822E+00 -.152346E-02
 -.170790E+00 -.149165E-02 -.169782E+00 -.146065E-02 -.168797E+00 -.143044E-02
 -.167836E+00 -.140098E-02 -.166897E+00 -.137225E-02 -.165979E+00 -.134421E-02
 -.165083E+00 -.131685E-02 -.164208E+00 -.129014E-02 -.163353E+00 -.126405E-02
 -.162517E+00 -.123857E-02 -.161701E+00 -.121367E-02 -.160904E+00 -.118933E-02
 -.160126E+00 -.116552E-02 -.159365E+00 -.114224E-02 -.158622E+00 -.111947E-02
 -.157897E+00 -.109718E-02 -.157188E+00 -.107536E-02 -.156496E+00 -.105399E-02
 -.155820E+00 -.103305E-02 -.155160E+00 -.101254E-02 -.154516E+00 -.992434E-03
 -.153887E+00 -.972720E-03 -.153274E+00 -.953385E-03 -.152675E+00 -.934416E-03
 -.152090E+00 -.915800E-03 -.151520E+00 -.897524E-03 -.150964E+00 -.879576E-03
 -.150421E+00 -.861945E-03 -.149893E+00 -.844620E-03 -.149377E+00 -.827590E-03
 -.148875E+00 -.810842E-03 -.148385E+00 -.794368E-03 -.147909E+00 -.778157E-03
 -.147445E+00 -.762200E-03 -.146994E+00 -.746485E-03 -.146554E+00 -.731004E-03
 -.146128E+00 -.715748E-03 -.145713E+00 -.700705E-03 -.145310E+00 -.685869E-03
 -.144919E+00 -.671230E-03 -.144539E+00 -.656777E-03 -.144171E+00 -.642502E-03
 -.143815E+00 -.628397E-03 -.143470E+00 -.614452E-03 -.143137E+00 -.600656E-03
 -.142815E+00 -.587003E-03 -.142504E+00 -.573481E-03 -.142205E+00 -.560081E-03
 -.141917E+00 -.546793E-03 -.141640E+00 -.533605E-03 -.141375E+00 -.520509E-03
 -.141122E+00 -.507491E-03 -.140879E+00 -.494540E-03 -.140649E+00 -.481644E-03
 -.140430E+00 -.468788E-03 -.140223E+00 -.455958E-03 -.140028E+00 -.443138E-03
 -.139845E+00 -.430312E-03 -.139675E+00 -.417459E-03 -.139517E+00 -.404558E-03
 -.139373E+00 -.391588E-03 -.139242E+00 -.378522E-03 -.139125E+00 -.365328E-03
 -.139022E+00 -.351976E-03 -.138934E+00 -.338426E-03 -.138862E+00 -.324634E-03
 -.138807E+00 -.310548E-03 -.138769E+00 -.296110E-03 -.138749E+00 -.281247E-03
 -.138750E+00 -.265876E-03 -.138771E+00 -.249898E-03 -.138815E+00 -.233190E-03
 -.138884E+00 -.215606E-03 -.138980E+00 -.196965E-03 -.139107E+00 -.177040E-03
 -.139267E+00 -.155551E-03 -.139465E+00 -.132140E-03 -.139706E+00 -.106346E-03
 -.139997E+00 -.775693E-04 -.140345E+00 -.450191E-04 -.140761E+00 -.762419E-05
 -.141258E+00  .360792E-04 -.141853E+00  .881427E-04 -.142569E+00  .151525E-03
 -.143437E+00  .230591E-03 -.144503E+00  .332027E-03 -.145829E+00  .466466E-03
 -.147512E+00  .651708E-03 -.149702E+00  .919295E-03 -.152653E+00  .132957E-02
 -.156818E+00  .201010E-02 -.163099E+00  .326965E-02 -.173570E+00  .602101E-02
 -.194110E+00  .139985E-01 -.245680E+00  .555643E-01 -.492597E-01  .262178E+00
 -.371889E-01  .353534E-01 -.766625E-01  .109027E-01 -.934794E-01  .512968E-02
 -.102540E+00  .295024E-02 -.108178E+00  .190656E-02 -.112022E+00  .133037E-02
 -.114817E+00  .980914E-03 -.116945E+00  .754555E-03 -.118625E+00  .600728E-03
 -.119991E+00  .492376E-03 -.121129E+00  .413989E-03 -.122095E+00  .356147E-03
 -.122930E+00  .312859E-03 -.123664E+00  .280174E-03 -.124317E+00  .255400E-03
 -.124905E+00  .236650E-03 -.125442E+00  .222569E-03 -.125936E+00  .212166E-03
 -.126395E+00  .204703E-03 -.126825E+00  .199619E-03 -.127231E+00  .196485E-03
 -.127618E+00  .194965E-03 -.127988E+00  .194795E-03 -.128344E+00  .195765E-03
 -.128690E+00  .197706E-03 -.129026E+00  .200482E-03 -.129355E+00  .203982E-03
 -.129677E+00  .208113E-03 -.129995E+00  .212801E-03 -.130310E+00  .217981E-03
 -.130622E+00  .223601E-03 -.130932E+00  .229617E-03 -.131242E+00  .235993E-03
 -.131551E+00  .242695E-03 -.131860E+00  .249699E-03 -.132171E+00  .256981E-03
 -.132482E+00  .264522E-03 -.132796E+00  .272306E-03 -.133112E+00  .280319E-03
 -.133431E+00  .288548E-03 -.133753E+00  .296986E-03 -.134078E+00  .305622E-03
 -.134406E+00  .314450E-03 -.134739E+00  .323464E-03 -.135076E+00  .332659E-03
 -.135417E+00  .342032E-03 -.135763E+00  .351579E-03 -.136114E+00  .361299E-03
 -.136470E+00  .371189E-03 -.136831E+00  .381248E-03 -.137198E+00  .391476E-03
 -.137570E+00  .401873E-03 -.137948E+00  .412439E-03 -.138333E+00  .423176E-03
 -.138723E+00  .434083E-03 -.139120E+00  .445162E-03 -.139524E+00  .456417E-03
 -.139934E+00  .467848E-03 -.140351E+00  .479457E-03 -.140775E+00  .491249E-03
 -.141206E+00  .503225E-03 -.141645E+00  .515389E-03 -.142091E+00  .527744E-03
 -.142545E+00  .540295E-03 -.143007E+00  .553044E-03 -.143476E+00  .565996E-03
 -.143954E+00  .579157E-03 -.144440E+00  .592529E-03 -.144935E+00  .606118E-03
 -.145438E+00  .619929E-03 -.145950E+00  .633968E-03 -.146471E+00  .648239E-03
 -.147001E+00  .662750E-03 -.147540E+00  .677505E-03 -.148089E+00  .692511E-03
 -.148647E+00  .707775E-03 -.149216E+00  .723303E-03 -.149794E+00  .739101E-03
 -.150383E+00  .755179E-03 -.150982E+00  .771543E-03 -.151591E+00  .788201E-03
 -.152212E+00  .805161E-03 -.152843E+00  .822431E-03 -.153486E+00  .840020E-03
 -.154140E+00  .857938E-03 -.154806E+00  .876193E-03 -.155484E+00  .894795E-03
 -.156173E+00  .913755E-03 -.156876E+00  .933083E-03 -.157591E+00  .952789E-03
 -.158318E+00  .972885E-03 -.159059E+00  .993383E-03 -.159813E+00  .101429E-02
 -.160581E+00  .103563E-02 -.161363E+00  .105741E-02 -.162159E+00  .107963E-02
 -.162970E+00  .110233E-02 -.163795E+00  .112550E-02 -.164636E+00  .114918E-02
 -.165492E+00  .117336E-02 -.166364E+00  .119807E-02 -.167252E+00  .122333E-02
 -.168157E+00  .124914E-02 -.169079E+00  .127554E-02 -.170018E+00  .130254E-02
 -.170974E+00  .133015E-02 -.171949E+00  .135841E-02 -.172942E+00  .138733E-02
 -.173954E+00  .141693E-02 -.174986E+00  .144723E-02 -.176037E+00  .147827E-02
 -.177108E+00  .151006E-02 -.178201E+00  .154263E-02 -.179314E+00  .157601E-02
 -.180450E+00  .161023E-02 -.181608E+00  .164532E-02 -.182788E+00  .168130E-02
 -.183993E+00  .171821E-02 -.185221E+00  .175609E-02 -.186474E+00  .179497E-02
 -.187753E+00  .183488E-02 -.189057E+00  .187587E-02 -.190388E+00  .191797E-02
 -.191747E+00  .196123E-02 -.193134E+00  .200569E-02 -.194550E+00  .205140E-02
 -.195996E+00  .209841E-02 -.197472E+00  .214676E-02 -.198980E+00  .219651E-02
 -.200520E+00  .224773E-02 -.202093E+00  .230046E-02 -.203701E+00  .235476E-02
 -.205344E+00  .241071E-02 -.207024E+00  .246837E-02 -.208741E+00  .252781E-02
 -.210497E+00  .258911E-02 -.212292E+00  .265235E-02 -.214129E+00  .271761E-02
 -.216008E+00  .278498E-02 -.217930E+00  .285456E-02 -.219898E+00  .292643E-02
 -.221912E+00  .300071E-02 -.223975E+00  .307751E-02 -.226087E+00  .315694E-02
 -.228251E+00  .323912E-02 -.230468E+00  .332419E-02 -.232740E+00  .341229E-02
 -.235068E+00  .350354E-02 -.237457E+00  .359812E-02 -.239906E+00  .369620E-02
 -.242419E+00  .379793E-02 -.244997E+00  .390351E-02 -.247644E+00  .401314E-02
 -.250361E+00  .412701E-02 -.253152E+00  .424538E-02 -.256019E+00  .436846E-02
 -.258966E+00  .449652E-02 -.261996E+00  .462982E-02 -.265111E+00  .476866E-02
 -.268316E+00  .491334E-02 -.271614E+00  .506419E-02 -.275009E+00  .522160E-02
 -.278506E+00  .538593E-02 -.282109E+00  .555759E-02 -.285822E+00  .573703E-02
 -.289651E+00  .592472E-02 -.293600E+00  .612116E-02 -.297676E+00  .632694E-02
 -.301884E+00  .654265E-02 -.306231E+00  .676891E-02 -.310723E+00  .700645E-02
 -.315368E+00  .725602E-02 -.320173E+00  .751841E-02 -.325147E+00  .779457E-02
 -.330299E+00  .808545E-02 -.335637E+00  .839212E-02 -.341172E+00  .871574E-02
 -.346915E+00  .905756E-02 -.352876E+00  .941896E-02 -.359071E+00  .980152E-02
 -.365510E+00  .102069E-01 -.372210E+00  .106369E-01 -.379186E+00  .110935E-01
 -.386454E+00  .115791E-01 -.394034E+00  .120961E-01 -.401945E+00  .126472E-01
 -.410210E+00  .132356E-01 -.418852E+00  .138647E-01 -.427898E+00  .145382E-01
 -.437376E+00  .152604E-01 -.447316E+00  .160362E-01 -.457754E+00  .168709E-01
 -.468727E+00  .177707E-01 -.480278E+00  .187425E-01 -.492452E+00  .197941E-01
 -.505301E+00  .209346E-01 -.518881E+00  .221740E-01 -.533256E+00  .235242E-01
 -.548498E+00  .249988E-01 -.564687E+00  .266134E-01 -.581913E+00  .283864E-01
 -.600277E+00  .303390E-01 -.619896E+00  .324962E-01 -.640900E+00  .348873E-01
 -.663443E+00  .375478E-01 -.687697E+00  .405191E-01 -.713863E+00  .438516E-01
 -.742174E+00  .476060E-01 -.772903E+00  .518563E-01 -.806371E+00  .566933E-01
 -.842953E+00  .622294E-01 -.883110E+00  .686066E-01 -.927381E+00  .760027E-01
 -.976426E+00  .846458E-01 -.103105E+01  .948315E-01 -.109226E+01  .106947E+00
 -.116128E+01  .121510E+00 -.123970E+01  .139223E+00 -.132956E+01  .161057E+00
 -.143346E+01  .188385E+00 -.155492E+01  .223199E+00 -.169862E+01  .268474E+00
 -.187102E+01  .328792E+00 -.208124E+01  .411532E+00 -.234226E+01  .529083E+00
 -.267297E+01  .703462E+00 -.310063E+01  .976450E+00 -.366141E+01  .143361E+01
 -.438301E+01  .226455E+01 -.515590E+01  .390675E+01 -.503144E+01  .711894E+01
 -.101748E+01  .105410E+02  .429672E+01  .840802E+01  .525273E+01  .470704E+01
  .457958E+01  .266529E+01  .381904E+01  .164763E+01  .321221E+01  .110192E+01
  .274915E+01  .783277E+00  .239288E+01  .583335E+00  .211338E+01  .450431E+00
  .188958E+01  .357918E+00  .170699E+01  .291074E+00  .155547E+01  .241261E+00
  .142792E+01  .203181E+00  .131917E+01  .173435E+00  .122542E+01  .149766E+00
  .114380E+01  .130628E+00  .107214E+01  .114939E+00  .100873E+01  .101917E+00
  .952244E+00  .909910E-01  .901611E+00  .817355E-01  .855976E+00  .738265E-01
  .814639E+00  .670152E-01  .777029E+00  .611080E-01  .742659E+00  .559509E-01
  .711134E+00  .514224E-01  .682117E+00  .474243E-01  .655322E+00  .438770E-01
  .630504E+00  .407149E-01  .607454E+00  .378844E-01  .585992E+00  .353407E-01
  .565958E+00  .330460E-01  .547215E+00  .309689E-01  .529643E+00  .290827E-01
  .513137E+00  .273647E-01  .497603E+00  .257955E-01  .482959E+00  .243584E-01
  .469130E+00  .230388E-01  .456049E+00  .218242E-01  .443660E+00  .207038E-01
  .431908E+00  .196682E-01  .420745E+00  .187088E-01  .410131E+00  .178186E-01
  .400024E+00  .169907E-01  .390389E+00  .162197E-01  .381194E+00  .155004E-01
