  .366253E-10 -.577140E+01 -.576993E-01 -.840784E-06 -.576548E-01 -.336109E-05
 -.575805E-01 -.759023E-05 -.574761E-01 -.135715E-04 -.573410E-01 -.213680E-04
 -.571747E-01 -.310643E-04 -.569762E-01 -.427683E-04 -.567446E-01 -.566148E-04
 -.564788E-01 -.727698E-04 -.561773E-01 -.914358E-04 -.558383E-01 -.112859E-03
 -.554600E-01 -.137338E-03 -.550400E-01 -.165236E-03 -.545755E-01 -.196996E-03
 -.540634E-01 -.233159E-03 -.534999E-01 -.274391E-03 -.528804E-01 -.321518E-03
 -.521997E-01 -.375574E-03 -.514513E-01 -.437858E-03 -.506274E-01 -.510028E-03
 -.497187E-01 -.594219E-03 -.487137E-01 -.693219E-03 -.475980E-01 -.810719E-03
 -.463537E-01 -.951682E-03 -.449579E-01 -.112291E-02 -.433810E-01 -.133393E-02
 -.415844E-01 -.159833E-02 -.395159E-01 -.193616E-02 -.371042E-01 -.237773E-02
 -.342494E-01 -.297076E-02 -.308065E-01 -.379351E-02 -.265592E-01 -.498123E-02
 -.211721E-01 -.678286E-02 -.141069E-01 -.969417E-02 -.447959E-02 -.148052E-01
  .908261E-02 -.248281E-01  .275631E-01 -.474896E-01  .391830E-01 -.104490E+00
 -.387905E-01 -.183698E+00 -.137871E+00 -.121819E+00 -.135066E+00 -.579053E-01
 -.117662E+00 -.313660E-01 -.103989E+00 -.195505E-01 -.940324E-01 -.135057E-01
 -.865660E-01 -.100572E-01 -.807259E-01 -.792767E-02 -.759727E-01 -.653524E-02
 -.719674E-01 -.558685E-02 -.684896E-01 -.492263E-02 -.653909E-01 -.444966E-02
 -.625682E-01 -.411107E-02 -.599471E-01 -.387061E-02 -.574727E-01 -.370440E-02
 -.551031E-01 -.359625E-02 -.528056E-01 -.353501E-02 -.505539E-01 -.351289E-02
 -.483263E-01 -.352443E-02 -.461046E-01 -.356585E-02 -.438728E-01 -.363459E-02
 -.416166E-01 -.372903E-02 -.393230E-01 -.384831E-02 -.369797E-01 -.399217E-02
 -.345750E-01 -.416090E-02 -.320971E-01 -.435528E-02 -.295343E-01 -.457654E-02
 -.268746E-01 -.482640E-02 -.241053E-01 -.510705E-02 -.212133E-01 -.542121E-02
 -.181841E-01 -.577218E-02 -.150023E-01 -.616392E-02 -.116510E-01 -.660117E-02
 -.811149E-02 -.708954E-02 -.436294E-02 -.763573E-02 -.382016E-03 -.824771E-02
  .385760E-02 -.893499E-02  .838581E-02 -.970901E-02  .132368E-01 -.105835E-01
  .184498E-01 -.115753E-01  .240702E-01 -.127046E-01  .301508E-01 -.139965E-01
  .367535E-01 -.154819E-01  .439512E-01 -.171997E-01  .518303E-01 -.191986E-01
  .604941E-01 -.215409E-01  .700668E-01 -.243067E-01  .806992E-01 -.276007E-01
  .925749E-01 -.315613E-01  .105921E+00 -.363748E-01  .121016E+00 -.422951E-01
  .138211E+00 -.496762E-01  .157941E+00 -.590206E-01  .180753E+00 -.710591E-01
  .207317E+00 -.868806E-01  .238436E+00 -.108152E+00  .274982E+00 -.137499E+00
  .317648E+00 -.179169E+00  .366157E+00 -.240171E+00  .416921E+00 -.332001E+00
  .456605E+00 -.471996E+00  .447276E+00 -.677450E+00  .311108E+00 -.928340E+00
 -.779721E-02 -.109309E+01 -.372376E+00 -.101810E+01 -.581418E+00 -.785746E+00
 -.634356E+00 -.561889E+00 -.613555E+00 -.400486E+00 -.569992E+00 -.292549E+00
 -.523918E+00 -.220391E+00 -.481809E+00 -.170986E+00 -.445096E+00 -.136139E+00
 -.413546E+00 -.110833E+00 -.386474E+00 -.919632E-01 -.363151E+00 -.775573E-01
 -.342930E+00 -.663301E-01 -.325274E+00 -.574206E-01 -.309745E+00 -.502375E-01
 -.295990E+00 -.443644E-01 -.283724E+00 -.395027E-01 -.272715E+00 -.354337E-01
 -.262777E+00 -.319946E-01 -.253755E+00 -.290620E-01 -.245522E+00 -.265416E-01
 -.237973E+00 -.243599E-01 -.231018E+00 -.224591E-01 -.224584E+00 -.207933E-01
 -.218607E+00 -.193256E-01 -.213034E+00 -.180262E-01 -.207817E+00 -.168708E-01
 -.202918E+00 -.158391E-01 -.198302E+00 -.149147E-01 -.193939E+00 -.140837E-01
 -.189801E+00 -.133343E-01 -.185867E+00 -.126568E-01 -.182114E+00 -.120428E-01
 -.178526E+00 -.114851E-01 -.175086E+00 -.109777E-01 -.171778E+00 -.105154E-01
 -.168591E+00 -.100936E-01 -.165512E+00 -.970842E-02 -.162530E+00 -.935644E-02
 -.159635E+00 -.903471E-02 -.156818E+00 -.874065E-02 -.154071E+00 -.847201E-02
 -.151387E+00 -.822683E-02 -.148757E+00 -.800340E-02 -.146176E+00 -.780020E-02
 -.143636E+00 -.761594E-02 -.141133E+00 -.744948E-02 -.138659E+00 -.729983E-02
 -.136211E+00 -.716616E-02 -.133782E+00 -.704776E-02 -.131367E+00 -.694402E-02
 -.128962E+00 -.685445E-02 -.126562E+00 -.677868E-02 -.124161E+00 -.671639E-02
 -.121756E+00 -.666741E-02 -.119341E+00 -.663162E-02 -.116911E+00 -.660902E-02
 -.114461E+00 -.659967E-02 -.111987E+00 -.660376E-02 -.109483E+00 -.662155E-02
 -.106944E+00 -.665341E-02 -.104365E+00 -.669983E-02 -.101738E+00 -.676141E-02
 -.990584E-01 -.683887E-02 -.963194E-01 -.693309E-02 -.935137E-01 -.704509E-02
 -.906339E-01 -.717607E-02 -.876718E-01 -.732745E-02 -.846186E-01 -.750084E-02
 -.814647E-01 -.769815E-02 -.781996E-01 -.792156E-02 -.748118E-01 -.817363E-02
 -.712887E-01 -.845730E-02 -.676161E-01 -.877602E-02 -.637784E-01 -.913380E-02
 -.597584E-01 -.953530E-02 -.555362E-01 -.998604E-02 -.510899E-01 -.104925E-01
 -.463946E-01 -.110623E-01 -.414218E-01 -.117045E-01 -.361390E-01 -.124301E-01
 -.305091E-01 -.132520E-01 -.244890E-01 -.141862E-01 -.180285E-01 -.152518E-01
 -.110693E-01 -.164725E-01 -.354283E-02 -.178775E-01  .463245E-02 -.195033E-01
  .135534E-01 -.213959E-01  .233364E-01 -.236141E-01  .341223E-01 -.262333E-01
  .460835E-01 -.293524E-01  .594320E-01 -.331024E-01  .744319E-01 -.376594E-01
  .914148E-01 -.432650E-01  .110802E+00 -.502569E-01  .133135E+00 -.591177E-01
  .159110E+00 -.705544E-01  .189637E+00 -.856337E-01  .225893E+00 -.106015E+00
  .269371E+00 -.134373E+00  .321829E+00 -.175194E+00  .384865E+00 -.236294E+00
  .458103E+00 -.331724E+00  .532683E+00 -.486562E+00  .570190E+00 -.739209E+00
  .454975E+00 -.110453E+01  .249807E-01 -.140778E+01 -.536062E+00 -.130788E+01
 -.816917E+00 -.939436E+00 -.846939E+00 -.622721E+00 -.788486E+00 -.419414E+00
 -.715180E+00 -.294562E+00 -.648166E+00 -.215865E+00 -.591399E+00 -.164152E+00
 -.544186E+00 -.128743E+00 -.504887E+00 -.103590E+00 -.471930E+00 -.851498E-01
 -.444019E+00 -.712591E-01 -.420141E+00 -.605497E-01 -.399513E+00 -.521265E-01
 -.381531E+00 -.453854E-01 -.365721E+00 -.399078E-01 -.351716E+00 -.353974E-01
 -.339222E+00 -.316392E-01 -.328005E+00 -.284746E-01 -.317874E+00 -.257846E-01
 -.308677E+00 -.234786E-01 -.300285E+00 -.214864E-01 -.292594E+00 -.197534E-01
 -.285516E+00 -.182362E-01 -.278976E+00 -.169001E-01 -.272912E+00 -.157172E-01
 -.267269E+00 -.146647E-01 -.262004E+00 -.137240E-01 -.257075E+00 -.128796E-01
 -.252448E+00 -.121186E-01 -.248095E+00 -.114304E-01 -.243988E+00 -.108058E-01
 -.240105E+00 -.102371E-01 -.236426E+00 -.971771E-02 -.232932E+00 -.924209E-02
 -.229608E+00 -.880537E-02 -.226440E+00 -.840336E-02 -.223414E+00 -.803242E-02
 -.220521E+00 -.768941E-02 -.217748E+00 -.737156E-02 -.215088E+00 -.707642E-02
 -.212532E+00 -.680187E-02 -.210072E+00 -.654602E-02 -.207702E+00 -.630719E-02
 -.205414E+00 -.608389E-02 -.203204E+00 -.587480E-02 -.201066E+00 -.567873E-02
 -.198996E+00 -.549463E-02 -.196988E+00 -.532153E-02 -.195039E+00 -.515859E-02
 -.193145E+00 -.500504E-02 -.191303E+00 -.486016E-02 -.189509E+00 -.472333E-02
 -.187761E+00 -.459398E-02 -.186055E+00 -.447159E-02 -.184389E+00 -.435568E-02
 -.182761E+00 -.424582E-02 -.181168E+00 -.414162E-02 -.179609E+00 -.404272E-02
 -.178081E+00 -.394878E-02 -.176582E+00 -.385951E-02 -.175111E+00 -.377463E-02
 -.173665E+00 -.369389E-02 -.172244E+00 -.361705E-02 -.170847E+00 -.354390E-02
 -.169470E+00 -.347423E-02 -.168114E+00 -.340788E-02 -.166777E+00 -.334467E-02
 -.165457E+00 -.328446E-02 -.164154E+00 -.322709E-02 -.162867E+00 -.317244E-02
 -.161593E+00 -.312039E-02 -.160334E+00 -.307084E-02 -.159086E+00 -.302369E-02
 -.157850E+00 -.297884E-02 -.156624E+00 -.293621E-02 -.155408E+00 -.289574E-02
 -.154200E+00 -.285735E-02 -.153000E+00 -.282099E-02 -.151807E+00 -.278660E-02
 -.150620E+00 -.275416E-02 -.149438E+00 -.272361E-02 -.148261E+00 -.269494E-02
 -.147086E+00 -.266811E-02 -.145915E+00 -.264313E-02 -.144745E+00 -.261998E-02
 -.143575E+00 -.259867E-02 -.142406E+00 -.257920E-02 -.141235E+00 -.256161E-02
 -.140062E+00 -.254593E-02 -.138886E+00 -.253220E-02 -.137707E+00 -.252047E-02
 -.136521E+00 -.251083E-02 -.135329E+00 -.250335E-02 -.134130E+00 -.249815E-02
 -.132921E+00 -.249534E-02 -.131702E+00 -.249509E-02 -.130470E+00 -.249757E-02
 -.129225E+00 -.250299E-02 -.127964E+00 -.251160E-02 -.126685E+00 -.252369E-02
 -.125386E+00 -.253963E-02 -.124064E+00 -.255982E-02 -.122716E+00 -.258475E-02
 -.121340E+00 -.261503E-02 -.119931E+00 -.265135E-02 -.118485E+00 -.269458E-02
 -.116997E+00 -.274576E-02 -.115462E+00 -.280614E-02 -.113873E+00 -.287730E-02
 -.112223E+00 -.296117E-02 -.110501E+00 -.306017E-02 -.108698E+00 -.317736E-02
 -.106799E+00 -.331665E-02 -.104790E+00 -.348310E-02 -.102649E+00 -.368334E-02
 -.100352E+00 -.392619E-02 -.978685E-01 -.422357E-02 -.951577E-01 -.459196E-02
 -.921681E-01 -.505454E-02 -.888306E-01 -.564480E-02 -.850523E-01 -.641253E-02
 -.807055E-01 -.743411E-02 -.756092E-01 -.883154E-02 -.695015E-01 -.108088E-01
 -.619938E-01 -.137260E-01 -.524971E-01 -.182641E-01 -.401293E-01 -.258182E-01
 -.237318E-01 -.395360E-01 -.306690E-02 -.672117E-01  .114346E-01 -.127520E+00
 -.449054E-01 -.226217E+00 -.190434E+00 -.212113E+00 -.228093E+00 -.115203E+00
 -.210872E+00 -.619675E-01 -.190936E+00 -.373325E-01 -.175356E+00 -.248544E-01
 -.163558E+00 -.178477E-01 -.154430E+00 -.135702E-01 -.147155E+00 -.107831E-01
 -.141189E+00 -.887182E-02 -.136172E+00 -.750691E-02 -.131857E+00 -.649948E-02
 -.128078E+00 -.573546E-02 -.124712E+00 -.514281E-02 -.121671E+00 -.467423E-02
 -.118892E+00 -.429767E-02 -.116323E+00 -.399084E-02 -.113928E+00 -.373780E-02
 -.111675E+00 -.352695E-02 -.109541E+00 -.334968E-02 -.107507E+00 -.319949E-02
 -.105558E+00 -.307139E-02 -.103680E+00 -.296151E-02 -.101863E+00 -.286682E-02
 -.100098E+00 -.278489E-02 -.983771E-01 -.271379E-02 -.966945E-01 -.265195E-02
 -.950446E-01 -.259809E-02 -.934224E-01 -.255116E-02 -.918237E-01 -.251028E-02
 -.902451E-01 -.247472E-02 -.886831E-01 -.244388E-02 -.871351E-01 -.241724E-02
 -.855984E-01 -.239437E-02 -.840707E-01 -.237490E-02 -.825500E-01 -.235850E-02
 -.810345E-01 -.234492E-02 -.795223E-01 -.233391E-02 -.780119E-01 -.232528E-02
 -.765020E-01 -.231885E-02 -.749909E-01 -.231449E-02 -.734777E-01 -.231204E-02
 -.719610E-01 -.231142E-02 -.704396E-01 -.231251E-02 -.689127E-01 -.231524E-02
 -.673791E-01 -.231954E-02 -.658379E-01 -.232534E-02 -.642881E-01 -.233259E-02
 -.627288E-01 -.234125E-02 -.611593E-01 -.235128E-02 -.595785E-01 -.236266E-02
 -.579856E-01 -.237535E-02 -.563799E-01 -.238935E-02 -.547604E-01 -.240463E-02
 -.531265E-01 -.242119E-02 -.514772E-01 -.243902E-02 -.498119E-01 -.245812E-02
 -.481295E-01 -.247850E-02 -.464295E-01 -.250016E-02 -.447108E-01 -.252312E-02
 -.429728E-01 -.254739E-02 -.412146E-01 -.257298E-02 -.394352E-01 -.259992E-02
 -.376340E-01 -.262822E-02 -.358099E-01 -.265793E-02 -.339621E-01 -.268906E-02
 -.320896E-01 -.272165E-02 -.301915E-01 -.275574E-02 -.282670E-01 -.279137E-02
 -.263148E-01 -.282858E-02 -.243340E-01 -.286743E-02 -.223237E-01 -.290795E-02
 -.202826E-01 -.295021E-02 -.182096E-01 -.299426E-02 -.161038E-01 -.304017E-02
 -.139636E-01 -.308801E-02 -.117879E-01 -.313784E-02 -.957542E-02 -.318975E-02
 -.732490E-02 -.324381E-02 -.503477E-02 -.330012E-02 -.270364E-02 -.335876E-02
 -.330117E-03 -.341984E-02  .208762E-02 -.348347E-02  .455116E-02 -.354974E-02
  .706208E-02 -.361879E-02  .962241E-02 -.369075E-02  .122340E-01 -.376575E-02
  .148986E-01 -.384393E-02  .176186E-01 -.392545E-02  .203960E-01 -.401048E-02
  .232331E-01 -.409920E-02  .261325E-01 -.419179E-02  .290966E-01 -.428846E-02
  .321278E-01 -.438942E-02  .352294E-01 -.449492E-02  .384040E-01 -.460519E-02
  .416548E-01 -.472051E-02  .449852E-01 -.484116E-02  .483986E-01 -.496745E-02
  .518986E-01 -.509972E-02  .554892E-01 -.523832E-02  .591746E-01 -.538364E-02
  .629591E-01 -.553609E-02  .668472E-01 -.569612E-02  .708441E-01 -.586423E-02
  .749550E-01 -.604094E-02  .791852E-01 -.622680E-02  .835412E-01 -.642245E-02
  .880291E-01 -.662857E-02  .926555E-01 -.684586E-02  .974281E-01 -.707515E-02
  .102355E+00 -.731730E-02  .107443E+00 -.757325E-02  .112703E+00 -.784405E-02
  .118143E+00 -.813085E-02  .123775E+00 -.843489E-02  .129609E+00 -.875756E-02
  .135658E+00 -.910037E-02  .141935E+00 -.946500E-02  .148453E+00 -.985332E-02
  .155229E+00 -.102674E-01  .162279E+00 -.107095E-01  .169621E+00 -.111821E-01
  .177275E+00 -.116882E-01  .185263E+00 -.122309E-01  .193609E+00 -.128138E-01
  .202338E+00 -.134408E-01  .211480E+00 -.141166E-01  .221066E+00 -.148462E-01
  .231132E+00 -.156355E-01  .241716E+00 -.164911E-01  .252860E+00 -.174205E-01
  .264614E+00 -.184324E-01  .277030E+00 -.195368E-01  .290170E+00 -.207452E-01
  .304100E+00 -.220710E-01  .318897E+00 -.235297E-01  .334647E+00 -.251397E-01
  .351450E+00 -.269224E-01  .369418E+00 -.289033E-01  .388678E+00 -.311126E-01
  .409381E+00 -.335866E-01  .431699E+00 -.363692E-01  .455832E+00 -.395132E-01
  .482018E+00 -.430841E-01  .510533E+00 -.471620E-01  .541707E+00 -.518468E-01
  .575938E+00 -.572649E-01  .613703E+00 -.635762E-01  .655581E+00 -.709867E-01
  .702292E+00 -.797664E-01  .754723E+00 -.902712E-01  .813991E+00 -.102980E+00
  .881527E+00 -.118552E+00  .959172E+00 -.137908E+00  .104935E+01 -.162365E+00
  .115529E+01 -.193864E+00  .128142E+01 -.235358E+00  .143387E+01 -.291493E+00
  .162133E+01 -.369905E+00  .185641E+01 -.483819E+00  .215742E+01 -.657528E+00
  .255006E+01 -.938981E+00  .306374E+01 -.143079E+01  .368954E+01 -.236809E+01
  .411773E+01 -.426108E+01  .270250E+01 -.737178E+01 -.193121E+01 -.801790E+01
 -.424916E+01 -.496610E+01 -.404720E+01 -.273942E+01 -.342308E+01 -.162560E+01
 -.288120E+01 -.105144E+01 -.246367E+01 -.728773E+00 -.214425E+01 -.532558E+00
 -.189585E+01 -.405352E+00 -.169862E+01 -.318548E+00 -.153889E+01 -.256828E+00
 -.140721E+01 -.211446E+00 -.129693E+01 -.177132E+00 -.120330E+01 -.150575E+00
 -.112286E+01 -.129610E+00 -.105303E+01 -.112775E+00 -.991827E+00 -.990539E-01
 -.937756E+00 -.877247E-01 -.889635E+00 -.782636E-01 -.846520E+00 -.702809E-01
 -.807663E+00 -.634845E-01 -.772455E+00 -.576508E-01 -.740393E+00 -.526060E-01
 -.711066E+00 -.482141E-01 -.684131E+00 -.443674E-01 -.659296E+00 -.409791E-01
 -.636317E+00 -.379791E-01 -.614987E+00 -.353107E-01 -.595125E+00 -.329264E-01
 -.576578E+00 -.307875E-01 -.559213E+00 -.288616E-01 -.542913E+00 -.271212E-01
 -.527577E+00 -.255434E-01 -.513116E+00 -.241086E-01 -.499450E+00 -.228001E-01
 -.486511E+00 -.216036E-01 -.474237E+00 -.205069E-01 -.462571E+00 -.194990E-01
 -.451464E+00 -.185708E-01 -.440874E+00 -.177143E-01 -.430759E+00 -.169222E-01
 -.421083E+00 -.161885E-01 -.411814E+00 -.155075E-01 -.402924E+00 -.148745E-01
 -.394383E+00 -.142851E-01 -.386168E+00 -.137356E-01 -.378258E+00 -.132225E-01
 -.370631E+00 -.127427E-01 -.363268E+00 -.122936E-01 -.356153E+00 -.118727E-01
 -.349269E+00 -.114777E-01 -.342602E+00 -.111068E-01 -.336138E+00 -.107580E-01
 -.329865E+00 -.104299E-01 -.323770E+00 -.101208E-01 -.317844E+00 -.982950E-02
 -.312077E+00 -.955472E-02 -.306457E+00 -.929536E-02 -.300979E+00 -.905043E-02
 -.295631E+00 -.881897E-02 -.290408E+00 -.860015E-02 -.285303E+00 -.839319E-02
 -.280307E+00 -.819737E-02 -.275415E+00 -.801203E-02 -.270621E+00 -.783659E-02
 -.265919E+00 -.767049E-02 -.261304E+00 -.751320E-02 -.256771E+00 -.736428E-02
 -.252315E+00 -.722328E-02 -.247931E+00 -.708981E-02 -.243616E+00 -.696350E-02
 -.239364E+00 -.684402E-02 -.235173E+00 -.673105E-02 -.231037E+00 -.662431E-02
 -.226955E+00 -.652354E-02 -.222922E+00 -.642849E-02 -.218934E+00 -.633895E-02
 -.214989E+00 -.625472E-02 -.211084E+00 -.617560E-02 -.207215E+00 -.610144E-02
 -.203380E+00 -.603209E-02 -.199576E+00 -.596742E-02 -.195800E+00 -.590731E-02
 -.192049E+00 -.585166E-02 -.188321E+00 -.580038E-02 -.184613E+00 -.575341E-02
 -.180923E+00 -.571068E-02 -.177248E+00 -.567217E-02 -.173586E+00 -.563785E-02
 -.169933E+00 -.560771E-02 -.166289E+00 -.558178E-02 -.162649E+00 -.556008E-02
 -.159012E+00 -.554268E-02 -.155375E+00 -.552966E-02 -.151736E+00 -.552113E-02
 -.148091E+00 -.551724E-02 -.144439E+00 -.551815E-02 -.140776E+00 -.552410E-02
 -.137100E+00 -.553536E-02 -.133407E+00 -.555225E-02 -.129694E+00 -.557520E-02
 -.125958E+00 -.560467E-02 -.122196E+00 -.564128E-02 -.118402E+00 -.568576E-02
 -.114573E+00 -.573900E-02 -.110705E+00 -.580212E-02 -.106791E+00 -.587649E-02
 -.102826E+00 -.596384E-02 -.988040E-01 -.606637E-02 -.947162E-01 -.618688E-02
 -.905539E-01 -.632900E-02 -.863067E-01 -.649750E-02 -.819613E-01 -.669876E-02
 -.775027E-01 -.694142E-02 -.729118E-01 -.723740E-02 -.681642E-01 -.760363E-02
 -.632296E-01 -.806455E-02 -.580686E-01 -.865660E-02 -.526301E-01 -.943574E-02
 -.468466E-01 -.104912E-01 -.406323E-01 -.119710E-01 -.338854E-01 -.141312E-01
 -.265164E-01 -.174371E-01 -.185832E-01 -.227597E-01 -.108089E-01 -.316944E-01
 -.631011E-02 -.464502E-01 -.135258E-01 -.654592E-01 -.365614E-01 -.723191E-01
 -.536552E-01 -.575007E-01 -.541486E-01 -.396710E-01 -.471829E-01 -.279134E-01
 -.386353E-01 -.209979E-01 -.302252E-01 -.168770E-01 -.222729E-01 -.143224E-01
 -.147420E-01 -.126773E-01 -.753099E-02 -.115869E-01 -.542425E-03 -.108515E-01
  .630419E-02 -.103538E-01  .130714E-01 -.100218E-01  .198084E-01 -.980980E-02
  .265556E-01 -.968786E-02  .333450E-01 -.963583E-02  .402042E-01 -.963990E-02
  .471565E-01 -.969043E-02  .542240E-01 -.978070E-02  .614256E-01 -.990596E-02
  .687794E-01 -.100629E-01  .763038E-01 -.102495E-01  .840159E-01 -.104641E-01
  .919328E-01 -.107062E-01  .100073E+00 -.109756E-01  .108454E+00 -.112725E-01
  .117095E+00 -.115975E-01  .126016E+00 -.119517E-01  .135238E+00 -.123364E-01
  .144783E+00 -.127534E-01  .154676E+00 -.132046E-01  .164943E+00 -.136924E-01
  .175610E+00 -.142197E-01  .186709E+00 -.147896E-01  .198273E+00 -.154058E-01
  .210335E+00 -.160724E-01  .222938E+00 -.167944E-01  .236124E+00 -.175770E-01
  .249939E+00 -.184264E-01  .264437E+00 -.193499E-01  .279677E+00 -.203556E-01
  .295722E+00 -.214527E-01  .312644E+00 -.226520E-01  .330526E+00 -.239662E-01
  .349458E+00 -.254095E-01  .369541E+00 -.269987E-01  .390894E+00 -.287539E-01
  .413646E+00 -.306981E-01  .437948E+00 -.328586E-01  .463975E+00 -.352684E-01
  .491924E+00 -.379665E-01  .522024E+00 -.409999E-01  .554546E+00 -.444259E-01
  .589804E+00 -.483143E-01  .628167E+00 -.527511E-01  .670079E+00 -.578437E-01
  .716066E+00 -.637266E-01  .766763E+00 -.705703E-01  .822949E+00 -.785950E-01
  .885577E+00 -.880864E-01  .955830E+00 -.994215E-01  .103521E+01 -.113109E+00
  .112562E+01 -.129840E+00  .122953E+01 -.150584E+00  .135021E+01 -.176723E+00
  .149202E+01 -.210289E+00  .166099E+01 -.254356E+00  .186554E+01 -.313755E+00
  .211793E+01 -.396425E+00  .243636E+01 -.516089E+00  .284878E+01 -.698057E+00
  .339921E+01 -.992888E+00  .415605E+01 -.151188E+01  .520627E+01 -.253025E+01
  .648032E+01 -.480034E+01  .623298E+01 -.994914E+01 -.157117E+01 -.139823E+02
 -.715761E+01 -.826306E+01 -.657354E+01 -.402152E+01 -.532338E+01 -.220246E+01
 -.436130E+01 -.135734E+01 -.366916E+01 -.912168E+00 -.316188E+01 -.652667E+00
 -.277851E+01 -.489257E+00 -.248029E+01 -.380093E+00 -.224240E+01 -.303709E+00
 -.204855E+01 -.248235E+00 -.188771E+01 -.206709E+00 -.175220E+01 -.174832E+00
 -.163651E+01 -.149834E+00 -.153661E+01 -.129874E+00 -.144948E+01 -.113685E+00
 -.137283E+01 -.100374E+00 -.130487E+01 -.892974E-01 -.124419E+01 -.799814E-01
 -.118969E+01 -.720721E-01 -.114045E+01 -.652991E-01 -.109575E+01 -.594547E-01
 -.105498E+01 -.543766E-01 -.101763E+01 -.499359E-01 -.983294E+00 -.460301E-01
 -.951610E+00 -.425767E-01 -.922276E+00 -.395079E-01 -.895036E+00 -.367686E-01
 -.869671E+00 -.343134E-01 -.845987E+00 -.321038E-01 -.823820E+00 -.301081E-01
 -.803025E+00 -.282997E-01 -.783474E+00 -.266555E-01 -.765055E+00 -.251562E-01
 -.747670E+00 -.237853E-01 -.731231E+00 -.225283E-01 -.715660E+00 -.213729E-01
 -.700888E+00 -.203085E-01 -.686851E+00 -.193256E-01 -.673493E+00 -.184161E-01
 -.660766E+00 -.175729E-01 -.648621E+00 -.167895E-01 -.637019E+00 -.160605E-01
 -.625920E+00 -.153808E-01 -.615293E+00 -.147462E-01 -.605105E+00 -.141526E-01
 -.595327E+00 -.135966E-01 -.585934E+00 -.130750E-01 -.576902E+00 -.125851E-01
 -.568209E+00 -.121242E-01 -.559834E+00 -.116903E-01 -.551760E+00 -.112810E-01
 -.543967E+00 -.108947E-01 -.536442E+00 -.105296E-01 -.529169E+00 -.101842E-01
 -.522133E+00 -.985700E-02 -.515324E+00 -.954684E-02 -.508728E+00 -.925247E-02
 -.502335E+00 -.897287E-02 -.496134E+00 -.870706E-02 -.490116E+00 -.845410E-02
 -.484271E+00 -.821320E-02 -.478593E+00 -.798360E-02 -.473071E+00 -.776457E-02
 -.467699E+00 -.755548E-02 -.462471E+00 -.735574E-02 -.457380E+00 -.716477E-02
 -.452418E+00 -.698208E-02 -.447582E+00 -.680719E-02 -.442865E+00 -.663966E-02
 -.438262E+00 -.647906E-02 -.433768E+00 -.632503E-02 -.429379E+00 -.617721E-02
 -.425090E+00 -.603526E-02 -.420897E+00 -.589886E-02 -.416797E+00 -.576775E-02
 -.412785E+00 -.564164E-02 -.408859E+00 -.552027E-02 -.405015E+00 -.540342E-02
 -.401249E+00 -.529085E-02 -.397558E+00 -.518236E-02 -.393941E+00 -.507776E-02
 -.390394E+00 -.497685E-02 -.386914E+00 -.487946E-02 -.383500E+00 -.478545E-02
 -.380148E+00 -.469463E-02 -.376857E+00 -.460688E-02 -.373624E+00 -.452206E-02
 -.370447E+00 -.444003E-02 -.367325E+00 -.436067E-02 -.364255E+00 -.428388E-02
 -.361236E+00 -.420953E-02 -.358265E+00 -.413753E-02 -.355342E+00 -.406778E-02
 -.352465E+00 -.400019E-02 -.349633E+00 -.393466E-02 -.346842E+00 -.387112E-02
 -.344094E+00 -.380949E-02 -.341385E+00 -.374969E-02 -.338715E+00 -.369165E-02
 -.336083E+00 -.363531E-02 -.333487E+00 -.358059E-02 -.330927E+00 -.352743E-02
 -.328400E+00 -.347579E-02 -.325907E+00 -.342560E-02 -.323446E+00 -.337681E-02
 -.321016E+00 -.332937E-02 -.318615E+00 -.328323E-02 -.316244E+00 -.323834E-02
 -.313902E+00 -.319467E-02 -.311587E+00 -.315217E-02 -.309298E+00 -.311080E-02
 -.307036E+00 -.307052E-02 -.304798E+00 -.303130E-02 -.302585E+00 -.299310E-02
 -.300396E+00 -.295588E-02 -.298229E+00 -.291963E-02 -.296085E+00 -.288430E-02
 -.293962E+00 -.284986E-02 -.291860E+00 -.281629E-02 -.289778E+00 -.278357E-02
 -.287717E+00 -.275166E-02 -.285674E+00 -.272054E-02 -.283650E+00 -.269020E-02
 -.281644E+00 -.266059E-02 -.279656E+00 -.263171E-02 -.277684E+00 -.260354E-02
 -.275729E+00 -.257605E-02 -.273790E+00 -.254923E-02 -.271866E+00 -.252305E-02
 -.269958E+00 -.249750E-02 -.268064E+00 -.247257E-02 -.266184E+00 -.244823E-02
 -.264318E+00 -.242448E-02 -.262465E+00 -.240129E-02 -.260624E+00 -.237866E-02
 -.258797E+00 -.235656E-02 -.256981E+00 -.233500E-02 -.255177E+00 -.231395E-02
 -.253384E+00 -.229340E-02 -.251602E+00 -.227335E-02 -.249831E+00 -.225378E-02
 -.248069E+00 -.223468E-02 -.246318E+00 -.221604E-02 -.244575E+00 -.219786E-02
 -.242842E+00 -.218012E-02 -.241117E+00 -.216281E-02 -.239401E+00 -.214594E-02
 -.237693E+00 -.212949E-02 -.235992E+00 -.211346E-02 -.234299E+00 -.209783E-02
 -.232612E+00 -.208261E-02 -.230932E+00 -.206778E-02 -.229259E+00 -.205335E-02
 -.227591E+00 -.203931E-02 -.225929E+00 -.202565E-02 -.224273E+00 -.201237E-02
 -.222621E+00 -.199948E-02 -.220974E+00 -.198696E-02 -.219331E+00 -.197481E-02
 -.217692E+00 -.196304E-02 -.216057E+00 -.195163E-02 -.214424E+00 -.194061E-02
 -.212795E+00 -.192995E-02 -.211168E+00 -.191966E-02 -.209544E+00 -.190976E-02
 -.207921E+00 -.190023E-02 -.206299E+00 -.189108E-02 -.204678E+00 -.188231E-02
 -.203058E+00 -.187394E-02 -.201438E+00 -.186596E-02 -.199818E+00 -.185838E-02
 -.198197E+00 -.185121E-02 -.196575E+00 -.184446E-02 -.194951E+00 -.183814E-02
 -.193325E+00 -.183227E-02 -.191696E+00 -.182684E-02 -.190063E+00 -.182189E-02
 -.188427E+00 -.181742E-02 -.186787E+00 -.181346E-02 -.185141E+00 -.181002E-02
 -.183489E+00 -.180713E-02 -.181831E+00 -.180482E-02 -.180165E+00 -.180312E-02
 -.178491E+00 -.180205E-02 -.176809E+00 -.180165E-02 -.175116E+00 -.180197E-02
 -.173412E+00 -.180306E-02 -.171697E+00 -.180495E-02 -.169968E+00 -.180772E-02
 -.168224E+00 -.181142E-02 -.166465E+00 -.181613E-02 -.164688E+00 -.182194E-02
 -.162892E+00 -.182893E-02 -.161075E+00 -.183721E-02 -.159236E+00 -.184690E-02
 -.157372E+00 -.185815E-02 -.155480E+00 -.187110E-02 -.153558E+00 -.188594E-02
 -.151604E+00 -.190287E-02 -.149613E+00 -.192214E-02 -.147582E+00 -.194402E-02
 -.145507E+00 -.196883E-02 -.143383E+00 -.199696E-02 -.141205E+00 -.202885E-02
 -.138967E+00 -.206503E-02 -.136662E+00 -.210611E-02 -.134282E+00 -.215286E-02
 -.131818E+00 -.220616E-02 -.129259E+00 -.226711E-02 -.126592E+00 -.233704E-02
 -.123803E+00 -.241757E-02 -.120873E+00 -.251076E-02 -.117783E+00 -.261915E-02
 -.114507E+00 -.274598E-02 -.111013E+00 -.289539E-02 -.107263E+00 -.307276E-02
 -.103211E+00 -.328520E-02 -.987965E-01 -.354225E-02 -.939424E-01 -.385689E-02
 -.885495E-01 -.424721E-02 -.824860E-01 -.473901E-02 -.755733E-01 -.537010E-02
 -.675647E-01 -.619756E-02 -.581055E-01 -.731133E-02 -.466744E-01 -.885878E-02
 -.324673E-01 -.110958E-01 -.141811E-01 -.144980E-01  .104366E-01 -.200318E-01
  .456072E-01 -.299060E-01  .100140E+00 -.500930E-01  .194694E+00 -.101292E+00
  .373060E+00 -.289334E+00  .126286E+00 -.111339E+01 -.695978E+00 -.441541E+00
 -.497802E+00 -.133292E+00 -.383409E+00 -.608220E-01 -.319865E+00 -.347039E-01
 -.280106E+00 -.225865E-01 -.252882E+00 -.160224E-01 -.232983E+00 -.120783E-01
 -.217712E+00 -.952660E-02 -.205545E+00 -.778195E-02 -.195554E+00 -.653645E-02
 -.187149E+00 -.561633E-02 -.179933E+00 -.491723E-02 -.173633E+00 -.437349E-02
 -.168052E+00 -.394214E-02 -.163045E+00 -.359413E-02 -.158505E+00 -.330913E-02
 -.154348E+00 -.307276E-02 -.150511E+00 -.287446E-02 -.146942E+00 -.270643E-02
 -.143602E+00 -.256275E-02 -.140457E+00 -.243890E-02 -.137479E+00 -.233133E-02
 -.134648E+00 -.223728E-02 -.131944E+00 -.215456E-02 -.129353E+00 -.208138E-02
 -.126860E+00 -.201632E-02 -.124454E+00 -.195821E-02 -.122127E+00 -.190606E-02
 -.119869E+00 -.185908E-02 -.117673E+00 -.181660E-02 -.115534E+00 -.177805E-02
 -.113445E+00 -.174295E-02 -.111403E+00 -.171090E-02 -.109402E+00 -.168156E-02
 -.107438E+00 -.165461E-02 -.105509E+00 -.162980E-02 -.103612E+00 -.160691E-02
 -.101743E+00 -.158575E-02 -.999007E-01 -.156615E-02 -.980826E-01 -.154795E-02
 -.962865E-01 -.153103E-02 -.945107E-01 -.151527E-02 -.927537E-01 -.150057E-02
