 -.469687E-11 -.394210E+01 -.394230E-01  .271975E-06 -.394287E-01  .109611E-05
 -.394383E-01  .248907E-05 -.394520E-01  .448372E-05 -.394700E-01  .712691E-05
 -.394927E-01  .104816E-04 -.395203E-01  .146290E-04 -.395535E-01  .196718E-04
 -.395926E-01  .257380E-04 -.396386E-01  .329862E-04 -.396921E-01  .416122E-04
 -.397542E-01  .518578E-04 -.398261E-01  .640225E-04 -.399093E-01  .784783E-04
 -.400053E-01  .956902E-04 -.401163E-01  .116243E-03 -.402447E-01  .140879E-03
 -.403936E-01  .170549E-03 -.405666E-01  .206480E-03 -.407682E-01  .250281E-03
 -.410041E-01  .304085E-03 -.412812E-01  .370766E-03 -.416087E-01  .454258E-03
 -.419980E-01  .560050E-03 -.424642E-01  .695976E-03 -.430274E-01  .873488E-03
 -.437144E-01  .110981E-02 -.445623E-01  .143175E-02 -.456230E-01  .188258E-02
 -.469701E-01  .253555E-02 -.487090E-01  .352128E-02 -.509873E-01  .508787E-02
 -.539852E-01  .774051E-02 -.577758E-01  .125774E-01 -.614745E-01  .219868E-01
 -.593964E-01  .393021E-01 -.377438E-01  .554504E-01 -.115158E-01  .450945E-01
 -.527980E-02  .269839E-01 -.757034E-02  .160929E-01 -.108789E-01  .102941E-01
 -.136567E-01  .703735E-02 -.157909E-01  .506632E-02 -.174048E-01  .379079E-02
 -.186259E-01  .291791E-02 -.195516E-01  .229218E-02 -.202521E-01  .182574E-02
 -.207770E-01  .146614E-02 -.211624E-01  .118058E-02 -.214342E-01  .947734E-03
 -.216117E-01  .753207E-03 -.217094E-01  .587001E-03 -.217381E-01  .441966E-03
 -.217059E-01  .312857E-03 -.216192E-01  .195729E-03 -.214827E-01  .875433E-04
 -.212999E-01 -.140985E-04 -.210736E-01 -.111140E-03 -.208056E-01 -.205194E-03
 -.204970E-01 -.297643E-03 -.201486E-01 -.389706E-03 -.197605E-01 -.482488E-03
 -.193324E-01 -.577032E-03 -.188637E-01 -.674342E-03 -.183532E-01 -.775428E-03
 -.177996E-01 -.881318E-03 -.172009E-01 -.993100E-03 -.165547E-01 -.111194E-02
 -.158585E-01 -.123912E-02 -.151088E-01 -.137605E-02 -.143021E-01 -.152435E-02
 -.134338E-01 -.168585E-02 -.124989E-01 -.186265E-02 -.114917E-01 -.205721E-02
 -.104054E-01 -.227244E-02 -.923215E-02 -.251174E-02 -.796304E-02 -.277922E-02
 -.658761E-02 -.307978E-02 -.509365E-02 -.341939E-02 -.346695E-02 -.380536E-02
 -.169071E-02 -.424670E-02  .254838E-03 -.475465E-02  .239322E-02 -.534332E-02
  .475259E-02 -.603072E-02  .736672E-02 -.683995E-02  .102766E-01 -.780116E-02
  .135321E-01 -.895414E-02  .171944E-01 -.103523E-01  .213390E-01 -.120684E-01
  .260593E-01 -.142034E-01  .314712E-01 -.169006E-01  .377177E-01 -.203670E-01
  .449721E-01 -.249103E-01  .534345E-01 -.309979E-01  .633095E-01 -.393603E-01
  .747253E-01 -.511653E-01  .874969E-01 -.683066E-01  .100464E+00 -.938075E-01
  .109775E+00 -.132012E+00  .105247E+00 -.186690E+00  .675121E-01 -.251401E+00
 -.155473E-01 -.292943E+00 -.109915E+00 -.274704E+00 -.166485E+00 -.215761E+00
 -.182990E+00 -.156862E+00 -.179188E+00 -.113125E+00 -.168454E+00 -.832760E-01
 -.156501E+00 -.630511E-01 -.145311E+00 -.490788E-01 -.135415E+00 -.391632E-01
 -.126828E+00 -.319318E-01 -.119406E+00 -.265230E-01 -.112975E+00 -.223847E-01
 -.107372E+00 -.191545E-01 -.102459E+00 -.165883E-01 -.981187E-01 -.145178E-01
 -.942586E-01 -.128241E-01 -.908019E-01 -.114217E-01 -.876864E-01 -.102480E-01
 -.848610E-01 -.925610E-02 -.822837E-01 -.841064E-02 -.799196E-01 -.768439E-02
 -.777398E-01 -.705619E-02 -.757198E-01 -.650935E-02 -.738391E-01 -.603066E-02
 -.720800E-01 -.560945E-02 -.704276E-01 -.523712E-02 -.688689E-01 -.490663E-02
 -.673927E-01 -.461218E-02 -.659893E-01 -.434896E-02 -.646501E-01 -.411297E-02
 -.633675E-01 -.390086E-02 -.621347E-01 -.370977E-02 -.609459E-01 -.353732E-02
 -.597956E-01 -.338144E-02 -.586791E-01 -.324040E-02 -.575918E-01 -.311269E-02
 -.565298E-01 -.299703E-02 -.554894E-01 -.289228E-02 -.544672E-01 -.279751E-02
 -.534600E-01 -.271187E-02 -.524647E-01 -.263464E-02 -.514786E-01 -.256519E-02
 -.504990E-01 -.250300E-02 -.495233E-01 -.244759E-02 -.485491E-01 -.239858E-02
 -.475738E-01 -.235562E-02 -.465951E-01 -.231842E-02 -.456107E-01 -.228676E-02
 -.446182E-01 -.226045E-02 -.436153E-01 -.223933E-02 -.425997E-01 -.222331E-02
 -.415688E-01 -.221230E-02 -.405203E-01 -.220629E-02 -.394516E-01 -.220527E-02
 -.383600E-01 -.220929E-02 -.372428E-01 -.221843E-02 -.360971E-01 -.223281E-02
 -.349198E-01 -.225259E-02 -.337077E-01 -.227798E-02 -.324573E-01 -.230923E-02
 -.311649E-01 -.234665E-02 -.298266E-01 -.239059E-02 -.284379E-01 -.244148E-02
 -.269943E-01 -.249982E-02 -.254906E-01 -.256619E-02 -.239213E-01 -.264127E-02
 -.222803E-01 -.272582E-02 -.205608E-01 -.282075E-02 -.187555E-01 -.292710E-02
 -.168559E-01 -.304608E-02 -.148530E-01 -.317910E-02 -.127365E-01 -.332781E-02
 -.104948E-01 -.349412E-02 -.811483E-02 -.368029E-02 -.558186E-02 -.388897E-02
 -.287917E-02 -.412331E-02  .125224E-04 -.438705E-02  .311520E-02 -.468467E-02
  .645429E-02 -.502156E-02  .100594E-01 -.540425E-02  .139650E-01 -.584072E-02
  .182116E-01 -.634077E-02  .228471E-01 -.691658E-02  .279290E-01 -.758339E-02
  .335259E-01 -.836049E-02  .397212E-01 -.927257E-02  .466170E-01 -.103517E-01
  .543396E-01 -.116398E-01  .630470E-01 -.131930E-01  .729393E-01 -.150876E-01
  .842743E-01 -.174290E-01  .973881E-01 -.203664E-01  .112728E+00 -.241165E-01
  .130899E+00 -.290030E-01  .152743E+00 -.355266E-01  .179452E+00 -.444926E-01
  .212766E+00 -.572601E-01  .255290E+00 -.762590E-01  .310991E+00 -.106146E+00
  .385832E+00 -.156639E+00  .487427E+00 -.250132E+00  .614816E+00 -.443199E+00
  .676614E+00 -.867699E+00  .187635E+00 -.147368E+01 -.689089E+00 -.121057E+01
 -.825411E+00 -.630609E+00 -.709219E+00 -.339204E+00 -.594352E+00 -.203955E+00
 -.507764E+00 -.134403E+00 -.443755E+00 -.947915E-01 -.395481E+00 -.703231E-01
 -.358122E+00 -.542257E-01 -.328502E+00 -.430977E-01 -.304514E+00 -.350940E-01
 -.284731E+00 -.291492E-01 -.268160E+00 -.246138E-01 -.254094E+00 -.210753E-01
 -.242014E+00 -.182612E-01 -.231536E+00 -.159860E-01 -.222367E+00 -.141200E-01
 -.214281E+00 -.125702E-01 -.207101E+00 -.112686E-01 -.200686E+00 -.101647E-01
 -.194924E+00 -.921986E-02 -.189722E+00 -.840479E-02 -.185006E+00 -.769652E-02
 -.180712E+00 -.707695E-02 -.176789E+00 -.653166E-02 -.173192E+00 -.604909E-02
 -.169885E+00 -.561979E-02 -.166836E+00 -.523609E-02 -.164018E+00 -.489161E-02
 -.161407E+00 -.458106E-02 -.158983E+00 -.430004E-02 -.156728E+00 -.404480E-02
 -.154626E+00 -.381219E-02 -.152665E+00 -.359954E-02 -.150832E+00 -.340453E-02
 -.149116E+00 -.322520E-02 -.147508E+00 -.305984E-02 -.146000E+00 -.290696E-02
 -.144584E+00 -.276528E-02 -.143253E+00 -.263366E-02 -.142001E+00 -.251111E-02
 -.140823E+00 -.239677E-02 -.139714E+00 -.228986E-02 -.138669E+00 -.218969E-02
 -.137684E+00 -.209566E-02 -.136756E+00 -.200723E-02 -.135881E+00 -.192390E-02
 -.135057E+00 -.184525E-02 -.134280E+00 -.177088E-02 -.133548E+00 -.170044E-02
 -.132858E+00 -.163361E-02 -.132209E+00 -.157010E-02 -.131599E+00 -.150965E-02
 -.131025E+00 -.145202E-02 -.130486E+00 -.139699E-02 -.129980E+00 -.134435E-02
 -.129507E+00 -.129393E-02 -.129065E+00 -.124555E-02 -.128653E+00 -.119907E-02
 -.128269E+00 -.115432E-02 -.127913E+00 -.111119E-02 -.127583E+00 -.106954E-02
 -.127280E+00 -.102926E-02 -.127002E+00 -.990246E-03 -.126748E+00 -.952385E-03
 -.126519E+00 -.915585E-03 -.126312E+00 -.879755E-03 -.126129E+00 -.844807E-03
 -.125969E+00 -.810659E-03 -.125830E+00 -.777231E-03 -.125713E+00 -.744448E-03
 -.125618E+00 -.712233E-03 -.125545E+00 -.680517E-03 -.125492E+00 -.649229E-03
 -.125461E+00 -.618297E-03 -.125450E+00 -.587656E-03 -.125461E+00 -.557235E-03
 -.125493E+00 -.526967E-03 -.125546E+00 -.496782E-03 -.125620E+00 -.466609E-03
 -.125715E+00 -.436379E-03 -.125833E+00 -.406016E-03 -.125972E+00 -.375443E-03
 -.126134E+00 -.344583E-03 -.126318E+00 -.313351E-03 -.126526E+00 -.281658E-03
 -.126758E+00 -.249414E-03 -.127015E+00 -.216518E-03 -.127296E+00 -.182862E-03
 -.127604E+00 -.148334E-03 -.127939E+00 -.112807E-03 -.128302E+00 -.761487E-04
 -.128694E+00 -.382103E-04 -.129116E+00  .117176E-05 -.129571E+00  .421737E-04
 -.130059E+00  .849946E-04 -.130581E+00  .129855E-03 -.131142E+00  .177000E-03
 -.131741E+00  .226703E-03 -.132382E+00  .279277E-03 -.133067E+00  .335068E-03
 -.133800E+00  .394475E-03 -.134583E+00  .457948E-03 -.135420E+00  .526006E-03
 -.136316E+00  .599242E-03 -.137276E+00  .678340E-03 -.138303E+00  .764096E-03
 -.139406E+00  .857438E-03 -.140590E+00  .959447E-03 -.141863E+00  .107140E-02
 -.143235E+00  .119482E-02 -.144715E+00  .133150E-02 -.146316E+00  .148361E-02
 -.148052E+00  .165376E-02 -.149939E+00  .184514E-02 -.151996E+00  .206165E-02
 -.154245E+00  .230813E-02 -.156715E+00  .259061E-02 -.159438E+00  .291673E-02
 -.162452E+00  .329622E-02 -.165808E+00  .374168E-02 -.169564E+00  .426965E-02
 -.173796E+00  .490210E-02 -.178599E+00  .566883E-02 -.184097E+00  .661104E-02
 -.190449E+00  .778679E-02 -.197870E+00  .928028E-02 -.206651E+00  .112170E-01
 -.217199E+00  .137906E-01 -.230097E+00  .173122E-01 -.246206E+00  .223059E-01
 -.266847E+00  .297097E-01 -.294121E+00  .413286E-01 -.331475E+00  .609706E-01
 -.384537E+00  .976707E-01 -.460372E+00  .176115E+00 -.543201E+00  .370928E+00
 -.381934E+00  .786334E+00  .233331E+00  .719938E+00  .318490E+00  .329553E+00
  .232743E+00  .161364E+00  .161248E+00  .920109E-01  .111337E+00  .586839E-01
  .759555E-01  .404735E-01  .499270E-01  .295305E-01  .300893E-01  .224708E-01
  .145064E-01  .176621E-01  .195379E-02  .142441E-01 -.837387E-02  .117300E-01
 -.170242E-01  .982791E-02 -.243805E-01  .835499E-02 -.307196E-01  .719163E-02
 -.362455E-01  .625710E-02 -.411113E-01  .549543E-02 -.454349E-01  .486669E-02
 -.493079E-01  .434189E-02 -.528027E-01  .389952E-02 -.559773E-01  .352335E-02
 -.588786E-01  .320098E-02 -.615451E-01  .292279E-02 -.640086E-01  .268119E-02
 -.662954E-01  .247019E-02 -.684278E-01  .228498E-02 -.704246E-01  .212164E-02
 -.723019E-01  .197699E-02 -.740734E-01  .184841E-02 -.757510E-01  .173372E-02
 -.773449E-01  .163111E-02 -.788642E-01  .153905E-02 -.803167E-01  .145625E-02
 -.817094E-01  .138162E-02 -.830485E-01  .131422E-02 -.843392E-01  .125326E-02
 -.855865E-01  .119804E-02 -.867949E-01  .114797E-02 -.879680E-01  .110253E-02
 -.891096E-01  .106126E-02 -.902228E-01  .102377E-02 -.913106E-01  .989721E-03
 -.923755E-01  .958800E-03 -.934199E-01  .930743E-03 -.944463E-01  .905311E-03
 -.954565E-01  .882294E-03 -.964525E-01  .861505E-03 -.974360E-01  .842779E-03
 -.984088E-01  .825966E-03 -.993722E-01  .810937E-03 -.100328E+00  .797573E-03
 -.101277E+00  .785769E-03 -.102221E+00  .775430E-03 -.103161E+00  .766474E-03
 -.104098E+00  .758825E-03 -.105033E+00  .752416E-03 -.105968E+00  .747187E-03
 -.106903E+00  .743085E-03 -.107839E+00  .740063E-03 -.108778E+00  .738079E-03
 -.109719E+00  .737097E-03 -.110665E+00  .737084E-03 -.111616E+00  .738013E-03
 -.112572E+00  .739858E-03 -.113535E+00  .742601E-03 -.114506E+00  .746223E-03
 -.115484E+00  .750711E-03 -.116472E+00  .756056E-03 -.117470E+00  .762249E-03
 -.118479E+00  .769285E-03 -.119499E+00  .777163E-03 -.120531E+00  .785882E-03
 -.121577E+00  .795447E-03 -.122637E+00  .805863E-03 -.123712E+00  .817137E-03
 -.124803E+00  .829282E-03 -.125911E+00  .842310E-03 -.127037E+00  .856238E-03
 -.128181E+00  .871083E-03 -.129344E+00  .886867E-03 -.130529E+00  .903615E-03
 -.131735E+00  .921351E-03 -.132964E+00  .940109E-03 -.134217E+00  .959918E-03
 -.135494E+00  .980816E-03 -.136799E+00  .100284E-02 -.138130E+00  .102604E-02
 -.139490E+00  .105045E-02 -.140881E+00  .107614E-02 -.142302E+00  .110315E-02
 -.143757E+00  .113154E-02 -.145247E+00  .116138E-02 -.146772E+00  .119274E-02
 -.148336E+00  .122569E-02 -.149939E+00  .126032E-02 -.151584E+00  .129672E-02
 -.153272E+00  .133498E-02 -.155007E+00  .137520E-02 -.156789E+00  .141750E-02
 -.158621E+00  .146200E-02 -.160506E+00  .150882E-02 -.162447E+00  .155812E-02
 -.164446E+00  .161005E-02 -.166506E+00  .166477E-02 -.168630E+00  .172248E-02
 -.170823E+00  .178336E-02 -.173087E+00  .184764E-02 -.175426E+00  .191555E-02
 -.177845E+00  .198735E-02 -.180348E+00  .206333E-02 -.182939E+00  .214380E-02
 -.185625E+00  .222909E-02 -.188410E+00  .231959E-02 -.191300E+00  .241570E-02
 -.194302E+00  .251788E-02 -.197423E+00  .262663E-02 -.200671E+00  .274251E-02
 -.204052E+00  .286613E-02 -.207577E+00  .299818E-02 -.211256E+00  .313944E-02
 -.215098E+00  .329074E-02 -.219115E+00  .345304E-02 -.223319E+00  .362743E-02
 -.227726E+00  .381510E-02 -.232350E+00  .401741E-02 -.237207E+00  .423590E-02
 -.242316E+00  .447234E-02 -.247699E+00  .472871E-02 -.253378E+00  .500726E-02
 -.259379E+00  .531064E-02 -.265729E+00  .564185E-02 -.272462E+00  .600433E-02
 -.279614E+00  .640215E-02 -.287225E+00  .684001E-02 -.295342E+00  .732340E-02
 -.304018E+00  .785884E-02 -.313312E+00  .845403E-02 -.323295E+00  .911808E-02
 -.334046E+00  .986205E-02 -.345659E+00  .106992E-01 -.358242E+00  .116456E-01
 -.371923E+00  .127210E-01 -.386854E+00  .139500E-01 -.403214E+00  .153630E-01
 -.421222E+00  .169985E-01 -.441138E+00  .189055E-01 -.463284E+00  .211472E-01
 -.488060E+00  .238067E-01 -.515963E+00  .269939E-01 -.547624E+00  .308573E-01
 -.583857E+00  .356021E-01 -.625730E+00  .415166E-01 -.674661E+00  .490173E-01
 -.732590E+00  .587226E-01 -.802234E+00  .715848E-01 -.887502E+00  .891268E-01
 -.994225E+00  .113906E+00 -.113149E+01  .150488E+00 -.131415E+01  .207643E+00
 -.156788E+01  .303932E+00 -.194010E+01  .484042E+00 -.252073E+01  .876067E+00
 -.342919E+01  .194142E+01 -.364895E+01  .540537E+01  .265127E+01  .668851E+01
  .355888E+01  .245789E+01  .259566E+01  .104679E+01  .194713E+01  .557691E+00
  .153615E+01  .342650E+00  .125990E+01  .230968E+00  .106335E+01  .165981E+00
  .916999E+00  .124968E+00  .804021E+00  .974682E-01  .714282E+00  .781498E-01
  .641334E+00  .640673E-01  .580886E+00  .534874E-01  .529993E+00  .453389E-01
  .486560E+00  .389303E-01  .449062E+00  .337995E-01  .416357E+00  .296277E-01
  .387582E+00  .261900E-01  .362066E+00  .233237E-01  .339283E+00  .209085E-01
  .318813E+00  .188546E-01  .300321E+00  .170934E-01  .283528E+00  .155714E-01
  .268210E+00  .142474E-01  .254178E+00  .130885E-01  .241274E+00  .120681E-01
  .229365E+00  .111650E-01  .218339E+00  .103621E-01  .208099E+00  .964483E-02
  .198561E+00  .900155E-02  .189655E+00  .842244E-02  .181318E+00  .789919E-02
  .173494E+00  .742487E-02  .166137E+00  .699359E-02  .159205E+00  .660027E-02
  .152659E+00  .624061E-02  .146468E+00  .591090E-02  .140601E+00  .560789E-02
  .135032E+00  .532881E-02  .129738E+00  .507121E-02  .124698E+00  .483297E-02
  .119892E+00  .461219E-02  .115303E+00  .440724E-02  .110915E+00  .421666E-02
  .106715E+00  .403914E-02  .102689E+00  .387355E-02  .988250E-01  .371885E-02
  .951128E-01  .357413E-02  .915423E-01  .343856E-02  .881045E-01  .331142E-02
  .847908E-01  .319203E-02  .815934E-01  .307980E-02  .785055E-01  .297419E-02
  .755203E-01  .287470E-02  .726315E-01  .278089E-02  .698339E-01  .269237E-02
  .671217E-01  .260875E-02  .644903E-01  .252971E-02  .619351E-01  .245494E-02
  .594517E-01  .238416E-02  .570361E-01  .231711E-02  .546847E-01  .225356E-02
  .523938E-01  .219328E-02  .501602E-01  .213609E-02  .479808E-01  .208179E-02
  .458528E-01  .203022E-02  .437731E-01  .198123E-02  .417394E-01  .193466E-02
  .397492E-01  .189039E-02  .378000E-01  .184829E-02  .358897E-01  .180825E-02
  .340162E-01  .177016E-02  .321775E-01  .173392E-02  .303717E-01  .169945E-02
  .285971E-01  .166665E-02  .268517E-01  .163545E-02  .251341E-01  .160578E-02
  .234427E-01  .157757E-02  .217759E-01  .155075E-02  .201322E-01  .152527E-02
  .185104E-01  .150107E-02  .169089E-01  .147810E-02  .153266E-01  .145631E-02
  .137622E-01  .143566E-02  .122145E-01  .141611E-02  .106822E-01  .139762E-02
  .916436E-02  .138016E-02  .765972E-02  .136369E-02  .616727E-02  .134818E-02
  .468594E-02  .133360E-02  .321481E-02  .131994E-02  .175271E-02  .130716E-02
  .298702E-03  .129524E-02 -.114805E-02  .128417E-02 -.258868E-02  .127393E-02
 -.402404E-02  .126449E-02 -.545499E-02  .125586E-02 -.688260E-02  .124800E-02
 -.830770E-02  .124092E-02 -.973111E-02  .123461E-02 -.111539E-01  .122905E-02
 -.125769E-01  .122424E-02 -.140008E-01  .122017E-02 -.154269E-01  .121685E-02
 -.168558E-01  .121426E-02 -.182884E-01  .121241E-02 -.197258E-01  .121130E-02
 -.211689E-01  .121093E-02 -.226184E-01  .121131E-02 -.240755E-01  .121243E-02
 -.255411E-01  .121431E-02 -.270160E-01  .121696E-02 -.285015E-01  .122039E-02
 -.299983E-01  .122460E-02 -.315076E-01  .122961E-02 -.330305E-01  .123544E-02
 -.345680E-01  .124210E-02 -.361213E-01  .124961E-02 -.376914E-01  .125799E-02
 -.392797E-01  .126727E-02 -.408872E-01  .127747E-02 -.425153E-01  .128862E-02
 -.441654E-01  .130075E-02 -.458387E-01  .131388E-02 -.475366E-01  .132807E-02
 -.492607E-01  .134334E-02 -.510125E-01  .135974E-02 -.527935E-01  .137731E-02
 -.546055E-01  .139610E-02 -.564502E-01  .141618E-02 -.583294E-01  .143758E-02
 -.602451E-01  .146038E-02 -.621992E-01  .148464E-02 -.641939E-01  .151043E-02
 -.662314E-01  .153784E-02 -.683141E-01  .156695E-02 -.704443E-01  .159784E-02
 -.726248E-01  .163063E-02 -.748584E-01  .166542E-02 -.771478E-01  .170232E-02
 -.794965E-01  .174146E-02 -.819075E-01  .178298E-02 -.843843E-01  .182704E-02
 -.869307E-01  .187379E-02 -.895509E-01  .192341E-02 -.922490E-01  .197610E-02
 -.950293E-01  .203206E-02 -.978971E-01  .209154E-02 -.100858E+00  .215478E-02
 -.103916E+00  .222207E-02 -.107079E+00  .229371E-02 -.110352E+00  .237005E-02
 -.113743E+00  .245144E-02 -.117260E+00  .253831E-02 -.120910E+00  .263111E-02
 -.124702E+00  .273034E-02 -.128646E+00  .283657E-02 -.132753E+00  .295042E-02
 -.137034E+00  .307258E-02 -.141502E+00  .320385E-02 -.146170E+00  .334509E-02
 -.151052E+00  .349728E-02 -.156167E+00  .366154E-02 -.161532E+00  .383912E-02
 -.167167E+00  .403143E-02 -.173094E+00  .424011E-02 -.179339E+00  .446700E-02
 -.185928E+00  .471422E-02 -.192893E+00  .498420E-02 -.200268E+00  .527976E-02
 -.208092E+00  .560416E-02 -.216409E+00  .596119E-02 -.225270E+00  .635533E-02
 -.234730E+00  .679179E-02 -.244853E+00  .727674E-02 -.255716E+00  .781759E-02
 -.267403E+00  .842314E-02 -.280013E+00  .910399E-02 -.293665E+00  .987308E-02
 -.308492E+00  .107462E-01 -.324657E+00  .117427E-01 -.342352E+00  .128870E-01
 -.361807E+00  .142095E-01 -.383300E+00  .157489E-01 -.407174E+00  .175553E-01
 -.433848E+00  .196937E-01 -.463848E+00  .222502E-01 -.497842E+00  .253411E-01
 -.536686E+00  .291255E-01 -.581496E+00  .338263E-01 -.633768E+00  .397645E-01
 -.695528E+00  .474135E-01 -.769610E+00  .574965E-01 -.860088E+00  .711614E-01
 -.973055E+00  .903223E-01 -.111798E+01  .118355E+00 -.131043E+01  .161672E+00
 -.157779E+01  .233671E+00 -.197232E+01  .366169E+00 -.260477E+01  .649774E+00
 -.372922E+01  .142361E+01 -.553701E+01  .454113E+01  .210431E+01  .109885E+02
  .514602E+01  .319115E+01  .343612E+01  .112900E+01  .248220E+01  .553595E+00
  .193040E+01  .325356E+00  .157754E+01  .213432E+00  .133407E+01  .150612E+00
  .115644E+01  .111927E+00  .102133E+01  .864489E-01  .915192E+00  .687924E-01
  .829642E+00  .560561E-01  .759244E+00  .465695E-01  .700314E+00  .393145E-01
  .650263E+00  .336418E-01  .607230E+00  .291227E-01  .569838E+00  .254640E-01
  .537048E+00  .224604E-01  .508058E+00  .199640E-01  .482246E+00  .178667E-01
  .459117E+00  .160876E-01  .438271E+00  .145652E-01  .419388E+00  .132524E-01
  .402203E+00  .121124E-01  .386496E+00  .111160E-01  .372085E+00  .102400E-01
  .358815E+00  .946580E-02  .346556E+00  .877805E-02  .335197E+00  .816437E-02
  .324642E+00  .761448E-02  .314808E+00  .711975E-02  .305624E+00  .667305E-02
  .297028E+00  .626835E-02  .288964E+00  .590050E-02  .281385E+00  .556515E-02
  .274249E+00  .525859E-02  .267517E+00  .497757E-02  .261156E+00  .471934E-02
  .255137E+00  .448149E-02  .249432E+00  .426191E-02  .244017E+00  .405878E-02
  .238871E+00  .387049E-02  .233975E+00  .369562E-02  .229310E+00  .353292E-02
  .224860E+00  .338129E-02  .220612E+00  .323974E-02  .216551E+00  .310739E-02
  .212665E+00  .298346E-02  .208944E+00  .286726E-02  .205377E+00  .275814E-02
  .201954E+00  .265555E-02  .198668E+00  .255898E-02  .195509E+00  .246796E-02
  .192471E+00  .238208E-02  .189548E+00  .230095E-02  .186731E+00  .222424E-02
  .184016E+00  .215163E-02  .181398E+00  .208284E-02  .178871E+00  .201760E-02
  .176430E+00  .195567E-02  .174072E+00  .189685E-02  .171792E+00  .184092E-02
  .169585E+00  .178770E-02  .167450E+00  .173702E-02  .165381E+00  .168873E-02
  .163377E+00  .164268E-02  .161434E+00  .159874E-02  .159549E+00  .155678E-02
  .157719E+00  .151670E-02  .155943E+00  .147837E-02  .154218E+00  .144172E-02
  .152541E+00  .140664E-02  .150911E+00  .137305E-02  .149326E+00  .134087E-02
  .147783E+00  .131002E-02  .146281E+00  .128045E-02  .144819E+00  .125208E-02
  .143394E+00  .122485E-02  .142006E+00  .119871E-02  .140652E+00  .117361E-02
  .139332E+00  .114950E-02  .138044E+00  .112633E-02  .136787E+00  .110405E-02
  .135559E+00  .108264E-02  .134360E+00  .106204E-02  .133189E+00  .104223E-02
  .132044E+00  .102317E-02  .130924E+00  .100483E-02  .129829E+00  .987175E-03
  .128758E+00  .970186E-03  .127710E+00  .953833E-03  .126683E+00  .938092E-03
  .125678E+00  .922938E-03  .124693E+00  .908351E-03  .123728E+00  .894310E-03
  .122782E+00  .880795E-03  .121854E+00  .867788E-03  .120944E+00  .855272E-03
  .120051E+00  .843232E-03  .119174E+00  .831650E-03  .118314E+00  .820514E-03
  .117468E+00  .809810E-03  .116637E+00  .799524E-03  .115821E+00  .789645E-03
  .115018E+00  .780162E-03  .114229E+00  .771066E-03  .113452E+00  .762344E-03
  .112687E+00  .753988E-03  .111934E+00  .745990E-03  .111193E+00  .738342E-03
  .110462E+00  .731036E-03  .109742E+00  .724066E-03  .109032E+00  .717425E-03
  .108332E+00  .711106E-03  .107641E+00  .705105E-03  .106959E+00  .699417E-03
  .106285E+00  .694037E-03  .105620E+00  .688962E-03  .104962E+00  .684188E-03
  .104312E+00  .679711E-03  .103669E+00  .675529E-03  .103033E+00  .671639E-03
  .102403E+00  .668041E-03  .101780E+00  .664732E-03  .101162E+00  .661711E-03
  .100549E+00  .658979E-03  .999415E-01  .656534E-03  .993388E-01  .654376E-03
  .987405E-01  .652508E-03  .981463E-01  .650929E-03  .975560E-01  .649642E-03
  .969691E-01  .648648E-03  .963853E-01  .647949E-03  .958044E-01  .647549E-03
  .952259E-01  .647452E-03  .946497E-01  .647660E-03  .940752E-01  .648178E-03
  .935024E-01  .649012E-03  .929307E-01  .650166E-03  .923598E-01  .651647E-03
  .917894E-01  .653462E-03  .912192E-01  .655617E-03  .906488E-01  .658121E-03
  .900778E-01  .660982E-03  .895059E-01  .664209E-03  .889327E-01  .667813E-03
  .883578E-01  .671805E-03  .877808E-01  .676196E-03  .872013E-01  .680999E-03
  .866191E-01  .686226E-03  .860334E-01  .691895E-03  .854440E-01  .698019E-03
  .848503E-01  .704615E-03  .842521E-01  .711703E-03  .836486E-01  .719301E-03
  .830396E-01  .727428E-03  .824243E-01  .736110E-03  .818023E-01  .745369E-03
  .811730E-01  .755231E-03  .805359E-01  .765723E-03  .798903E-01  .776876E-03
  .792356E-01  .788721E-03  .785712E-01  .801291E-03  .778963E-01  .814625E-03
  .772102E-01  .828762E-03  .765121E-01  .843744E-03  .758012E-01  .859617E-03
  .750767E-01  .876432E-03  .743378E-01  .894238E-03  .735834E-01  .913098E-03
  .728125E-01  .933072E-03  .720241E-01  .954228E-03  .712170E-01  .976639E-03
  .703901E-01  .100038E-02  .695423E-01  .102555E-02  .686719E-01  .105222E-02
  .677778E-01  .108052E-02  .668582E-01  .111054E-02  .659117E-01  .114240E-02
  .649364E-01  .117625E-02  .639306E-01  .121221E-02  .628922E-01  .125046E-02
  .618190E-01  .129117E-02  .607088E-01  .133453E-02  .595591E-01  .138074E-02
  .583671E-01  .143004E-02  .571300E-01  .148269E-02  .558448E-01  .153897E-02
  .545078E-01  .159919E-02  .531154E-01  .166372E-02  .516636E-01  .173294E-02
  .501480E-01  .180729E-02  .485637E-01  .188725E-02  .469056E-01  .197338E-02
  .451676E-01  .206631E-02  .433435E-01  .216673E-02  .414261E-01  .227543E-02
  .394078E-01  .239332E-02  .372798E-01  .252144E-02  .350328E-01  .266093E-02
  .326554E-01  .281319E-02  .301359E-01  .297975E-02  .274608E-01  .316244E-02
  .246148E-01  .336334E-02  .215806E-01  .358491E-02  .183390E-01  .383001E-02
  .148669E-01  .410209E-02  .111390E-01  .440517E-02  .712577E-02  .474408E-02
  .279310E-02  .512461E-02 -.189883E-02  .555380E-02 -.699658E-02  .604020E-02
 -.125544E-01  .659431E-02 -.186386E-01  .722930E-02 -.253263E-01  .796152E-02
 -.327114E-01  .881171E-02 -.409080E-01  .980647E-02 -.500564E-01  .109803E-01
 -.603297E-01  .123785E-01 -.719488E-01  .140620E-01 -.851919E-01  .161135E-01
 -.100420E+00  .186479E-01 -.118110E+00  .218285E-01 -.138899E+00  .258938E-01
 -.163663E+00  .312021E-01 -.193641E+00  .383144E-01 -.230624E+00  .481420E-01
 -.277305E+00  .622490E-01 -.337892E+00  .834934E-01 -.419243E+00  .117534E+00
 -.532981E+00  .176770E+00 -.698852E+00  .292262E+00 -.941603E+00  .555402E+00
 -.117120E+01  .126256E+01 -.223313E+00  .253550E+01  .135937E+01  .165107E+01
  .126875E+01  .702297E+00  .100513E+01  .351254E+00  .818483E+00  .205208E+00
  .691641E+00  .133329E+00  .602104E+00  .932268E-01  .536195E+00  .687285E-01
  .485906E+00  .527179E-01  .446392E+00  .416997E-01  .414578E+00  .338002E-01
  .388450E+00  .279479E-01  .366632E+00  .234932E-01  .348153E+00  .200246E-01
  .332313E+00  .172716E-01  .318595E+00  .150502E-01  .306603E+00  .132315E-01
  .296039E+00  .117239E-01  .286667E+00  .104603E-01  .278301E+00  .939058E-02
  .270790E+00  .847699E-02  .264016E+00  .769058E-02  .257876E+00  .700861E-02
  .252290E+00  .641337E-02  .247188E+00  .589070E-02  .242513E+00  .542924E-02
  .238217E+00  .501973E-02  .234257E+00  .465464E-02  .230598E+00  .432774E-02
  .227208E+00  .403381E-02  .224062E+00  .376856E-02  .221136E+00  .352834E-02
  .218410E+00  .331007E-02  .215865E+00  .311114E-02  .213486E+00  .292932E-02
  .211259E+00  .276265E-02  .209171E+00  .260949E-02  .207212E+00  .246840E-02
  .205371E+00  .233812E-02  .203639E+00  .221756E-02  .202009E+00  .210578E-02
  .200474E+00  .200191E-02  .199025E+00  .190521E-02  .197659E+00  .181503E-02
