w_res:
0.000000e+00
1.558000e+02
4.075000e+02
8.190000e+02
1.354000e+03
2.025000e+03
2.820000e+03
3.747000e+03

w_ch:
4.000000e+00
1.318000e+02
2.477000e+02
3.755000e+02
5.753000e+02
7.710000e+02
1.035000e+03
1.294000e+03
1.626000e+03
1.946000e+03
2.345000e+03
2.737000e+03
3.204000e+03
3.655000e+03

A_jk:
-5.174624e-02+1.695594e-03i
-1.666003e-02-3.871630e-02i
-2.095419e-02-2.119916e-04i
-1.227802e-02-4.879224e-02i
-3.577761e-03-1.460776e-03i
1.698374e-03+3.067732e-03i
1.405305e-03+2.917983e-04i
5.657298e-04+3.169168e-03i

eta_jk:
1.000000e-08
1.805808e-06
1.489464e-07
1.656474e-08
5.173987e-09
2.028941e-10
4.852164e-10
3.005605e-10
